  1   2 D = 238
  1 111 C > 15
  1 112 C > 29
  1 281 C > 35
  1 391 C > 25
  1 473 C > 31
  1 474 C > 12
  1 492 C > 32
  1 508 C > 11
  1 535 C > 16
  2 112 C > 25
  2 115 C > 60
  2 116 C > 1
  2 392 C > 10
  2 535 C > 27
  3   4 D = 238
  3  91 C > 52
  3  92 C > 22
  3 199 C > 70
  3 200 C > 1
  3 665 C > 8
  3 666 C > 24
  3 676 C > 14
  4  57 C > 2
  4 391 C > 27
  4 392 C > 7
  4 395 C > 35
  4 675 C > 50
  5   6 D = 238
  5  35 C > 18
  5  36 C > 38
  5 328 C > 11
  5 385 C > 13
  5 476 C > 8
  6 107 C > 6
  6 197 C > 28
  6 198 C > 55
  6 328 C > 7
  6 475 C > 43
  6 476 C > 38
  6 559 C > 24
  6 560 C > 13
  7   8 D = 238
  7  12 C > 1
  7  28 C > 3
  7  76 C > 4
  7 114 C > 56
  7 365 C > 4
  7 571 C > 33
  7 572 C > 53
  8  12 C > 3
  8  47 C > 24
  8  48 C > 36
  8  49 C > 9
  8  50 C > 129
  8  76 C > 12
  8 113 C > 38
  8 114 C > 41
  8 366 C > 9
  9  10 D = 238
  9  19 C > 2
  9  20 C > 4
  9  29 C > 43
  9  30 C > 48
  9 679 C > 4
  9 680 C > 48
 10  19 C > 56
 10  20 C > 9
 10  29 C > 56
 10  30 C > 34
 10 679 C > 14
 10 680 C > 111
 11  12 D = 238
 11  28 C > 56
 11  76 C > 47
 11 111 C > 66
 11 112 C > 19
 12  48 C > 20
 12  53 C > 16
 12  77 C > 5
 12  78 C > 9
 12 113 C > 46
 12 366 C > 22
 13  14 D = 238
 13  22 C > 81
 13  37 C > 36
 13  38 C > 5
 13  61 C > 7
 13  62 C > 36
 13 102 C > 12
 13 677 C > 2
 14  38 C > 18
 14 101 C > 13
 14 102 C > 2
 14 656 C > 9
 14 679 C > 77
 14 680 C > 10
 15  16 D = 238
 15  55 C > 38
 15  67 C > 25
 15  68 C > 45
 15 115 C > 45
 15 116 C > 56
 15 253 C > 24
 15 266 C > 2
 15 343 C > 33
 16  55 C > 29
 16 266 C > 15
 17  18 D = 238
 17  81 C > 15
 17  82 C > 3
 17  89 C > 19
 17  90 C > 20
 17 131 C > 43
 17 191 C > 43
 17 192 C > 8
 17 635 C > 45
 17 673 C > 133
 18 107 C > 5
 18 108 C > 37
 18 192 C > 23
 18 243 C > 20
 18 272 C > 40
 18 635 C > 55
 18 674 C > 27
 19  20 D = 238
 19  29 C > 3
 19  30 C > 13
 19 679 C > 54
 19 680 C > 24
 20  29 C > 54
 20  30 C > 18
 20 679 C > 56
 20 680 C > 25
 21  22 D = 238
 21  37 C > 4
 21  49 C > 8
 21  50 C > 28
 21 101 C > 76
 21 655 C > 100
 21 677 C > 34
 21 679 C > 6
 21 680 C > 46
 22  69 C > 8
 22 677 C > 1
 22 678 C > 7
 23  24 D = 238
 23  31 C > 34
 23  32 C > 2
 23  46 C > 21
 23  85 C > 9
 23  86 C > 5
 23  96 C > 31
 23 307 C > 4
 24  45 C > 5
 24 123 C > 19
 24 127 C > 26
 24 128 C > 22
 24 162 C > 56
 24 308 C > 6
 25  26 D = 238
 25  41 C > 35
 25  42 C > 18
 25  97 C > 6
 25  98 C > 36
 25 155 C > 61
 25 156 C > 8
 25 211 C > 10
 25 212 C > 18
 25 399 C > 48
 25 400 C > 16
 25 445 C > 8
 25 446 C > 17
 25 461 C > 4
 25 462 C > 17
 25 523 C > 7
 25 524 C > 3
 26  41 C > 56
 26  42 C > 32
 26  97 C > 14
 26  98 C > 18
 26 155 C > 35
 26 156 C > 56
 26 197 C > 23
 26 198 C > 1
 26 211 C > 54
 26 212 C > 18
 26 399 C > 32
 26 400 C > 6
 26 445 C > 2
 26 446 C > 24
 26 523 C > 54
 26 524 C > 36
 27  28 D = 238
 27  47 C > 26
 27  48 C > 5
 27  54 C > 44
 27  57 C > 73
 27  58 C > 16
 27  76 C > 28
 27 113 C > 19
 28  48 C > 49
 28  55 C > 4
 28  56 C > 13
 28  76 C > 56
 28 365 C > 2
 29  30 D = 238
 29 679 C > 45
 29 680 C > 3
 30 679 C > 39
 30 680 C > 17
 31  32 D = 238
 31  93 C > 31
 31  94 C > 39
 31 145 C > 21
 31 146 C > 89
 31 151 C > 32
 31 329 C > 42
 32 299 C > 41
 32 330 C > 11
 32 456 C > 11
 33  34 D = 238
 33  83 C > 15
 33 173 C > 3
 33 174 C > 96
 33 266 C > 90
 34  55 C > 45
 34  56 C > 5
 34  83 C > 5
 34 254 C > 1
 34 255 C > 7
 34 256 C > 26
 34 344 C > 56
 35  36 D = 238
 35  59 C > 7
 35  60 C > 3
 35  89 C > 56
 35  90 C > 37
 35 177 C > 29
 35 241 C > 9
 35 270 C > 13
 35 318 C > 41
 35 376 C > 37
 36  89 C > 19
 36  90 C > 56
 36 135 C > 6
 36 301 C > 11
 36 302 C > 21
 36 318 C > 15
 36 376 C > 10
 37  38 D = 238
 37  50 C > 40
 37  70 C > 5
 37 185 C > 4
 37 186 C > 44
 37 656 C > 34
 38  59 C > 5
 38  60 C > 47
 38 101 C > 18
 39  40 D = 238
 39 335 C > 7
 39 336 C > 20
 39 422 C > 22
 39 441 C > 12
 39 442 C > 43
 39 577 C > 80
 39 578 C > 3
 40 120 C > 12
 40 271 C > 12
 40 272 C > 1
 40 335 C > 1
 40 577 C > 20
 41  42 D = 238
 41  97 C > 32
 41  98 C > 12
 41 155 C > 56
 41 156 C > 23
 41 211 C > 5
 41 212 C > 11
 41 399 C > 29
 41 400 C > 4
 41 445 C > 1
 41 446 C > 56
 41 523 C > 18
 41 524 C > 14
 42  97 C > 32
 42  98 C > 56
 42 155 C > 56
 42 156 C > 7
 42 211 C > 4
 42 212 C > 120
 42 399 C > 12
 42 400 C > 15
 42 445 C > 10
 42 446 C > 17
 42 523 C > 6
 42 524 C > 46
 43  44 D = 238
 43 157 C > 3
 43 357 C > 24
 43 359 C > 10
 43 360 C > 23
 43 367 C > 9
 43 368 C > 30
 44 161 C > 53
 44 162 C > 8
 44 165 C > 39
 44 361 C > 49
 44 362 C > 56
 44 367 C > 53
 44 472 C > 23
 45  46 D = 238
 45 123 C > 9
 45 159 C > 4
 45 160 C > 94
 45 184 C > 40
 45 307 C > 44
 46  95 C > 112
 46  96 C > 8
 46 161 C > 33
 46 184 C > 10
 47  48 D = 238
 47  54 C > 2
 47 113 C > 3
 47 114 C > 31
 48 191 C > 1
 48 192 C > 24
 48 366 C > 22
 49  50 D = 238
 49  70 C > 6
 49 101 C > 142
 49 102 C > 6
 49 265 C > 3
 49 266 C > 22
 49 656 C > 10
 50  69 C > 8
 50 101 C > 18
 51  52 D = 238
 51 171 C > 126
 51 175 C > 6
 51 277 C > 25
 51 561 C > 15
 51 562 C > 8
 52 172 C > 1
 52 175 C > 3
 52 176 C > 42
 52 202 C > 30
 52 250 C > 4
 52 251 C > 1
 52 278 C > 80
 53  54 D = 238
 53  75 C > 54
 53  76 C > 22
 53 366 C > 3
 53 619 C > 5
 53 620 C > 91
 54  76 C > 4
 54 114 C > 40
 54 366 C > 10
 54 439 C > 6
 54 440 C > 30
 55  56 D = 238
 55 253 C > 26
 55 266 C > 28
 55 463 C > 19
 55 464 C > 6
 56 115 C > 36
 56 265 C > 45
 56 266 C > 56
 56 344 C > 3
 56 557 C > 50
 56 558 C > 10
 57  58 D = 238
 57 137 C > 105
 57 138 C > 45
 58  91 C > 1
 58  92 C > 15
 58 182 C > 16
 58 325 C > 35
 58 395 C > 15
 58 396 C > 27
 58 665 C > 3
 58 666 C > 11
 58 676 C > 11
 58 677 C > 56
 58 678 C > 56
 59  60 D = 238
 59  99 C > 6
 59 100 C > 18
 59 206 C > 112
 59 231 C > 5
 59 232 C > 7
 59 292 C > 8
 59 383 C > 14
 59 384 C > 15
 60 100 C > 1
 60 157 C > 117
 60 158 C > 82
 60 291 C > 32
 61  62 D = 238
 61 152 C > 41
 61 330 C > 9
 61 493 C > 3
 61 494 C > 4
 62 300 C > 27
 62 455 C > 3
 62 456 C > 23
 63  64 D = 238
 63 237 C > 39
 63 238 C > 46
 63 377 C > 32
 63 378 C > 29
 63 415 C > 21
 63 416 C > 37
 63 447 C > 5
 63 448 C > 1
 63 453 C > 3
 63 454 C > 19
 63 463 C > 43
 63 464 C > 39
 63 549 C > 19
 63 550 C > 5
 63 611 C > 22
 63 612 C > 51
 64 237 C > 17
 64 238 C > 54
 64 377 C > 4
 64 378 C > 11
 64 385 C > 5
 64 386 C > 6
 64 415 C > 17
 64 416 C > 2
 64 453 C > 43
 64 454 C > 4
 64 463 C > 14
 64 464 C > 7
 64 549 C > 72
 64 550 C > 10
 64 611 C > 22
 64 612 C > 36
 65  66 D = 238
 65  79 C > 83
 65  80 C > 14
 65 125 C > 12
 65 139 C > 30
 65 140 C > 3
 65 289 C > 29
 65 290 C > 2
 66  80 C > 11
 66 115 C > 95
 66 116 C > 2
 66 126 C > 34
 66 575 C > 47
 67  68 D = 238
 67 149 C > 9
 67 150 C > 12
 67 233 C > 6
 67 234 C > 46
 67 315 C > 7
 67 316 C > 21
 67 331 C > 20
 67 332 C > 15
 67 333 C > 10
 67 334 C > 4
 67 345 C > 6
 67 346 C > 16
 67 355 C > 14
 67 356 C > 31
 67 403 C > 26
 67 404 C > 29
 68 149 C > 45
 68 150 C > 13
 68 233 C > 19
 68 234 C > 19
 68 315 C > 5
 68 316 C > 10
 68 331 C > 1
 68 332 C > 4
 68 345 C > 47
 68 346 C > 20
 68 355 C > 5
 68 356 C > 35
 68 403 C > 29
 68 404 C > 5
 69  70 D = 238
 69 656 C > 28
 69 669 C > 8
 69 670 C > 20
 70 293 C > 2
 70 294 C > 23
 70 678 C > 13
 71  72 D = 238
 71 227 C > 35
 71 370 C > 5
 71 457 C > 56
 71 458 C > 2
 71 495 C > 38
 71 596 C > 7
 72 228 C > 5
 72 345 C > 26
 72 346 C > 20
 72 596 C > 18
 73  74 D = 238
 73 127 C > 56
 73 128 C > 30
 73 180 C > 33
 73 359 C > 56
 73 499 C > 21
 73 653 C > 6
 73 654 C > 33
 73 670 C > 5
 74 179 C > 56
 74 305 C > 74
 74 499 C > 3
 74 500 C > 12
 74 653 C > 47
 74 657 C > 3
 74 658 C > 17
 74 670 C > 53
 74 675 C > 9
 74 676 C > 9
 75  76 D = 238
 75 113 C > 39
 75 114 C > 64
 75 303 C > 3
 75 304 C > 3
 75 365 C > 39
 75 366 C > 1
 76 113 C > 5
 76 427 C > 8
 76 428 C > 19
 77  78 D = 238
 77 104 C > 19
 77 187 C > 11
 77 348 C > 10
 78 103 C > 7
 78 134 C > 4
 78 354 C > 2
 79  80 D = 238
 79 125 C > 67
 79 289 C > 25
 79 290 C > 13
 79 293 C > 7
 79 294 C > 26
 79 399 C > 21
 79 400 C > 41
 79 432 C > 13
 79 575 C > 7
 80 125 C > 52
 80 171 C > 56
 80 172 C > 56
 80 432 C > 4
 80 503 C > 9
 80 576 C > 40
 81  82 D = 238
 81 132 C > 12
 81 192 C > 13
 81 211 C > 56
 81 212 C > 48
 82 132 C > 18
 82 243 C > 7
 82 271 C > 1
 82 323 C > 20
 82 324 C > 4
 82 636 C > 25
 83  84 D = 238
 83 116 C > 22
 83 253 C > 26
 83 667 C > 31
 83 668 C > 17
 84 253 C > 12
 85  86 D = 238
 85  95 C > 10
 85  96 C > 19
 85 184 C > 9
 86 127 C > 12
 86 128 C > 35
 86 161 C > 12
 86 184 C > 13
 87  88 D = 238
 87 209 C > 54
 87 309 C > 14
 87 310 C > 8
 87 427 C > 23
 87 467 C > 3
 87 468 C > 22
 88 249 C > 42
 88 250 C > 25
 88 255 C > 24
 88 284 C > 10
 88 312 C > 31
 88 428 C > 42
 88 468 C > 17
 89  90 D = 238
 89 135 C > 33
 89 169 C > 28
 89 170 C > 4
 89 177 C > 25
 89 178 C > 30
 89 242 C > 56
 89 270 C > 33
 89 318 C > 53
 89 375 C > 29
 90 135 C > 15
 90 219 C > 13
 90 220 C > 31
 90 317 C > 49
 90 375 C > 25
 91  92 D = 238
 91 115 C > 26
 91 116 C > 18
 91 181 C > 8
 91 326 C > 25
 91 395 C > 48
 91 396 C > 10
 91 676 C > 9
 92 396 C > 12
 92 676 C > 11
 93  94 D = 238
 93 173 C > 45
 93 174 C > 107
 93 207 C > 20
 93 208 C > 13
 93 387 C > 21
 93 388 C > 55
 93 413 C > 55
 93 414 C > 2
 93 533 C > 30
 93 534 C > 1
 93 545 C > 36
 93 546 C > 27
 93 573 C > 31
 93 574 C > 3
 93 623 C > 23
 93 624 C > 3
 94 207 C > 27
 94 208 C > 20
 94 387 C > 26
 94 388 C > 79
 94 413 C > 13
 94 414 C > 13
 94 533 C > 27
 94 534 C > 46
 94 545 C > 35
 94 546 C > 10
 94 573 C > 4
 94 574 C > 24
 94 623 C > 8
 94 624 C > 16
 94 675 C > 30
 94 676 C > 77
 95  96 D = 238
 95 124 C > 60
 95 184 C > 25
 96 162 C > 5
 96 183 C > 4
 96 184 C > 12
 97  98 D = 238
 97 155 C > 23
 97 156 C > 11
 97 211 C > 12
 97 212 C > 17
 97 399 C > 31
 97 400 C > 22
 97 445 C > 56
 97 446 C > 61
 97 523 C > 5
 97 524 C > 24
 98 155 C > 46
 98 156 C > 11
 98 211 C > 54
 98 212 C > 35
 98 399 C > 9
 98 400 C > 56
 98 445 C > 53
 98 446 C > 26
 98 523 C > 4
 98 524 C > 8
 98 593 C > 35
 98 594 C > 1
 99 100 D = 238
 99 121 C > 4
 99 122 C > 41
 99 153 C > 26
 99 154 C > 6
 99 205 C > 12
 99 206 C > 6
100 154 C > 12
100 205 C > 13
100 292 C > 15
101 102 D = 238
101 175 C > 7
101 176 C > 1
101 655 C > 5
101 656 C > 56
102 663 C > 43
102 664 C > 23
102 677 C > 15
103 104 D = 238
103 134 C > 23
103 187 C > 45
103 188 C > 46
103 225 C > 21
103 226 C > 36
103 354 C > 4
104 128 C > 11
104 134 C > 56
104 188 C > 8
104 189 C > 9
104 347 C > 15
104 348 C > 54
105 106 D = 238
105 349 C > 15
105 350 C > 10
105 371 C > 2
105 372 C > 31
105 457 C > 15
105 458 C > 4
106 377 C > 43
106 378 C > 4
106 457 C > 2
106 458 C > 11
106 634 C > 3
106 671 C > 2
107 108 D = 238
107 198 C > 50
107 221 C > 56
107 385 C > 34
107 407 C > 23
107 476 C > 83
108 328 C > 35
108 386 C > 48
108 407 C > 27
109 110 D = 238
109 133 C > 11
109 134 C > 1
109 349 C > 2
109 350 C > 9
109 401 C > 30
109 402 C > 9
109 425 C > 26
109 426 C > 40
109 483 C > 22
109 484 C > 53
109 563 C > 15
109 564 C > 56
109 591 C > 46
109 592 C > 115
109 599 C > 24
109 600 C > 5
110 349 C > 10
110 350 C > 11
110 401 C > 1
110 402 C > 24
110 425 C > 1
110 426 C > 52
110 483 C > 3
110 484 C > 52
110 563 C > 1
110 564 C > 56
110 591 C > 29
110 592 C > 82
110 599 C > 5
110 600 C > 16
111 112 D = 238
111 118 C > 49
111 392 C > 4
111 491 C > 1
111 536 C > 109
112 117 C > 39
112 281 C > 20
112 282 C > 34
112 391 C > 10
112 492 C > 3
112 507 C > 26
112 515 C > 11
112 516 C > 16
113 114 D = 238
113 366 C > 12
114 617 C > 40
114 618 C > 23
115 116 D = 238
115 253 C > 13
115 343 C > 29
116 254 C > 47
116 265 C > 9
116 266 C > 4
116 343 C > 21
116 344 C > 8
117 118 D = 238
117 491 C > 36
117 492 C > 38
117 508 C > 19
118 391 C > 6
118 419 C > 4
118 420 C > 1
118 492 C > 14
118 535 C > 12
119 120 D = 238
119 527 C > 35
119 528 C > 12
119 577 C > 20
119 578 C > 43
120 447 C > 5
120 448 C > 52
121 122 D = 238
121 263 C > 31
121 264 C > 42
121 298 C > 9
121 429 C > 8
122 163 C > 1
122 164 C > 54
122 298 C > 17
122 415 C > 44
122 416 C > 49
122 429 C > 21
122 531 C > 5
122 559 C > 9
122 560 C > 11
123 124 D = 238
123 307 C > 15
123 383 C > 40
123 384 C > 34
124 179 C > 59
124 180 C > 9
124 307 C > 8
124 308 C > 18
125 126 D = 238
125 431 C > 30
125 504 C > 15
125 575 C > 27
126 294 C > 37
126 431 C > 9
126 432 C > 25
126 503 C > 6
127 128 D = 238
127 133 C > 6
127 134 C > 50
127 157 C > 44
127 158 C > 32
127 188 C > 1
127 190 C > 37
127 347 C > 11
127 354 C > 50
128 189 C > 90
128 190 C > 5
128 354 C > 22
129 130 D = 238
129 310 C > 15
129 441 C > 46
129 442 C > 56
129 444 C > 20
129 449 C > 5
129 562 C > 1
129 667 C > 26
130 450 C > 33
130 478 C > 40
130 561 C > 21
130 627 C > 12
130 673 C > 13
130 674 C > 7
131 132 D = 238
131 243 C > 16
131 244 C > 37
131 674 C > 56
132 243 C > 37
132 271 C > 1
132 635 C > 31
132 673 C > 12
132 674 C > 2
133 134 D = 238
133 189 C > 11
133 348 C > 55
133 353 C > 37
134 187 C > 56
134 188 C > 18
134 221 C > 10
134 222 C > 5
134 347 C > 49
134 348 C > 5
135 136 D = 238
135 177 C > 3
135 309 C > 40
135 310 C > 23
136 178 C > 62
136 195 C > 28
136 196 C > 5
136 269 C > 22
136 318 C > 31
136 375 C > 6
136 376 C > 19
137 138 D = 238
137 257 C > 77
137 258 C > 56
137 364 C > 24
137 373 C > 56
137 374 C > 12
138 239 C > 66
138 240 C > 2
138 245 C > 1
138 246 C > 56
138 302 C > 6
138 613 C > 19
138 614 C > 28
139 140 D = 238
139 417 C > 52
139 418 C > 10
139 523 C > 5
139 524 C > 28
139 597 C > 6
140 379 C > 29
140 380 C > 25
140 418 C > 9
140 515 C > 6
141 142 D = 238
141 333 C > 19
141 334 C > 22
141 423 C > 26
141 424 C > 27
141 517 C > 31
141 518 C > 28
141 565 C > 31
141 566 C > 4
141 619 C > 13
141 620 C > 9
141 625 C > 12
141 626 C > 34
141 637 C > 56
141 638 C > 42
142 333 C > 31
142 334 C > 7
142 423 C > 1
142 424 C > 19
142 517 C > 8
142 518 C > 31
142 565 C > 17
142 566 C > 46
142 619 C > 37
142 620 C > 18
142 621 C > 14
142 622 C > 6
142 625 C > 12
142 626 C > 32
142 637 C > 19
142 638 C > 3
143 144 D = 238
143 225 C > 12
143 226 C > 52
143 275 C > 3
143 285 C > 25
143 313 C > 116
143 314 C > 5
143 405 C > 50
143 441 C > 64
144 209 C > 37
144 210 C > 11
144 230 C > 33
144 285 C > 4
144 313 C > 5
144 314 C > 2
144 405 C > 9
144 442 C > 52
145 146 D = 238
145 152 C > 14
145 299 C > 9
145 329 C > 18
145 377 C > 4
145 378 C > 17
145 493 C > 9
145 494 C > 28
146 152 C > 56
146 299 C > 47
146 300 C > 45
146 323 C > 11
146 324 C > 16
146 329 C > 38
146 455 C > 5
146 493 C > 25
147 148 D = 238
147 193 C > 1
147 194 C > 3
147 297 C > 1
147 341 C > 28
147 429 C > 13
148 342 C > 39
148 559 C > 32
148 560 C > 3
148 607 C > 26
148 608 C > 113
149 150 D = 238
149 233 C > 7
149 234 C > 4
149 235 C > 28
149 236 C > 16
149 315 C > 39
149 316 C > 2
149 331 C > 50
149 332 C > 42
149 345 C > 52
149 346 C > 57
149 355 C > 66
149 356 C > 56
149 403 C > 52
149 404 C > 1
150 233 C > 5
150 234 C > 41
150 315 C > 5
150 316 C > 5
150 331 C > 3
150 332 C > 31
150 345 C > 7
150 346 C > 13
150 355 C > 37
150 356 C > 1
150 403 C > 30
150 404 C > 9
151 152 D = 238
151 321 C > 8
151 322 C > 51
152 461 C > 1
152 462 C > 50
152 493 C > 4
153 154 D = 238
153 206 C > 7
153 291 C > 49
153 391 C > 53
153 392 C > 33
153 609 C > 39
154 206 C > 21
154 291 C > 66
154 292 C > 74
154 393 C > 3
154 394 C > 43
154 397 C > 8
155 156 D = 238
155 165 C > 9
155 166 C > 29
155 211 C > 21
155 212 C > 4
155 399 C > 30
155 400 C > 7
155 445 C > 16
155 446 C > 1
155 523 C > 39
155 524 C > 6
156 211 C > 123
156 212 C > 32
156 399 C > 53
156 400 C > 44
156 405 C > 42
156 406 C > 23
156 445 C > 37
156 446 C > 43
156 523 C > 50
156 524 C > 51
157 158 D = 238
157 161 C > 5
157 162 C > 17
157 357 C > 40
157 358 C > 51
157 361 C > 18
157 368 C > 56
158 165 C > 19
158 359 C > 45
158 360 C > 9
158 361 C > 1
158 362 C > 41
158 367 C > 37
158 368 C > 5
158 471 C > 21
159 160 D = 238
159 165 C > 56
159 166 C > 33
159 268 C > 38
159 274 C > 56
159 469 C > 28
159 509 C > 80
160 173 C > 154
160 174 C > 119
160 274 C > 51
160 352 C > 28
160 469 C > 49
161 162 D = 238
161 167 C > 12
161 168 C > 28
161 183 C > 9
161 184 C > 7
161 307 C > 43
162 183 C > 2
162 309 C > 3
162 310 C > 37
163 164 D = 238
163 247 C > 16
163 248 C > 33
163 297 C > 7
163 298 C > 8
163 342 C > 17
163 430 C > 31
163 559 C > 17
163 560 C > 3
164 297 C > 7
164 298 C > 8
164 373 C > 6
164 374 C > 15
164 531 C > 38
164 559 C > 56
165 166 D = 238
165 358 C > 3
165 362 C > 32
165 368 C > 14
165 471 C > 34
165 472 C > 5
166 362 C > 22
166 368 C > 3
166 569 C > 1
166 570 C > 58
167 168 D = 238
167 373 C > 25
167 374 C > 37
167 419 C > 21
167 420 C > 100
167 447 C > 85
167 448 C > 8
167 461 C > 1
167 462 C > 40
167 511 C > 46
167 512 C > 41
167 601 C > 6
167 602 C > 53
167 639 C > 10
167 640 C > 56
167 643 C > 46
167 644 C > 39
168 373 C > 12
168 374 C > 43
168 419 C > 12
168 420 C > 16
168 447 C > 1
168 448 C > 37
168 511 C > 11
168 512 C > 27
168 601 C > 1
168 602 C > 54
168 639 C > 48
168 640 C > 30
168 643 C > 56
168 644 C > 2
169 170 D = 238
169 204 C > 6
169 274 C > 14
170 203 C > 13
170 204 C > 71
170 215 C > 33
170 216 C > 30
170 268 C > 1
170 273 C > 49
170 274 C > 53
170 351 C > 21
170 469 C > 56
170 470 C > 33
171 172 D = 238
171 227 C > 4
171 228 C > 55
171 249 C > 1
171 250 C > 13
171 251 C > 46
171 277 C > 28
172 201 C > 84
172 249 C > 13
172 251 C > 13
172 252 C > 50
172 277 C > 66
172 381 C > 35
172 382 C > 4
172 540 C > 17
173 174 D = 238
173 323 C > 30
173 324 C > 4
173 547 C > 7
173 567 C > 4
173 663 C > 18
173 664 C > 1
174 459 C > 22
174 547 C > 6
174 553 C > 11
174 554 C > 19
174 567 C > 3
174 616 C > 35
174 661 C > 16
174 663 C > 2
175 176 D = 238
175 202 C > 39
175 249 C > 19
175 539 C > 7
176 202 C > 4
176 249 C > 144
176 250 C > 34
176 277 C > 35
176 373 C > 29
176 374 C > 28
176 539 C > 5
176 540 C > 50
177 178 D = 238
177 197 C > 13
177 198 C > 29
178 242 C > 30
178 270 C > 91
178 376 C > 21
179 180 D = 238
179 305 C > 16
179 306 C > 51
179 360 C > 10
179 653 C > 5
179 658 C > 21
179 669 C > 23
180 305 C > 38
180 306 C > 101
180 359 C > 12
180 360 C > 14
180 371 C > 55
180 372 C > 20
180 499 C > 65
180 500 C > 2
180 670 C > 23
181 182 D = 238
181 265 C > 2
181 266 C > 23
181 396 C > 54
182 325 C > 56
182 381 C > 13
182 382 C > 4
182 665 C > 35
182 675 C > 55
182 676 C > 13
183 184 D = 238
185 186 D = 238
185 389 C > 18
185 390 C > 5
185 407 C > 94
185 408 C > 79
185 409 C > 69
185 410 C > 5
185 433 C > 25
185 434 C > 50
185 473 C > 10
185 474 C > 21
185 505 C > 55
185 506 C > 130
185 553 C > 22
185 554 C > 39
185 585 C > 56
185 586 C > 27
186 389 C > 22
186 390 C > 5
186 403 C > 52
186 404 C > 3
186 409 C > 56
186 410 C > 24
186 433 C > 8
186 434 C > 30
186 473 C > 13
186 474 C > 1
186 505 C > 49
186 506 C > 16
186 553 C > 7
186 554 C > 18
186 585 C > 2
186 586 C > 73
187 188 D = 238
187 289 C > 2
187 290 C > 26
187 348 C > 5
187 353 C > 13
187 354 C > 43
188 354 C > 40
189 190 D = 238
189 295 C > 1
189 296 C > 19
189 348 C > 16
190 347 C > 8
190 353 C > 30
191 192 D = 238
191 269 C > 6
191 270 C > 12
191 635 C > 4
192 244 C > 38
192 272 C > 96
192 635 C > 56
192 655 C > 51
192 656 C > 56
192 673 C > 32
193 194 D = 238
193 259 C > 34
193 260 C > 34
193 287 C > 1
193 288 C > 34
193 337 C > 10
193 338 C > 7
193 501 C > 49
193 502 C > 63
193 503 C > 7
193 504 C > 40
193 513 C > 8
193 514 C > 17
193 529 C > 105
193 530 C > 16
193 569 C > 32
193 570 C > 56
194 259 C > 9
194 260 C > 26
194 287 C > 12
194 288 C > 11
194 337 C > 34
194 338 C > 17
194 501 C > 9
194 502 C > 48
194 513 C > 4
194 514 C > 22
194 523 C > 17
194 524 C > 29
194 529 C > 44
194 530 C > 115
194 569 C > 9
194 570 C > 28
195 196 D = 238
195 203 C > 10
195 204 C > 8
195 213 C > 7
195 214 C > 24
195 393 C > 80
195 394 C > 6
195 521 C > 43
195 522 C > 53
195 583 C > 48
195 584 C > 11
195 617 C > 61
195 618 C > 52
195 645 C > 20
195 646 C > 19
195 651 C > 56
195 652 C > 49
196 213 C > 6
196 214 C > 5
196 373 C > 10
196 374 C > 28
196 393 C > 8
196 394 C > 21
196 521 C > 33
196 522 C > 18
196 583 C > 49
196 584 C > 27
196 617 C > 34
196 618 C > 138
196 645 C > 39
196 646 C > 1
196 651 C > 24
196 652 C > 70
197 198 D = 238
197 327 C > 37
197 408 C > 76
198 222 C > 22
198 476 C > 7
199 200 D = 238
199 261 C > 3
199 262 C > 45
199 276 C > 10
199 285 C > 3
199 405 C > 56
199 442 C > 30
200 230 C > 11
200 286 C > 86
200 313 C > 36
200 406 C > 15
200 442 C > 33
201 202 D = 238
201 250 C > 8
201 277 C > 20
201 278 C > 74
201 539 C > 15
202 278 C > 13
202 543 C > 17
202 544 C > 48
203 204 D = 238
203 268 C > 18
203 269 C > 8
203 270 C > 52
203 273 C > 21
203 351 C > 53
203 470 C > 23
204 509 C > 44
205 206 D = 238
206 383 C > 6
206 384 C > 14
206 397 C > 19
206 453 C > 16
206 454 C > 9
206 609 C > 14
207 208 D = 238
207 387 C > 50
207 388 C > 3
207 413 C > 1
207 414 C > 32
207 533 C > 17
207 534 C > 4
207 545 C > 13
207 546 C > 7
207 573 C > 21
207 574 C > 29
207 623 C > 18
207 624 C > 8
208 387 C > 2
208 388 C > 7
208 407 C > 50
208 408 C > 22
208 413 C > 36
208 414 C > 7
208 533 C > 15
208 534 C > 13
208 545 C > 15
208 546 C > 29
208 573 C > 91
208 574 C > 18
208 623 C > 49
208 624 C > 38
209 210 D = 238
209 247 C > 9
209 255 C > 11
209 256 C > 39
209 357 C > 12
209 358 C > 40
209 427 C > 51
210 255 C > 1
210 467 C > 6
210 541 C > 20
210 542 C > 5
211 212 D = 238
211 399 C > 5
211 400 C > 17
211 445 C > 64
211 446 C > 16
211 523 C > 4
211 524 C > 53
212 399 C > 42
212 400 C > 12
212 429 C > 15
212 430 C > 46
212 445 C > 10
212 446 C > 29
212 523 C > 50
212 524 C > 29
213 214 D = 238
213 393 C > 77
213 394 C > 68
213 521 C > 22
213 522 C > 159
213 583 C > 12
213 584 C > 33
213 617 C > 4
213 618 C > 10
213 629 C > 12
213 630 C > 4
213 645 C > 9
213 646 C > 1
213 651 C > 12
213 652 C > 10
214 393 C > 88
214 394 C > 56
214 521 C > 37
214 522 C > 37
214 583 C > 26
214 584 C > 7
214 617 C > 24
214 618 C > 1
214 645 C > 37
214 646 C > 43
214 651 C > 57
214 652 C > 6
215 216 D = 238
215 217 C > 13
215 218 C > 26
215 439 C > 35
215 440 C > 13
215 447 C > 6
215 448 C > 11
215 527 C > 51
215 528 C > 19
215 537 C > 46
215 538 C > 16
215 605 C > 4
215 606 C > 3
215 629 C > 61
215 630 C > 5
215 649 C > 6
215 650 C > 8
216 217 C > 18
216 218 C > 34
216 439 C > 4
216 440 C > 56
216 515 C > 4
216 516 C > 4
216 527 C > 2
216 528 C > 12
216 537 C > 42
216 538 C > 15
216 605 C > 10
216 606 C > 54
216 629 C > 8
216 630 C > 1
216 649 C > 34
216 650 C > 15
217 218 D = 238
217 439 C > 13
217 440 C > 11
217 527 C > 4
217 528 C > 16
217 533 C > 82
217 534 C > 27
217 537 C > 50
217 538 C > 32
217 605 C > 17
217 606 C > 19
217 629 C > 11
217 630 C > 14
217 649 C > 7
217 650 C > 4
218 439 C > 7
218 440 C > 7
218 527 C > 33
218 528 C > 2
218 537 C > 23
218 538 C > 15
218 605 C > 28
218 606 C > 36
218 629 C > 42
218 630 C > 12
218 635 C > 6
218 636 C > 13
218 649 C > 4
218 650 C > 54
219 220 D = 238
219 305 C > 23
219 306 C > 7
219 381 C > 29
219 382 C > 40
219 437 C > 36
219 519 C > 43
219 520 C > 33
219 551 C > 12
219 552 C > 8
219 587 C > 8
219 593 C > 21
220 382 C > 122
220 497 C > 43
220 498 C > 3
220 588 C > 48
220 593 C > 53
220 648 C > 37
221 222 D = 238
221 327 C > 14
221 328 C > 4
221 385 C > 3
221 386 C > 56
221 407 C > 55
221 475 C > 7
222 407 C > 38
223 224 D = 238
223 379 C > 3
223 418 C > 17
223 503 C > 7
223 504 C > 82
223 515 C > 6
224 516 C > 36
224 541 C > 30
224 542 C > 19
224 558 C > 48
225 226 D = 238
225 245 C > 24
225 246 C > 37
225 261 C > 4
225 262 C > 46
225 279 C > 6
225 280 C > 12
225 423 C > 10
225 424 C > 14
225 435 C > 16
225 436 C > 37
225 485 C > 44
225 486 C > 45
225 525 C > 4
225 526 C > 8
225 571 C > 25
225 572 C > 43
226 245 C > 2
226 246 C > 12
226 261 C > 3
226 262 C > 23
226 279 C > 15
226 280 C > 4
226 435 C > 11
226 436 C > 7
226 485 C > 32
226 486 C > 27
226 525 C > 56
226 526 C > 11
226 529 C > 17
226 530 C > 29
226 571 C > 8
226 572 C > 19
227 228 D = 238
227 229 C > 56
227 230 C > 8
227 370 C > 27
227 595 C > 45
228 232 C > 4
228 340 C > 56
228 411 C > 32
228 445 C > 110
228 446 C > 56
229 230 D = 238
229 275 C > 40
229 314 C > 13
229 321 C > 15
229 322 C > 11
230 276 C > 16
230 283 C > 46
230 284 C > 30
230 314 C > 17
230 406 C > 25
231 232 D = 238
231 343 C > 40
231 344 C > 56
231 369 C > 36
231 370 C > 9
231 411 C > 2
231 412 C > 86
231 496 C > 16
231 596 C > 20
232 340 C > 5
232 357 C > 26
232 358 C > 10
232 411 C > 38
232 596 C > 31
233 234 D = 238
233 315 C > 48
233 316 C > 49
233 317 C > 34
233 318 C > 159
233 331 C > 122
233 332 C > 10
233 345 C > 14
233 346 C > 24
233 355 C > 141
233 356 C > 55
233 403 C > 27
233 404 C > 39
234 315 C > 10
234 316 C > 1
234 331 C > 28
234 332 C > 51
234 337 C > 9
234 338 C > 8
234 345 C > 28
234 346 C > 6
234 355 C > 38
234 356 C > 1
234 403 C > 49
234 404 C > 14
235 236 D = 238
235 372 C > 81
235 633 C > 28
235 661 C > 50
235 662 C > 44
235 671 C > 59
236 458 C > 24
236 556 C > 7
236 634 C > 34
236 659 C > 30
236 660 C > 11
237 238 D = 238
237 377 C > 9
237 378 C > 7
237 415 C > 56
237 416 C > 1
237 453 C > 13
237 454 C > 7
237 463 C > 75
237 464 C > 46
237 549 C > 8
237 550 C > 39
237 611 C > 2
237 612 C > 37
238 377 C > 56
238 378 C > 7
238 405 C > 50
238 406 C > 46
238 415 C > 23
238 416 C > 20
238 453 C > 83
238 454 C > 9
238 463 C > 38
238 464 C > 40
238 549 C > 31
238 550 C > 4
238 611 C > 43
238 612 C > 43
239 240 D = 238
239 277 C > 38
239 278 C > 21
239 579 C > 10
239 580 C > 26
239 613 C > 3
239 614 C > 43
240 363 C > 19
240 669 C > 23
240 670 C > 43
241 242 D = 238
241 243 C > 10
241 244 C > 6
241 376 C > 59
242 317 C > 12
242 353 C > 2
242 354 C > 11
242 376 C > 4
243 244 D = 238
243 659 C > 9
243 660 C > 33
244 272 C > 12
244 639 C > 16
244 640 C > 30
244 673 C > 21
245 246 D = 238
245 261 C > 25
245 262 C > 1
245 263 C > 9
245 264 C > 10
245 279 C > 41
245 280 C > 46
245 435 C > 2
245 436 C > 32
245 485 C > 18
245 486 C > 6
245 525 C > 19
245 526 C > 26
245 571 C > 45
245 572 C > 56
246 261 C > 64
246 262 C > 5
246 279 C > 43
246 280 C > 35
246 435 C > 56
246 436 C > 22
246 485 C > 7
246 486 C > 14
246 491 C > 8
246 492 C > 22
246 525 C > 6
246 526 C > 32
246 571 C > 1
246 572 C > 40
247 248 D = 238
247 255 C > 1
247 305 C > 55
247 306 C > 56
247 311 C > 49
247 467 C > 52
248 255 C > 26
248 284 C > 3
248 311 C > 9
248 427 C > 41
248 428 C > 43
248 441 C > 41
248 442 C > 16
248 468 C > 51
249 250 D = 238
250 251 C > 38
250 252 C > 46
251 252 D = 238
253 254 D = 238
253 257 C > 34
253 258 C > 4
253 265 C > 12
253 343 C > 1
253 344 C > 46
254 265 C > 9
254 266 C > 27
254 344 C > 30
255 256 D = 238
255 397 C > 52
255 398 C > 24
255 428 C > 1
256 283 C > 10
256 312 C > 10
256 428 C > 6
256 467 C > 10
256 468 C > 15
257 258 D = 238
257 607 C > 22
257 613 C > 9
258 301 C > 49
258 302 C > 1
258 303 C > 4
258 304 C > 38
258 363 C > 30
258 364 C > 10
258 608 C > 36
258 614 C > 23
259 260 D = 238
259 277 C > 1
259 278 C > 13
259 287 C > 6
259 288 C > 4
259 337 C > 13
259 338 C > 9
259 501 C > 15
259 502 C > 29
259 513 C > 27
259 514 C > 3
259 529 C > 2
259 530 C > 3
259 569 C > 2
259 570 C > 28
260 287 C > 13
260 288 C > 49
260 337 C > 14
260 338 C > 32
260 501 C > 56
260 502 C > 54
260 513 C > 50
260 514 C > 13
260 529 C > 56
260 530 C > 13
260 569 C > 15
260 570 C > 40
261 262 D = 238
261 279 C > 56
261 280 C > 56
261 423 C > 7
261 424 C > 8
261 435 C > 2
261 436 C > 5
261 485 C > 2
261 486 C > 18
261 525 C > 14
261 526 C > 38
261 571 C > 4
261 572 C > 5
262 279 C > 24
262 280 C > 157
262 297 C > 13
262 298 C > 49
262 435 C > 45
262 436 C > 14
262 485 C > 29
262 486 C > 25
262 525 C > 44
262 526 C > 4
262 571 C > 21
262 572 C > 11
263 264 D = 238
263 379 C > 20
263 380 C > 111
263 462 C > 9
264 335 C > 4
264 336 C > 10
264 487 C > 1
264 488 C > 26
264 577 C > 6
264 578 C > 46
265 266 D = 238
265 344 C > 23
266 343 C > 24
267 268 D = 238
267 273 C > 2
267 352 C > 13
267 470 C > 10
268 274 C > 47
268 352 C > 44
268 469 C > 129
268 509 C > 24
269 270 D = 238
269 317 C > 25
269 343 C > 10
269 344 C > 6
269 375 C > 45
270 317 C > 19
270 318 C > 26
270 357 C > 113
270 358 C > 3
270 376 C > 56
271 272 D = 238
271 547 C > 56
271 548 C > 47
271 635 C > 7
271 673 C > 40
273 274 D = 238
273 279 C > 7
273 280 C > 34
273 510 C > 50
274 352 C > 16
274 465 C > 50
274 466 C > 8
275 276 D = 238
275 279 C > 25
275 280 C > 17
276 406 C > 2
276 441 C > 52
276 442 C > 20
276 577 C > 5
276 578 C > 55
277 278 D = 238
278 539 C > 49
279 280 D = 238
279 435 C > 28
279 436 C > 11
279 485 C > 45
279 486 C > 55
279 525 C > 19
279 526 C > 26
279 529 C > 52
279 530 C > 56
279 571 C > 7
279 572 C > 31
280 435 C > 37
280 436 C > 6
280 447 C > 39
280 448 C > 91
280 485 C > 47
280 486 C > 59
280 525 C > 15
280 526 C > 1
280 571 C > 103
280 572 C > 9
281 282 D = 238
281 507 C > 7
281 508 C > 45
281 509 C > 9
281 510 C > 56
282 491 C > 15
282 492 C > 11
282 508 C > 56
282 536 C > 4
283 284 D = 238
283 311 C > 22
283 427 C > 3
284 468 C > 38
285 286 D = 238
285 299 C > 49
285 300 C > 22
285 313 C > 55
285 442 C > 56
286 313 C > 4
286 595 C > 46
286 596 C > 14
287 288 D = 238
287 337 C > 43
287 338 C > 3
287 501 C > 14
287 502 C > 56
287 513 C > 36
287 514 C > 51
287 529 C > 13
287 530 C > 2
287 541 C > 1
287 542 C > 64
287 569 C > 64
287 570 C > 50
288 337 C > 4
288 338 C > 90
288 501 C > 71
288 502 C > 13
288 513 C > 56
288 514 C > 25
288 529 C > 18
288 530 C > 11
288 555 C > 1
288 556 C > 11
288 569 C > 23
288 570 C > 13
289 290 D = 238
289 293 C > 24
289 431 C > 8
289 503 C > 1
289 509 C > 32
289 510 C > 12
290 294 C > 2
290 431 C > 23
290 479 C > 7
290 480 C > 8
291 292 D = 238
291 384 C > 21
291 389 C > 10
291 390 C > 34
291 397 C > 15
292 384 C > 2
292 395 C > 15
292 396 C > 69
292 610 C > 1
293 294 D = 238
293 503 C > 29
293 504 C > 13
293 575 C > 28
293 625 C > 24
293 626 C > 8
294 432 C > 10
294 503 C > 6
294 504 C > 23
294 576 C > 41
295 296 D = 238
295 303 C > 38
295 304 C > 15
295 321 C > 93
295 322 C > 32
295 465 C > 140
295 466 C > 8
295 543 C > 29
295 544 C > 8
295 589 C > 15
295 590 C > 11
295 603 C > 55
295 604 C > 4
295 631 C > 5
295 632 C > 8
296 303 C > 13
296 304 C > 82
296 321 C > 6
296 322 C > 17
296 465 C > 3
296 466 C > 39
296 543 C > 21
296 544 C > 6
296 589 C > 71
296 590 C > 51
296 603 C > 13
296 604 C > 4
296 631 C > 46
296 632 C > 20
297 298 D = 238
297 341 C > 43
297 342 C > 5
297 430 C > 2
297 531 C > 55
297 532 C > 11
297 560 C > 25
298 341 C > 3
298 429 C > 49
298 430 C > 15
298 547 C > 12
298 548 C > 10
298 559 C > 23
299 300 D = 238
299 455 C > 51
299 456 C > 17
299 494 C > 56
299 601 C > 11
299 602 C > 23
300 329 C > 6
300 456 C > 17
301 302 D = 238
301 364 C > 3
301 579 C > 56
301 593 C > 13
301 594 C > 25
301 613 C > 10
302 363 C > 6
302 613 C > 25
303 304 D = 238
303 321 C > 4
303 322 C > 55
303 353 C > 49
303 354 C > 40
303 465 C > 1
303 466 C > 1
303 543 C > 5
303 544 C > 3
303 589 C > 47
303 590 C > 8
303 603 C > 27
303 604 C > 56
303 631 C > 44
303 632 C > 34
304 321 C > 4
304 322 C > 29
304 465 C > 42
304 466 C > 7
304 543 C > 39
304 544 C > 12
304 589 C > 56
304 590 C > 26
304 593 C > 56
304 594 C > 14
304 603 C > 20
304 604 C > 16
304 631 C > 16
304 632 C > 16
305 306 D = 238
305 487 C > 5
305 488 C > 56
305 500 C > 88
305 653 C > 35
306 360 C > 13
306 425 C > 4
306 426 C > 10
306 653 C > 4
306 669 C > 39
307 308 D = 238
308 459 C > 4
308 460 C > 20
309 310 D = 238
309 477 C > 52
309 478 C > 23
309 617 C > 6
309 618 C > 139
309 627 C > 22
310 444 C > 28
310 449 C > 32
310 450 C > 55
311 312 D = 238
312 468 C > 52
313 314 D = 238
313 442 C > 44
313 609 C > 31
313 610 C > 1
314 405 C > 12
314 406 C > 3
314 439 C > 40
314 440 C > 4
314 441 C > 8
315 316 D = 238
315 321 C > 25
315 322 C > 29
315 331 C > 69
315 332 C > 20
315 345 C > 39
315 346 C > 81
315 355 C > 2
315 356 C > 14
315 403 C > 51
315 404 C > 30
316 331 C > 46
316 332 C > 15
316 345 C > 11
316 346 C > 56
316 349 C > 42
316 350 C > 10
316 355 C > 31
316 356 C > 11
316 403 C > 6
316 404 C > 1
317 318 D = 238
319 320 D = 238
319 479 C > 10
319 480 C > 2
319 481 C > 115
319 482 C > 52
319 497 C > 22
319 498 C > 8
319 541 C > 86
319 542 C > 6
319 569 C > 46
319 570 C > 41
319 581 C > 25
319 582 C > 35
319 621 C > 1
319 622 C > 3
319 641 C > 4
319 642 C > 36
320 479 C > 9
320 480 C > 44
320 481 C > 18
320 482 C > 52
320 497 C > 51
320 498 C > 2
320 541 C > 40
320 542 C > 5
320 581 C > 5
320 582 C > 37
320 621 C > 23
320 622 C > 1
320 641 C > 2
320 642 C > 65
321 322 D = 238
321 465 C > 11
321 466 C > 56
321 543 C > 41
321 544 C > 3
321 559 C > 26
321 560 C > 12
321 589 C > 8
321 590 C > 9
321 603 C > 4
321 604 C > 70
321 631 C > 40
321 632 C > 31
322 465 C > 13
322 466 C > 47
322 543 C > 1
322 544 C > 1
322 589 C > 9
322 590 C > 12
322 603 C > 2
322 604 C > 3
322 631 C > 2
322 632 C > 33
323 324 D = 238
323 568 C > 22
323 615 C > 55
324 548 C > 1
324 616 C > 110
324 663 C > 41
325 326 D = 238
325 659 C > 9
325 660 C > 22
325 666 C > 49
325 675 C > 9
326 396 C > 38
326 665 C > 15
326 669 C > 9
326 670 C > 30
326 676 C > 19
327 328 D = 238
327 343 C > 7
327 344 C > 89
327 475 C > 28
327 476 C > 5
328 386 C > 6
328 391 C > 43
328 392 C > 8
329 330 D = 238
329 455 C > 15
329 456 C > 9
329 653 C > 38
329 654 C > 42
330 455 C > 40
330 456 C > 14
331 332 D = 238
331 345 C > 6
331 346 C > 40
331 355 C > 5
331 356 C > 1
331 369 C > 30
331 370 C > 8
331 403 C > 12
331 404 C > 1
332 345 C > 43
332 346 C > 3
332 355 C > 56
332 356 C > 13
332 403 C > 18
332 404 C > 44
333 334 D = 238
333 397 C > 56
333 398 C > 43
333 423 C > 25
333 424 C > 51
333 517 C > 9
333 518 C > 8
333 565 C > 33
333 566 C > 56
333 619 C > 5
333 620 C > 30
333 625 C > 45
333 626 C > 7
333 637 C > 5
333 638 C > 6
334 423 C > 28
334 424 C > 10
334 517 C > 55
334 518 C > 3
334 565 C > 39
334 566 C > 17
334 619 C > 24
334 620 C > 13
334 625 C > 91
334 626 C > 16
334 627 C > 3
334 628 C > 12
334 637 C > 59
334 638 C > 22
335 336 D = 238
335 461 C > 47
335 615 C > 70
335 616 C > 5
336 578 C > 56
336 609 C > 27
336 610 C > 19
337 338 D = 238
337 501 C > 12
337 502 C > 16
337 513 C > 5
337 514 C > 17
337 529 C > 56
337 530 C > 42
337 569 C > 42
337 570 C > 68
338 501 C > 1
338 502 C > 79
338 513 C > 56
338 514 C > 107
338 529 C > 19
338 530 C > 39
338 569 C > 19
338 570 C > 33
339 340 D = 238
339 341 C > 12
339 342 C > 56
339 370 C > 2
339 496 C > 34
340 495 C > 56
341 342 D = 238
341 560 C > 2
342 429 C > 8
342 430 C > 55
342 532 C > 45
342 559 C > 8
343 344 D = 238
344 585 C > 42
344 586 C > 30
345 346 D = 238
345 355 C > 15
345 356 C > 47
345 369 C > 14
345 370 C > 56
345 403 C > 2
345 404 C > 50
346 355 C > 19
346 356 C > 10
346 403 C > 21
346 404 C > 7
346 613 C > 12
346 614 C > 13
347 348 D = 238
347 353 C > 9
349 350 D = 238
349 401 C > 6
349 402 C > 40
349 419 C > 1
349 420 C > 15
349 425 C > 17
349 426 C > 13
349 483 C > 6
349 484 C > 23
349 563 C > 38
349 564 C > 49
349 591 C > 54
349 592 C > 42
349 599 C > 32
349 600 C > 56
350 401 C > 63
350 402 C > 50
350 425 C > 27
350 426 C > 2
350 483 C > 13
350 484 C > 10
350 563 C > 42
350 564 C > 55
350 591 C > 41
350 592 C > 45
350 599 C > 36
350 600 C > 17
350 667 C > 27
350 668 C > 27
351 352 D = 238
351 470 C > 56
351 509 C > 1
352 469 C > 119
353 354 D = 238
353 365 C > 55
353 366 C > 13
354 383 C > 8
354 384 C > 38
355 356 D = 238
355 403 C > 17
355 404 C > 21
355 599 C > 13
355 600 C > 22
356 403 C > 21
356 404 C > 20
357 358 D = 238
357 471 C > 8
357 483 C > 13
357 484 C > 33
358 362 C > 10
358 472 C > 52
358 490 C > 13
358 643 C > 38
358 644 C > 1
359 360 D = 238
359 493 C > 8
359 494 C > 11
359 499 C > 54
359 653 C > 55
359 658 C > 16
359 669 C > 10
360 499 C > 33
360 654 C > 2
360 665 C > 7
360 666 C > 12
360 670 C > 37
361 362 D = 238
361 365 C > 50
361 366 C > 10
362 490 C > 46
363 364 D = 238
363 607 C > 1
363 608 C > 37
363 614 C > 5
364 580 C > 24
364 607 C > 12
364 608 C > 40
365 366 D = 238
366 563 C > 20
366 564 C > 5
367 368 D = 238
367 472 C > 8
369 370 D = 238
369 379 C > 9
369 380 C > 9
369 411 C > 22
369 496 C > 16
369 596 C > 5
370 411 C > 51
370 412 C > 6
370 495 C > 1
370 511 C > 6
370 512 C > 23
371 372 D = 238
371 555 C > 23
371 561 C > 88
371 562 C > 6
371 634 C > 1
371 671 C > 5
372 556 C > 10
372 633 C > 1
372 659 C > 20
373 374 D = 238
373 377 C > 29
373 378 C > 7
373 419 C > 3
373 420 C > 1
373 447 C > 32
373 448 C > 18
373 511 C > 11
373 512 C > 13
373 601 C > 2
373 602 C > 38
373 639 C > 36
373 640 C > 8
373 643 C > 23
373 644 C > 45
374 419 C > 12
374 420 C > 75
374 447 C > 5
374 448 C > 27
374 483 C > 68
374 484 C > 3
374 511 C > 29
374 512 C > 19
374 601 C > 28
374 602 C > 24
374 639 C > 2
374 640 C > 52
374 643 C > 24
374 644 C > 4
375 376 D = 238
376 629 C > 9
376 630 C > 3
377 378 D = 238
377 415 C > 21
377 416 C > 50
377 447 C > 23
377 448 C > 18
377 453 C > 9
377 454 C > 20
377 463 C > 4
377 464 C > 9
377 549 C > 11
377 550 C > 1
377 611 C > 1
377 612 C > 32
378 415 C > 10
378 416 C > 37
378 453 C > 1
378 454 C > 4
378 457 C > 3
378 458 C > 8
378 463 C > 74
378 464 C > 39
378 549 C > 83
378 550 C > 32
378 611 C > 2
378 612 C > 13
379 380 D = 238
379 417 C > 4
379 445 C > 19
379 446 C > 7
379 487 C > 9
379 515 C > 9
379 597 C > 36
380 418 C > 5
380 598 C > 23
381 382 D = 238
381 437 C > 33
381 551 C > 41
381 593 C > 13
382 438 C > 48
382 520 C > 9
382 551 C > 46
382 588 C > 4
382 597 C > 55
382 598 C > 56
383 384 D = 238
383 397 C > 24
384 609 C > 5
385 386 D = 238
385 407 C > 15
385 408 C > 20
385 475 C > 102
385 476 C > 93
386 408 C > 5
386 476 C > 69
387 388 D = 238
387 411 C > 5
387 412 C > 52
387 413 C > 1
387 414 C > 35
387 533 C > 9
387 534 C > 25
387 545 C > 3
387 546 C > 40
387 573 C > 46
387 574 C > 19
387 623 C > 46
387 624 C > 40
388 413 C > 26
388 414 C > 42
388 533 C > 2
388 534 C > 3
388 545 C > 56
388 546 C > 17
388 573 C > 4
388 574 C > 9
388 623 C > 1
388 624 C > 2
388 645 C > 16
388 646 C > 3
389 390 D = 238
389 409 C > 2
389 410 C > 67
389 433 C > 15
389 434 C > 5
389 473 C > 4
389 474 C > 32
389 505 C > 17
389 506 C > 55
389 553 C > 2
389 554 C > 33
389 585 C > 3
389 586 C > 2
390 409 C > 88
390 410 C > 1
390 429 C > 11
390 430 C > 1
390 433 C > 4
390 434 C > 27
390 473 C > 13
390 474 C > 10
390 505 C > 13
390 506 C > 51
390 553 C > 56
390 554 C > 49
390 585 C > 9
390 586 C > 43
391 392 D = 238
391 511 C > 1
391 512 C > 28
392 491 C > 3
392 536 C > 15
393 394 D = 238
393 521 C > 4
393 522 C > 31
393 525 C > 9
393 526 C > 2
393 583 C > 12
393 584 C > 51
393 617 C > 22
393 618 C > 56
393 645 C > 15
393 646 C > 43
393 651 C > 35
393 652 C > 1
394 521 C > 1
394 522 C > 56
394 527 C > 17
394 528 C > 6
394 583 C > 1
394 584 C > 23
394 617 C > 7
394 618 C > 8
394 645 C > 1
394 646 C > 7
394 651 C > 33
394 652 C > 58
395 396 D = 238
395 665 C > 30
395 666 C > 6
395 675 C > 61
395 676 C > 20
395 677 C > 12
395 678 C > 21
396 665 C > 43
397 398 D = 238
397 610 C > 18
398 609 C > 10
398 610 C > 23
399 400 D = 238
399 445 C > 2
399 446 C > 38
399 523 C > 30
399 524 C > 12
400 445 C > 20
400 446 C > 10
400 505 C > 5
400 506 C > 24
400 523 C > 12
400 524 C > 4
401 402 D = 238
401 425 C > 92
401 426 C > 50
401 483 C > 41
401 484 C > 10
401 541 C > 3
401 542 C > 5
401 563 C > 9
401 564 C > 10
401 591 C > 52
401 592 C > 28
401 599 C > 6
401 600 C > 17
402 425 C > 2
402 426 C > 46
402 483 C > 28
402 484 C > 1
402 563 C > 48
402 564 C > 51
402 591 C > 51
402 592 C > 56
402 599 C > 8
402 600 C > 27
403 404 D = 238
404 605 C > 3
404 606 C > 24
405 406 D = 238
407 408 D = 238
408 585 C > 5
408 586 C > 33
409 410 D = 238
409 433 C > 1
409 434 C > 8
409 473 C > 76
409 474 C > 1
409 505 C > 30
409 506 C > 11
409 553 C > 3
409 554 C > 31
409 585 C > 40
409 586 C > 83
410 433 C > 44
410 434 C > 5
410 473 C > 77
410 474 C > 7
410 487 C > 47
410 488 C > 32
410 505 C > 45
410 506 C > 23
410 553 C > 14
410 554 C > 5
410 585 C > 64
410 586 C > 35
411 412 D = 238
411 595 C > 4
412 596 C > 2
412 605 C > 25
412 606 C > 2
413 414 D = 238
413 533 C > 9
413 534 C > 30
413 545 C > 4
413 546 C > 33
413 559 C > 7
413 560 C > 41
413 573 C > 56
413 574 C > 32
413 623 C > 26
413 624 C > 6
414 533 C > 1
414 534 C > 3
414 545 C > 7
414 546 C > 45
414 573 C > 8
414 574 C > 31
414 623 C > 40
414 624 C > 81
415 416 D = 238
415 453 C > 29
415 454 C > 11
415 463 C > 16
415 464 C > 25
415 499 C > 1
415 500 C > 52
415 549 C > 10
415 550 C > 14
415 611 C > 25
415 612 C > 23
416 453 C > 56
416 454 C > 53
416 463 C > 6
416 464 C > 2
416 549 C > 15
416 550 C > 5
416 611 C > 56
416 612 C > 19
417 418 D = 238
417 488 C > 3
417 557 C > 79
417 595 C > 5
417 596 C > 1
418 487 C > 11
418 488 C > 17
418 558 C > 29
418 595 C > 41
418 596 C > 68
419 420 D = 238
419 447 C > 81
419 448 C > 56
419 511 C > 1
419 512 C > 36
419 527 C > 59
419 528 C > 7
419 601 C > 12
419 602 C > 21
419 639 C > 20
419 640 C > 13
419 643 C > 14
419 644 C > 34
420 447 C > 30
420 448 C > 14
420 511 C > 36
420 512 C > 11
420 601 C > 9
420 602 C > 6
420 605 C > 44
420 606 C > 13
420 639 C > 7
420 640 C > 3
420 643 C > 86
420 644 C > 31
421 422 D = 238
421 453 C > 12
421 454 C > 67
422 451 C > 24
422 459 C > 4
422 460 C > 14
422 462 C > 50
422 577 C > 53
422 578 C > 7
423 424 D = 238
423 517 C > 12
423 518 C > 16
423 565 C > 27
423 566 C > 15
423 619 C > 56
423 620 C > 9
423 625 C > 39
423 626 C > 34
423 637 C > 14
423 638 C > 35
424 517 C > 13
424 518 C > 55
424 565 C > 17
424 566 C > 42
424 619 C > 12
424 620 C > 56
424 625 C > 26
424 626 C > 31
424 637 C > 3
424 638 C > 40
425 426 D = 238
425 483 C > 12
425 484 C > 4
425 505 C > 28
425 506 C > 11
425 563 C > 3
425 564 C > 56
425 591 C > 3
425 592 C > 33
425 599 C > 37
425 600 C > 37
426 483 C > 51
426 484 C > 22
426 563 C > 8
426 564 C > 3
426 591 C > 8
426 592 C > 17
426 599 C > 76
426 600 C > 11
427 428 D = 238
428 467 C > 10
428 669 C > 56
428 670 C > 31
429 430 D = 238
429 531 C > 35
429 559 C > 3
430 543 C > 7
430 544 C > 56
430 559 C > 9
430 560 C > 8
431 432 D = 238
431 473 C > 2
431 474 C > 3
431 504 C > 45
432 504 C > 10
432 575 C > 24
433 434 D = 238
433 473 C > 61
433 474 C > 38
433 505 C > 8
433 506 C > 15
433 553 C > 2
433 554 C > 9
433 585 C > 32
433 586 C > 30
434 473 C > 19
434 474 C > 56
434 491 C > 1
434 492 C > 34
434 505 C > 61
434 506 C > 27
434 553 C > 13
434 554 C > 11
434 585 C > 17
434 586 C > 6
435 436 D = 238
435 485 C > 4
435 486 C > 43
435 525 C > 17
435 526 C > 4
435 571 C > 32
435 572 C > 11
436 485 C > 15
436 486 C > 38
436 525 C > 85
436 526 C > 54
436 571 C > 29
436 572 C > 5
437 438 D = 238
437 520 C > 23
437 587 C > 5
437 647 C > 13
438 523 C > 67
438 524 C > 52
438 551 C > 56
438 594 C > 8
439 440 D = 238
439 525 C > 19
439 526 C > 62
439 527 C > 8
439 528 C > 12
439 537 C > 15
439 538 C > 119
439 605 C > 5
439 606 C > 51
439 629 C > 25
439 630 C > 53
439 649 C > 68
439 650 C > 81
440 527 C > 28
440 528 C > 1
440 537 C > 1
440 538 C > 11
440 605 C > 6
440 606 C > 6
440 617 C > 55
440 618 C > 52
440 629 C > 52
440 630 C > 14
440 649 C > 1
440 650 C > 38
441 442 D = 238
442 635 C > 23
442 636 C > 3
443 444 D = 238
444 449 C > 13
444 473 C > 33
444 474 C > 10
444 477 C > 3
444 561 C > 11
444 628 C > 9
444 667 C > 20
445 446 D = 238
445 523 C > 6
445 524 C > 8
446 523 C > 52
446 524 C > 56
446 639 C > 52
446 640 C > 56
447 448 D = 238
447 511 C > 53
447 512 C > 5
447 601 C > 37
447 602 C > 39
447 639 C > 56
447 640 C > 43
447 641 C > 18
447 642 C > 24
447 643 C > 4
447 644 C > 9
448 511 C > 38
448 512 C > 39
448 601 C > 50
448 602 C > 26
448 639 C > 22
448 640 C > 25
448 643 C > 3
448 644 C > 16
449 450 D = 238
449 477 C > 22
449 511 C > 29
449 512 C > 6
449 561 C > 50
449 562 C > 45
449 627 C > 9
449 668 C > 16
450 668 C > 16
451 452 D = 238
451 455 C > 6
451 456 C > 100
451 461 C > 49
451 462 C > 4
451 578 C > 26
453 454 D = 238
453 463 C > 4
453 464 C > 10
453 549 C > 10
453 550 C > 55
453 611 C > 38
453 612 C > 28
453 673 C > 33
453 674 C > 142
454 463 C > 27
454 464 C > 5
454 549 C > 29
454 550 C > 6
454 611 C > 9
454 612 C > 10
455 456 D = 238
455 494 C > 32
456 494 C > 1
457 458 D = 238
457 556 C > 1
457 659 C > 5
458 579 C > 48
458 580 C > 13
459 460 D = 238
459 547 C > 52
459 661 C > 9
460 548 C > 36
460 567 C > 47
460 615 C > 52
460 664 C > 26
461 462 D = 238
461 525 C > 7
461 526 C > 22
461 577 C > 12
462 577 C > 45
462 617 C > 25
462 618 C > 33
463 464 D = 238
463 549 C > 4
463 550 C > 4
463 611 C > 1
463 612 C > 15
464 549 C > 1
464 550 C > 14
464 611 C > 25
464 612 C > 5
464 617 C > 44
464 618 C > 107
465 466 D = 238
465 497 C > 9
465 498 C > 11
465 543 C > 4
465 544 C > 13
465 589 C > 31
465 590 C > 54
465 603 C > 1
465 604 C > 39
465 631 C > 10
465 632 C > 7
466 543 C > 48
466 544 C > 4
466 551 C > 7
466 552 C > 2
466 589 C > 36
466 590 C > 28
466 603 C > 4
466 604 C > 12
466 631 C > 33
466 632 C > 4
467 468 D = 238
467 579 C > 18
467 580 C > 7
468 643 C > 30
468 644 C > 28
469 470 D = 238
469 495 C > 13
469 496 C > 47
471 472 D = 238
471 490 C > 39
473 474 D = 238
473 505 C > 26
473 506 C > 6
473 551 C > 2
473 552 C > 45
473 553 C > 7
473 554 C > 105
473 585 C > 54
473 586 C > 4
474 505 C > 72
474 506 C > 89
474 553 C > 26
474 554 C > 19
474 585 C > 10
474 586 C > 9
474 595 C > 12
474 596 C > 51
475 476 D = 238
476 589 C > 16
476 590 C > 33
477 478 D = 238
477 661 C > 4
477 662 C > 22
477 667 C > 5
478 562 C > 37
478 667 C > 7
479 480 D = 238
479 481 C > 30
479 482 C > 58
479 491 C > 3
479 492 C > 17
479 497 C > 7
479 498 C > 47
479 541 C > 5
479 542 C > 1
479 581 C > 9
479 582 C > 9
479 621 C > 41
479 622 C > 1
479 641 C > 5
479 642 C > 4
480 481 C > 51
480 482 C > 15
480 497 C > 32
480 498 C > 36
480 541 C > 56
480 542 C > 8
480 581 C > 5
480 582 C > 8
480 621 C > 12
480 622 C > 33
480 641 C > 1
480 642 C > 5
481 482 D = 238
481 497 C > 36
481 498 C > 1
481 541 C > 4
481 542 C > 5
481 581 C > 7
481 582 C > 13
481 597 C > 57
481 598 C > 6
481 621 C > 34
481 622 C > 8
481 641 C > 56
481 642 C > 18
482 497 C > 15
482 498 C > 2
482 513 C > 56
482 514 C > 6
482 541 C > 55
482 542 C > 10
482 581 C > 12
482 582 C > 8
482 621 C > 5
482 622 C > 12
482 641 C > 131
482 642 C > 10
483 484 D = 238
483 563 C > 40
483 564 C > 38
483 587 C > 64
483 588 C > 38
483 591 C > 2
483 592 C > 23
483 599 C > 6
483 600 C > 4
484 563 C > 56
484 564 C > 26
484 591 C > 5
484 592 C > 5
484 597 C > 56
484 598 C > 56
484 599 C > 48
484 600 C > 40
485 486 D = 238
485 525 C > 37
485 526 C > 19
485 571 C > 5
485 572 C > 52
486 525 C > 15
486 526 C > 32
486 571 C > 17
486 572 C > 23
487 488 D = 238
487 515 C > 58
487 583 C > 22
487 584 C > 56
487 598 C > 17
488 516 C > 6
488 558 C > 24
488 567 C > 14
488 568 C > 55
489 490 D = 238
490 579 C > 6
490 580 C > 56
491 492 D = 238
492 535 C > 45
492 675 C > 62
492 676 C > 47
493 494 D = 238
494 655 C > 15
494 656 C > 15
495 496 D = 238
497 498 D = 238
497 541 C > 23
497 542 C > 44
497 545 C > 7
497 546 C > 49
497 581 C > 8
497 582 C > 10
497 621 C > 50
497 622 C > 6
497 641 C > 56
497 642 C > 13
498 541 C > 21
498 542 C > 5
498 581 C > 43
498 582 C > 3
498 621 C > 52
498 622 C > 11
498 627 C > 14
498 628 C > 139
498 641 C > 54
498 642 C > 4
499 500 D = 238
499 654 C > 7
499 669 C > 52
499 677 C > 21
499 678 C > 19
500 653 C > 50
500 670 C > 42
501 502 D = 238
501 513 C > 29
501 514 C > 15
501 529 C > 39
501 530 C > 22
501 569 C > 14
501 570 C > 53
502 513 C > 31
502 514 C > 15
502 529 C > 9
502 530 C > 44
502 569 C > 52
502 570 C > 24
503 504 D = 238
503 575 C > 2
503 651 C > 2
503 652 C > 1
505 506 D = 238
505 553 C > 54
505 554 C > 50
505 585 C > 22
505 586 C > 3
506 553 C > 26
506 554 C > 104
506 585 C > 5
506 586 C > 1
506 661 C > 44
506 662 C > 2
507 508 D = 238
508 535 C > 53
508 536 C > 28
509 510 D = 238
510 539 C > 5
510 540 C > 18
511 512 D = 238
511 519 C > 12
511 520 C > 12
511 601 C > 56
511 602 C > 27
511 639 C > 44
511 640 C > 38
511 643 C > 57
511 644 C > 63
512 601 C > 32
512 602 C > 31
512 639 C > 124
512 640 C > 56
512 643 C > 40
512 644 C > 18
513 514 D = 238
513 529 C > 14
513 530 C > 14
513 569 C > 12
513 570 C > 16
514 529 C > 34
514 530 C > 3
514 549 C > 7
514 550 C > 14
514 569 C > 12
514 570 C > 13
515 516 D = 238
515 597 C > 10
516 557 C > 50
516 598 C > 15
517 518 D = 238
517 565 C > 34
517 566 C > 3
517 619 C > 75
517 620 C > 23
517 625 C > 3
517 626 C > 2
517 637 C > 38
517 638 C > 29
517 655 C > 5
517 656 C > 33
518 565 C > 10
518 566 C > 18
518 619 C > 10
518 620 C > 30
518 625 C > 46
518 626 C > 13
518 627 C > 27
518 628 C > 51
518 637 C > 29
518 638 C > 55
519 520 D = 238
519 593 C > 8
519 648 C > 31
519 665 C > 28
519 666 C > 26
520 551 C > 1
520 648 C > 12
521 522 D = 238
521 583 C > 10
521 584 C > 53
521 617 C > 15
521 618 C > 50
521 619 C > 46
521 620 C > 22
521 645 C > 24
521 646 C > 56
521 651 C > 49
521 652 C > 46
522 583 C > 6
522 584 C > 21
522 617 C > 25
522 618 C > 38
522 645 C > 93
522 646 C > 24
522 647 C > 8
522 648 C > 36
522 651 C > 44
522 652 C > 11
523 524 D = 238
524 529 C > 10
524 530 C > 10
525 526 D = 238
525 571 C > 6
525 572 C > 1
526 571 C > 12
526 572 C > 2
527 528 D = 238
527 537 C > 1
527 538 C > 8
527 605 C > 1
527 606 C > 46
527 629 C > 18
527 630 C > 34
527 649 C > 29
527 650 C > 14
528 537 C > 20
528 538 C > 17
528 605 C > 56
528 606 C > 31
528 621 C > 52
528 622 C > 44
528 629 C > 3
528 630 C > 50
528 649 C > 51
528 650 C > 16
529 530 D = 238
529 569 C > 1
529 570 C > 48
530 569 C > 49
530 570 C > 73
531 532 D = 238
531 559 C > 7
533 534 D = 238
533 545 C > 31
533 546 C > 6
533 573 C > 9
533 574 C > 13
533 623 C > 9
533 624 C > 31
534 545 C > 34
534 546 C > 5
534 573 C > 2
534 574 C > 24
534 615 C > 18
534 616 C > 2
534 623 C > 8
534 624 C > 47
535 536 D = 238
536 615 C > 5
536 616 C > 9
537 538 D = 238
537 605 C > 31
537 606 C > 4
537 615 C > 150
537 616 C > 6
537 629 C > 5
537 630 C > 21
537 649 C > 56
537 650 C > 52
538 605 C > 2
538 606 C > 14
538 629 C > 4
538 630 C > 36
538 649 C > 50
538 650 C > 9
539 540 D = 238
540 619 C > 2
540 620 C > 1
541 542 D = 238
541 581 C > 5
541 582 C > 51
541 621 C > 3
541 622 C > 2
541 641 C > 3
541 642 C > 24
541 647 C > 13
541 648 C > 20
542 581 C > 2
542 582 C > 9
542 621 C > 6
542 622 C > 12
542 641 C > 13
542 642 C > 11
543 544 D = 238
543 589 C > 26
543 590 C > 8
543 603 C > 19
543 604 C > 25
543 631 C > 52
543 632 C > 48
543 675 C > 5
543 676 C > 1
544 589 C > 20
544 590 C > 15
544 603 C > 13
544 604 C > 102
544 631 C > 60
544 632 C > 6
545 546 D = 238
545 569 C > 29
545 570 C > 3
545 573 C > 30
545 574 C > 12
545 623 C > 24
545 624 C > 15
546 573 C > 4
546 574 C > 19
546 623 C > 21
546 624 C > 26
547 548 D = 238
548 645 C > 56
548 646 C > 32
548 661 C > 12
548 662 C > 55
549 550 D = 238
549 611 C > 1
549 612 C > 30
550 611 C > 19
550 612 C > 2
551 552 D = 238
551 594 C > 32
552 587 C > 30
552 593 C > 15
553 554 D = 238
553 585 C > 23
553 586 C > 27
554 585 C > 13
554 586 C > 56
555 556 D = 238
555 673 C > 47
555 674 C > 1
556 657 C > 43
556 658 C > 40
557 558 D = 238
557 589 C > 57
557 590 C > 32
557 597 C > 9
557 598 C > 13
559 560 D = 238
560 587 C > 16
560 588 C > 9
561 562 D = 238
561 628 C > 6
561 668 C > 5
562 627 C > 24
562 667 C > 56
562 668 C > 6
563 564 D = 238
563 591 C > 12
563 592 C > 28
563 599 C > 23
563 600 C > 8
563 635 C > 3
563 636 C > 9
564 591 C > 3
564 592 C > 3
564 597 C > 56
564 598 C > 51
564 599 C > 37
564 600 C > 8
565 566 D = 238
565 619 C > 21
565 620 C > 56
565 625 C > 2
565 626 C > 12
565 637 C > 9
565 638 C > 50
566 619 C > 17
566 620 C > 16
566 625 C > 29
566 626 C > 19
566 635 C > 8
566 636 C > 56
566 637 C > 110
566 638 C > 56
567 568 D = 238
567 615 C > 44
567 616 C > 16
568 616 C > 33
568 662 C > 6
568 664 C > 2
569 570 D = 238
570 675 C > 3
570 676 C > 5
571 572 D = 238
572 601 C > 3
572 602 C > 44
573 574 D = 238
573 623 C > 8
573 624 C > 22
574 623 C > 10
574 624 C > 56
575 576 D = 238
575 643 C > 33
575 644 C > 7
576 577 C > 29
576 578 C > 24
577 578 D = 238
577 617 C > 24
577 618 C > 51
578 653 C > 6
578 654 C > 42
579 580 D = 238
579 597 C > 5
579 598 C > 10
579 607 C > 7
579 608 C > 15
579 613 C > 7
581 582 D = 238
581 621 C > 4
581 622 C > 41
581 641 C > 27
581 642 C > 7
582 621 C > 6
582 622 C > 16
582 635 C > 97
582 636 C > 18
582 641 C > 47
582 642 C > 17
583 584 D = 238
583 587 C > 2
583 588 C > 9
583 617 C > 2
583 618 C > 39
583 645 C > 5
583 646 C > 2
583 651 C > 8
583 652 C > 3
584 617 C > 26
584 618 C > 14
584 645 C > 16
584 646 C > 48
584 651 C > 40
584 652 C > 1
585 586 D = 238
586 587 C > 53
586 588 C > 113
587 588 D = 238
587 647 C > 26
588 593 C > 33
588 667 C > 5
588 668 C > 7
589 590 D = 238
589 603 C > 25
589 604 C > 10
589 631 C > 17
589 632 C > 4
589 657 C > 13
589 658 C > 38
590 603 C > 24
590 604 C > 14
590 631 C > 33
590 632 C > 1
590 669 C > 34
590 670 C > 44
591 592 D = 238
591 593 C > 30
591 594 C > 34
591 599 C > 30
591 600 C > 27
592 599 C > 48
592 600 C > 4
592 627 C > 50
592 628 C > 12
593 594 D = 238
593 648 C > 42
594 647 C > 7
595 596 D = 238
595 633 C > 4
595 634 C > 5
596 639 C > 30
596 640 C > 11
597 598 D = 238
598 607 C > 28
598 608 C > 47
599 600 D = 238
600 635 C > 56
600 636 C > 36
601 602 D = 238
601 639 C > 13
601 640 C > 43
601 643 C > 8
601 644 C > 18
602 639 C > 14
602 640 C > 10
602 643 C > 8
602 644 C > 39
602 653 C > 43
602 654 C > 45
603 604 D = 238
603 607 C > 1
603 608 C > 15
603 631 C > 7
603 632 C > 7
604 631 C > 7
604 632 C > 46
605 606 D = 238
605 629 C > 10
605 630 C > 38
605 643 C > 6
605 644 C > 48
605 649 C > 15
605 650 C > 15
606 629 C > 34
606 630 C > 8
606 649 C > 7
606 650 C > 38
607 608 D = 238
609 610 D = 238
610 627 C > 52
610 628 C > 50
611 612 D = 238
612 639 C > 26
612 640 C > 14
613 614 D = 238
614 679 C > 16
614 680 C > 7
615 616 D = 238
615 627 C > 18
615 628 C > 152
615 663 C > 47
615 664 C > 26
616 661 C > 44
616 662 C > 7
616 664 C > 28
617 618 D = 238
617 645 C > 56
617 646 C > 14
617 651 C > 4
617 652 C > 13
618 645 C > 17
618 646 C > 1
618 651 C > 11
618 652 C > 40
619 620 D = 238
619 623 C > 5
619 624 C > 2
619 625 C > 46
619 626 C > 15
619 637 C > 20
619 638 C > 35
620 625 C > 42
620 626 C > 32
620 637 C > 41
620 638 C > 22
621 622 D = 238
621 641 C > 21
621 642 C > 52
622 641 C > 17
622 642 C > 33
622 655 C > 3
622 656 C > 56
623 624 D = 238
624 651 C > 56
624 652 C > 3
625 626 D = 238
625 635 C > 36
625 636 C > 5
625 637 C > 10
625 638 C > 17
626 637 C > 30
626 638 C > 52
626 665 C > 2
626 666 C > 18
627 628 D = 238
627 667 C > 30
629 630 D = 238
629 647 C > 32
629 648 C > 24
629 649 C > 1
629 650 C > 27
630 649 C > 29
630 650 C > 32
631 632 D = 238
632 653 C > 18
632 654 C > 46
633 634 D = 238
633 659 C > 14
633 660 C > 28
633 661 C > 9
633 662 C > 69
633 671 C > 4
634 659 C > 4
634 660 C > 3
635 636 D = 238
635 675 C > 33
635 676 C > 38
637 638 D = 238
637 671 C > 18
637 672 C > 15
638 661 C > 44
638 662 C > 15
639 640 D = 238
639 641 C > 49
639 642 C > 34
639 643 C > 42
639 644 C > 33
640 643 C > 60
640 644 C > 44
641 642 D = 238
642 675 C > 2
642 676 C > 22
643 644 D = 238
644 677 C > 62
644 678 C > 14
645 646 D = 238
645 651 C > 47
645 652 C > 34
646 651 C > 16
646 652 C > 56
647 648 D = 238
648 661 C > 14
648 662 C > 10
649 650 D = 238
649 657 C > 22
649 658 C > 9
650 677 C > 14
650 678 C > 12
651 652 D = 238
652 661 C > 33
652 662 C > 36
653 654 D = 238
653 658 C > 56
654 670 C > 5
654 677 C > 105
654 678 C > 10
655 656 D = 238
655 677 C > 3
655 678 C > 1
655 679 C > 11
655 680 C > 13
656 679 C > 29
656 680 C > 5
657 658 D = 238
657 670 C > 20
658 671 C > 1
658 672 C > 27
659 660 D = 238
659 672 C > 2
660 671 C > 27
660 673 C > 28
660 674 C > 46
661 662 D = 238
662 664 C > 12
662 673 C > 25
662 674 C > 28
663 664 D = 238
663 665 C > 2
663 666 C > 7
664 667 C > 7
664 668 C > 10
665 666 D = 238
666 675 C > 1
667 668 D = 238
668 675 C > 48
668 676 C > 18
669 670 D = 238
670 675 C > 14
670 676 C > 5
671 672 D = 238
672 677 C > 15
672 678 C > 1
673 674 D = 238
674 677 C > 31
674 678 C > 27
675 676 D = 238
676 677 C > 54
676 678 C > 39
677 678 D = 238
678 679 C > 2
678 680 C > 29
679 680 D = 238
