  1   2 D = 238
  1  71 C > 51
  1  72 C > 56
  1 461 C > 21
  1 462 C > 11
  2  91 C > 1
  2  92 C > 14
  2 181 C > 38
  2 182 C > 68
  2 236 C > 5
  2 241 C > 16
  2 242 C > 21
  2 383 C > 4
  2 384 C > 7
  3   4 D = 238
  3  35 C > 48
  3  36 C > 17
  3  65 C > 2
  3  66 C > 12
  3 427 C > 1
  3 429 C > 25
  3 446 C > 14
  3 508 C > 18
  3 573 C > 6
  4  65 C > 21
  4  66 C > 56
  4 281 C > 5
  4 445 C > 9
  4 463 C > 3
  4 508 C > 24
  4 573 C > 6
  5   6 D = 238
  5 201 C > 23
  5 202 C > 30
  5 206 C > 23
  5 329 C > 60
  5 469 C > 27
  5 611 C > 3
  5 612 C > 7
  6 276 C > 43
  6 329 C > 1
  6 383 C > 41
  6 384 C > 14
  6 469 C > 2
  6 470 C > 15
  6 612 C > 26
  7   8 D = 238
  7  76 C > 7
  7 293 C > 22
  8  60 C > 22
  8  76 C > 13
  8 109 C > 45
  8 189 C > 30
  8 190 C > 18
  8 294 C > 21
  8 549 C > 2
  8 550 C > 12
  9  10 D = 238
  9 305 C > 16
  9 306 C > 27
 10  85 C > 43
 10 146 C > 11
 10 152 C > 3
 10 234 C > 21
 11  12 D = 238
 11 215 C > 24
 11 216 C > 18
 11 623 C > 4
 11 624 C > 26
 11 723 C > 14
 11 724 C > 6
 12 187 C > 2
 12 216 C > 6
 12 291 C > 5
 12 292 C > 103
 12 353 C > 37
 12 484 C > 37
 13  14 D = 238
 13 100 C > 25
 13 113 C > 42
 13 114 C > 28
 13 245 C > 14
 13 280 C > 11
 13 440 C > 8
 13 489 C > 56
 13 544 C > 16
 14 143 C > 37
 14 144 C > 3
 14 440 C > 3
 14 545 C > 31
 14 763 C > 4
 15  16 D = 238
 15 105 C > 17
 15 106 C > 8
 15 373 C > 39
 15 374 C > 31
 15 417 C > 18
 15 418 C > 5
 15 523 C > 20
 15 524 C > 2
 15 615 C > 18
 15 616 C > 2
 15 657 C > 9
 15 658 C > 52
 15 741 C > 12
 15 742 C > 28
 15 767 C > 22
 15 768 C > 67
 15 795 C > 18
 15 796 C > 3
 16 105 C > 4
 16 106 C > 11
 16 373 C > 8
 16 374 C > 10
 16 417 C > 82
 16 418 C > 8
 16 523 C > 13
 16 524 C > 2
 16 615 C > 15
 16 616 C > 2
 16 741 C > 56
 16 742 C > 46
 16 767 C > 19
 16 768 C > 13
 16 795 C > 8
 16 796 C > 11
 16 911 C > 15
 16 912 C > 14
 17  18 D = 238
 17  25 C > 33
 17  26 C > 30
 17  45 C > 21
 17  46 C > 10
 17  55 C > 56
 17  56 C > 9
 17  63 C > 2
 17  64 C > 3
 17  73 C > 56
 17  74 C > 46
 17 913 C > 41
 17 914 C > 53
 17 915 C > 20
 17 916 C > 3
 18  25 C > 31
 18  26 C > 18
 18  45 C > 83
 18  46 C > 71
 18  55 C > 7
 18  56 C > 7
 18  63 C > 33
 18  64 C > 46
 18  73 C > 34
 18  74 C > 6
 18 913 C > 54
 18 914 C > 23
 18 915 C > 48
 18 916 C > 13
 19  20 D = 238
 19 210 C > 101
 19 287 C > 24
 19 421 C > 12
 19 422 C > 11
 20 209 C > 1
 20 288 C > 12
 20 377 C > 14
 20 577 C > 23
 20 605 C > 40
 20 606 C > 69
 20 652 C > 26
 21  22 D = 238
 21  71 C > 34
 21  89 C > 7
 21  90 C > 45
 21  95 C > 3
 21 156 C > 24
 22  49 C > 2
 22  88 C > 35
 22  96 C > 1
 22 135 C > 41
 22 136 C > 53
 22 156 C > 26
 23  24 D = 238
 23  93 C > 13
 23  94 C > 46
 23 317 C > 131
 23 318 C > 46
 23 351 C > 1
 23 352 C > 11
 23 379 C > 39
 23 380 C > 25
 23 499 C > 19
 23 500 C > 1
 23 539 C > 11
 23 540 C > 50
 23 607 C > 55
 23 608 C > 6
 23 719 C > 16
 23 720 C > 10
 23 759 C > 15
 23 760 C > 3
 24  93 C > 7
 24  94 C > 4
 24 317 C > 15
 24 318 C > 1
 24 367 C > 18
 24 368 C > 5
 24 379 C > 49
 24 380 C > 13
 24 499 C > 11
 24 500 C > 13
 24 539 C > 2
 24 540 C > 33
 24 607 C > 34
 24 608 C > 24
 24 719 C > 2
 24 720 C > 14
 24 759 C > 38
 24 760 C > 3
 25  26 D = 238
 25  45 C > 13
 25  46 C > 29
 25  55 C > 25
 25  56 C > 18
 25  63 C > 9
 25  64 C > 13
 25  73 C > 38
 25  74 C > 11
 25 913 C > 17
 25 914 C > 25
 25 915 C > 10
 25 916 C > 23
 26  45 C > 56
 26  46 C > 20
 26  55 C > 43
 26  56 C > 37
 26  63 C > 3
 26  64 C > 11
 26  73 C > 27
 26  74 C > 29
 26 913 C > 31
 26 914 C > 29
 26 915 C > 22
 26 916 C > 39
 27  28 D = 238
 27  52 C > 34
 27 177 C > 1
 27 178 C > 1
 27 240 C > 16
 27 310 C > 52
 27 911 C > 8
 27 912 C > 23
 28  52 C > 32
 28  65 C > 7
 28  66 C > 3
 28 224 C > 33
 28 271 C > 32
 29  30 D = 238
 29 459 C > 2
 29 543 C > 97
 29 544 C > 3
 29 585 C > 13
 30 119 C > 46
 30 120 C > 9
 30 159 C > 13
 30 585 C > 56
 30 645 C > 29
 31  32 D = 238
 31  98 C > 42
 31 335 C > 18
 31 570 C > 78
 32 137 C > 18
 32 138 C > 33
 32 336 C > 56
 32 570 C > 23
 32 637 C > 18
 33  34 D = 238
 33 324 C > 3
 33 399 C > 50
 33 400 C > 77
 33 649 C > 45
 34 249 C > 7
 34 324 C > 30
 34 617 C > 11
 34 650 C > 1
 34 701 C > 22
 34 702 C > 6
 35  36 D = 238
 35  55 C > 22
 35  56 C > 2
 35 159 C > 13
 35 432 C > 3
 35 460 C > 1
 35 586 C > 5
 36 308 C > 8
 36 375 C > 22
 36 376 C > 10
 36 431 C > 1
 36 586 C > 8
 37  38 D = 238
 37 203 C > 13
 37 204 C > 8
 37 273 C > 25
 37 274 C > 19
 37 347 C > 21
 37 348 C > 2
 37 559 C > 19
 37 560 C > 56
 37 583 C > 51
 37 584 C > 23
 37 631 C > 32
 37 632 C > 13
 37 689 C > 29
 37 690 C > 8
 37 805 C > 25
 37 806 C > 5
 37 823 C > 12
 37 824 C > 52
 38 273 C > 2
 38 274 C > 56
 38 347 C > 6
 38 348 C > 20
 38 559 C > 37
 38 560 C > 19
 38 563 C > 13
 38 564 C > 27
 38 583 C > 54
 38 584 C > 112
 38 631 C > 38
 38 632 C > 12
 38 689 C > 11
 38 690 C > 28
 38 805 C > 19
 38 806 C > 19
 38 823 C > 1
 38 824 C > 2
 39  40 D = 238
 39  67 C > 8
 39  68 C > 19
 39  86 C > 63
 39 113 C > 38
 39 195 C > 29
 40 113 C > 27
 40 127 C > 53
 40 128 C > 48
 40 152 C > 48
 40 195 C > 6
 41  42 D = 238
 41  68 C > 31
 41  84 C > 25
 41 261 C > 7
 41 367 C > 6
 41 368 C > 20
 41 453 C > 67
 42  53 C > 5
 42  79 C > 36
 42  80 C > 50
 42 261 C > 7
 42 262 C > 52
 42 453 C > 64
 42 467 C > 48
 42 477 C > 13
 42 625 C > 5
 43  44 D = 238
 43 319 C > 22
 43 451 C > 17
 43 452 C > 15
 43 651 C > 10
 43 652 C > 7
 43 661 C > 49
 43 662 C > 22
 44 425 C > 52
 44 452 C > 18
 44 676 C > 32
 44 765 C > 1
 44 766 C > 39
 45  46 D = 238
 45  55 C > 12
 45  56 C > 15
 45  63 C > 63
 45  64 C > 10
 45  73 C > 19
 45  74 C > 3
 45 913 C > 7
 45 914 C > 28
 45 915 C > 35
 45 916 C > 12
 46  55 C > 1
 46  56 C > 10
 46  63 C > 3
 46  64 C > 67
 46  73 C > 5
 46  74 C > 37
 46 913 C > 12
 46 914 C > 31
 46 915 C > 17
 46 916 C > 62
 47  48 D = 238
 47 104 C > 13
 47 297 C > 11
 47 373 C > 14
 47 374 C > 40
 47 396 C > 15
 47 480 C > 7
 48  57 C > 52
 48 105 C > 24
 48 106 C > 13
 48 108 C > 2
 48 395 C > 16
 48 479 C > 11
 49  50 D = 238
 49  67 C > 10
 49  68 C > 42
 49  87 C > 15
 49  88 C > 1
 49  90 C > 32
 50 265 C > 14
 50 266 C > 9
 51  52 D = 238
 51 223 C > 12
 51 271 C > 24
 51 310 C > 12
 52  82 C > 11
 52 147 C > 33
 52 148 C > 16
 52 223 C > 18
 52 239 C > 8
 52 271 C > 2
 52 272 C > 2
 53  54 D = 238
 53 335 C > 53
 53 336 C > 42
 54  68 C > 22
 54  83 C > 30
 54 262 C > 17
 54 305 C > 15
 54 306 C > 6
 54 467 C > 39
 55  56 D = 238
 55  63 C > 37
 55  64 C > 9
 55  73 C > 28
 55  74 C > 45
 55 913 C > 39
 55 914 C > 95
 55 915 C > 42
 55 916 C > 22
 56  63 C > 34
 56  64 C > 2
 56  73 C > 45
 56  74 C > 32
 56 913 C > 39
 56 914 C > 26
 56 915 C > 19
 56 916 C > 16
 57  58 D = 238
 57 395 C > 14
 57 412 C > 12
 57 459 C > 7
 57 460 C > 3
 58 297 C > 53
 58 298 C > 28
 59  60 D = 238
 59  75 C > 22
 59  79 C > 40
 59 121 C > 3
 59 123 C > 42
 59 124 C > 16
 59 131 C > 28
 60  76 C > 27
 60 109 C > 9
 60 110 C > 29
 60 117 C > 41
 60 118 C > 37
 60 189 C > 10
 61  62 D = 238
 61 157 C > 10
 61 158 C > 18
 61 213 C > 132
 61 214 C > 45
 61 389 C > 33
 61 390 C > 39
 61 495 C > 15
 61 496 C > 56
 61 541 C > 32
 61 542 C > 38
 61 567 C > 3
 61 568 C > 8
 61 665 C > 1
 61 666 C > 15
 61 757 C > 22
 61 758 C > 6
 62 157 C > 6
 62 158 C > 5
 62 213 C > 22
 62 214 C > 9
 62 389 C > 55
 62 390 C > 13
 62 495 C > 31
 62 496 C > 41
 62 541 C > 9
 62 542 C > 7
 62 567 C > 78
 62 568 C > 29
 62 611 C > 11
 62 612 C > 3
 62 665 C > 9
 62 666 C > 26
 62 757 C > 15
 62 758 C > 11
 63  64 D = 238
 63  73 C > 2
 63  74 C > 4
 63 913 C > 4
 63 914 C > 11
 63 915 C > 2
 63 916 C > 4
 64  73 C > 5
 64  74 C > 1
 64 913 C > 72
 64 914 C > 11
 64 915 C > 3
 64 916 C > 8
 65  66 D = 238
 65 235 C > 33
 65 236 C > 27
 65 281 C > 20
 65 429 C > 7
 65 430 C > 25
 65 446 C > 36
 65 573 C > 44
 66 428 C > 11
 66 429 C > 51
 66 445 C > 31
 66 561 C > 5
 66 562 C > 24
 67  68 D = 238
 67 477 C > 64
 68 459 C > 48
 68 460 C > 40
 69  70 D = 238
 69 126 C > 9
 69 137 C > 4
 69 303 C > 13
 70 126 C > 68
 70 138 C > 23
 70 163 C > 42
 70 247 C > 27
 70 261 C > 40
 70 262 C > 5
 70 520 C > 24
 71  72 D = 238
 71  88 C > 1
 72  95 C > 49
 72  96 C > 28
 72 136 C > 18
 73  74 D = 238
 73 913 C > 6
 73 914 C > 25
 73 915 C > 2
 73 916 C > 56
 74 913 C > 19
 74 914 C > 12
 74 915 C > 6
 74 916 C > 48
 75  76 D = 238
 75 131 C > 39
 75 155 C > 13
 75 156 C > 5
 75 189 C > 8
 75 190 C > 40
 75 293 C > 17
 76  79 C > 1
 76 105 C > 45
 76 106 C > 13
 76 109 C > 37
 76 121 C > 34
 76 122 C > 36
 77  78 D = 238
 77 359 C > 36
 77 360 C > 27
 77 481 C > 10
 77 482 C > 8
 77 579 C > 49
 78 551 C > 22
 78 552 C > 18
 78 597 C > 18
 78 598 C > 15
 78 691 C > 36
 79  80 D = 238
 79 213 C > 13
 79 214 C > 3
 79 294 C > 44
 80 131 C > 30
 80 241 C > 12
 80 242 C > 29
 81  82 D = 238
 81 287 C > 13
 81 288 C > 23
 81 911 C > 44
 82 148 C > 2
 82 223 C > 56
 82 235 C > 46
 82 236 C > 49
 82 240 C > 49
 82 271 C > 32
 82 309 C > 20
 82 912 C > 2
 83  84 D = 238
 83 127 C > 6
 83 128 C > 68
 83 262 C > 62
 83 625 C > 30
 83 626 C > 25
 84 261 C > 7
 84 454 C > 15
 84 625 C > 30
 85  86 D = 238
 86 113 C > 8
 86 135 C > 53
 86 136 C > 26
 86 151 C > 32
 86 195 C > 9
 86 306 C > 12
 87  88 D = 238
 87  93 C > 38
 87  94 C > 26
 87 156 C > 3
 87 295 C > 23
 88  93 C > 8
 88  94 C > 9
 88  96 C > 6
 89  90 D = 238
 89 136 C > 27
 89 296 C > 28
 90 136 C > 22
 90 139 C > 47
 90 140 C > 10
 90 295 C > 2
 91  92 D = 238
 91 144 C > 23
 91 233 C > 13
 91 234 C > 28
 91 235 C > 55
 91 236 C > 10
 91 384 C > 56
 92 143 C > 10
 92 144 C > 13
 92 182 C > 34
 92 235 C > 16
 92 462 C > 56
 93  94 D = 238
 93 115 C > 14
 93 116 C > 56
 93 317 C > 8
 93 318 C > 13
 93 379 C > 30
 93 380 C > 52
 93 499 C > 50
 93 500 C > 23
 93 539 C > 40
 93 540 C > 44
 93 607 C > 34
 93 608 C > 4
 93 719 C > 26
 93 720 C > 47
 93 759 C > 6
 93 760 C > 16
 94 317 C > 7
 94 318 C > 13
 94 379 C > 12
 94 380 C > 40
 94 499 C > 6
 94 500 C > 16
 94 539 C > 39
 94 540 C > 38
 94 587 C > 11
 94 588 C > 7
 94 607 C > 47
 94 608 C > 7
 94 719 C > 32
 94 720 C > 46
 94 759 C > 16
 94 760 C > 2
 95  96 D = 238
 95 136 C > 1
 95 156 C > 12
 95 225 C > 12
 95 226 C > 6
 95 296 C > 3
 96 295 C > 11
 96 296 C > 32
 97  98 D = 238
 97 103 C > 7
 97 104 C > 3
 97 336 C > 21
 97 471 C > 6
 97 637 C > 10
 97 638 C > 12
 98 283 C > 20
 98 336 C > 2
 98 427 C > 21
 98 428 C > 33
 98 472 C > 1
 99 100 D = 238
 99 246 C > 23
 99 279 C > 39
 99 440 C > 56
 99 487 C > 13
 99 488 C > 33
 99 543 C > 9
 99 544 C > 10
 99 545 C > 1
 99 546 C > 51
100 279 C > 102
100 439 C > 33
100 440 C > 48
100 546 C > 3
100 763 C > 33
101 102 D = 238
101 211 C > 18
101 212 C > 23
101 276 C > 23
102 205 C > 5
102 469 C > 31
102 811 C > 1
102 812 C > 19
103 104 D = 238
103 412 C > 110
103 480 C > 67
104 298 C > 56
105 106 D = 238
105 373 C > 9
105 374 C > 8
105 389 C > 7
105 390 C > 5
105 417 C > 5
105 418 C > 30
105 523 C > 56
105 524 C > 1
105 615 C > 49
105 616 C > 26
105 741 C > 19
105 742 C > 16
105 767 C > 62
105 768 C > 46
105 795 C > 7
105 796 C > 32
106 373 C > 2
106 374 C > 13
106 417 C > 45
106 418 C > 40
106 523 C > 35
106 524 C > 56
106 615 C > 22
106 616 C > 19
106 673 C > 26
106 674 C > 41
106 741 C > 16
106 742 C > 31
106 767 C > 11
106 768 C > 31
106 795 C > 40
106 796 C > 26
107 108 D = 238
107 165 C > 9
107 166 C > 13
107 396 C > 32
107 479 C > 18
107 480 C > 9
108 297 C > 22
108 411 C > 35
108 412 C > 4
109 110 D = 238
109 133 C > 35
109 134 C > 16
109 189 C > 19
110 122 C > 11
110 293 C > 36
111 112 D = 238
111 217 C > 6
111 337 C > 6
111 358 C > 10
111 644 C > 56
111 670 C > 33
111 731 C > 37
111 732 C > 51
111 788 C > 17
111 854 C > 12
112 337 C > 28
112 531 C > 8
112 644 C > 8
112 669 C > 77
113 114 D = 238
113 117 C > 46
113 118 C > 10
113 146 C > 47
113 234 C > 51
113 305 C > 20
113 306 C > 1
114 145 C > 28
114 203 C > 52
114 204 C > 6
114 233 C > 16
114 234 C > 21
114 306 C > 45
115 116 D = 238
115 222 C > 54
115 285 C > 11
115 337 C > 37
115 338 C > 29
115 369 C > 47
115 370 C > 18
115 509 C > 6
115 677 C > 3
116 221 C > 8
116 323 C > 18
116 324 C > 13
116 369 C > 10
116 370 C > 1
116 509 C > 49
116 510 C > 28
116 678 C > 2
117 118 D = 238
117 325 C > 56
117 326 C > 42
117 491 C > 41
117 492 C > 35
117 655 C > 19
117 656 C > 2
117 661 C > 2
117 662 C > 8
117 681 C > 46
117 682 C > 31
117 739 C > 20
117 740 C > 34
117 777 C > 13
117 778 C > 17
117 845 C > 21
117 846 C > 32
117 881 C > 17
117 882 C > 1
118 325 C > 16
118 326 C > 1
118 491 C > 38
118 492 C > 9
118 655 C > 23
118 656 C > 56
118 681 C > 59
118 682 C > 21
118 739 C > 49
118 740 C > 2
118 777 C > 8
118 778 C > 8
118 845 C > 9
118 846 C > 11
118 881 C > 10
118 882 C > 15
118 885 C > 18
118 886 C > 18
119 120 D = 238
119 283 C > 8
119 335 C > 27
119 851 C > 20
120 335 C > 26
120 852 C > 62
121 122 D = 238
121 563 C > 41
121 564 C > 35
122 190 C > 16
122 255 C > 2
122 256 C > 54
123 124 D = 238
123 161 C > 25
123 162 C > 44
123 503 C > 13
123 505 C > 82
123 506 C > 4
123 717 C > 22
123 718 C > 12
124 487 C > 31
124 488 C > 9
124 504 C > 8
124 659 C > 6
124 820 C > 1
125 126 D = 238
125 163 C > 31
125 304 C > 30
125 517 C > 5
125 519 C > 33
126 204 C > 42
126 303 C > 11
126 517 C > 41
126 520 C > 12
126 873 C > 33
126 874 C > 33
127 128 D = 238
127 230 C > 42
127 400 C > 25
127 449 C > 55
127 482 C > 56
127 565 C > 5
127 591 C > 27
127 592 C > 5
127 707 C > 56
127 708 C > 3
128 228 C > 96
128 361 C > 5
128 362 C > 8
128 400 C > 2
128 481 C > 5
129 130 D = 238
129 349 C > 2
129 516 C > 15
129 695 C > 12
129 696 C > 53
129 732 C > 8
129 888 C > 36
130 350 C > 1
130 516 C > 1
130 610 C > 3
130 655 C > 54
130 656 C > 53
130 888 C > 21
131 132 D = 238
131 189 C > 102
131 259 C > 69
131 260 C > 12
133 134 D = 238
133 197 C > 24
133 281 C > 12
133 282 C > 4
133 367 C > 27
133 639 C > 14
133 640 C > 56
134 171 C > 10
134 172 C > 1
134 175 C > 17
134 265 C > 92
134 366 C > 8
134 401 C > 3
134 402 C > 21
135 136 D = 238
135 295 C > 1
135 783 C > 22
135 784 C > 5
136 296 C > 39
137 138 D = 238
137 161 C > 7
137 162 C > 19
137 518 C > 56
137 520 C > 36
138 217 C > 5
138 218 C > 24
138 248 C > 32
138 520 C > 99
139 140 D = 238
139 448 C > 22
139 473 C > 36
139 474 C > 107
139 493 C > 20
139 494 C > 21
139 538 C > 9
139 897 C > 4
140 537 C > 13
140 538 C > 18
140 898 C > 19
141 142 D = 238
141 177 C > 21
141 178 C > 7
141 191 C > 35
141 192 C > 32
141 343 C > 16
141 344 C > 6
141 493 C > 28
141 494 C > 42
141 511 C > 13
141 512 C > 42
141 667 C > 2
141 668 C > 12
141 769 C > 26
141 770 C > 2
141 835 C > 11
141 836 C > 87
142 177 C > 54
142 178 C > 8
142 191 C > 55
142 192 C > 33
142 343 C > 19
142 344 C > 8
142 493 C > 22
142 494 C > 38
142 503 C > 29
142 504 C > 77
142 511 C > 33
142 512 C > 76
142 667 C > 41
142 668 C > 66
142 769 C > 11
142 770 C > 25
142 835 C > 1
142 836 C > 18
143 144 D = 238
143 226 C > 133
143 383 C > 65
143 384 C > 2
143 833 C > 7
143 834 C > 38
144 182 C > 1
144 236 C > 26
144 300 C > 12
144 383 C > 8
144 384 C > 18
144 461 C > 5
144 529 C > 3
144 530 C > 4
145 146 D = 238
145 255 C > 49
145 256 C > 27
145 306 C > 23
146 165 C > 44
146 166 C > 54
146 196 C > 27
147 148 D = 238
147 223 C > 33
147 272 C > 39
149 150 D = 238
149 409 C > 18
149 410 C > 36
149 619 C > 33
149 620 C > 10
149 721 C > 56
149 722 C > 26
149 751 C > 40
149 752 C > 33
149 765 C > 6
149 766 C > 10
149 775 C > 1
149 776 C > 8
149 791 C > 2
149 792 C > 18
149 821 C > 12
149 822 C > 25
149 833 C > 19
149 834 C > 12
150 409 C > 59
150 410 C > 13
150 619 C > 5
150 620 C > 22
150 721 C > 5
150 722 C > 6
150 751 C > 11
150 752 C > 56
150 765 C > 13
150 766 C > 56
150 779 C > 14
150 780 C > 1
150 791 C > 6
150 792 C > 11
150 821 C > 6
150 822 C > 7
150 833 C > 6
150 834 C > 8
151 152 D = 238
151 234 C > 21
152 195 C > 9
153 154 D = 238
153 270 C > 29
153 415 C > 15
153 416 C > 2
153 572 C > 12
153 711 C > 6
153 802 C > 48
153 892 C > 7
154 269 C > 7
154 438 C > 20
154 647 C > 7
154 648 C > 10
154 712 C > 51
154 892 C > 25
155 156 D = 238
156 295 C > 27
157 158 D = 238
157 167 C > 13
157 168 C > 1
157 213 C > 4
157 214 C > 31
157 389 C > 36
157 390 C > 10
157 495 C > 38
157 496 C > 18
157 541 C > 6
157 542 C > 33
157 567 C > 21
157 568 C > 11
157 665 C > 51
157 666 C > 12
157 757 C > 17
157 758 C > 50
158 213 C > 46
158 214 C > 1
158 389 C > 4
158 390 C > 7
158 405 C > 6
158 406 C > 34
158 495 C > 8
158 496 C > 61
158 541 C > 5
158 542 C > 10
158 567 C > 3
158 568 C > 26
158 665 C > 17
158 666 C > 8
158 757 C > 14
158 758 C > 56
159 160 D = 238
159 432 C > 13
159 445 C > 36
159 446 C > 3
160 308 C > 11
160 429 C > 63
160 430 C > 19
161 162 D = 238
161 455 C > 13
161 503 C > 1
161 504 C > 55
161 718 C > 11
161 819 C > 22
162 526 C > 1
162 718 C > 8
162 897 C > 12
162 898 C > 8
163 164 D = 238
163 248 C > 42
163 518 C > 43
164 247 C > 13
164 303 C > 37
164 383 C > 9
164 384 C > 43
164 518 C > 2
165 166 D = 238
165 407 C > 45
165 408 C > 42
165 501 C > 36
165 502 C > 30
165 539 C > 29
165 540 C > 42
165 557 C > 6
165 558 C > 21
165 685 C > 4
165 686 C > 55
165 785 C > 42
165 786 C > 34
165 797 C > 38
165 798 C > 41
165 803 C > 27
165 804 C > 1
165 817 C > 10
165 818 C > 6
166 407 C > 2
166 408 C > 8
166 501 C > 4
166 502 C > 37
166 507 C > 34
166 508 C > 1
166 557 C > 7
166 558 C > 72
166 685 C > 37
166 686 C > 5
166 785 C > 56
166 786 C > 56
166 797 C > 16
166 798 C > 48
166 803 C > 41
166 804 C > 27
166 817 C > 12
166 818 C > 25
167 168 D = 238
167 277 C > 11
167 398 C > 13
167 488 C > 13
167 665 C > 10
167 666 C > 50
168 253 C > 4
168 254 C > 26
168 382 C > 13
168 398 C > 10
168 433 C > 4
169 170 D = 238
169 393 C > 32
169 424 C > 3
169 457 C > 24
169 688 C > 19
169 733 C > 23
169 734 C > 58
169 883 C > 16
170 394 C > 116
170 424 C > 56
170 458 C > 125
170 601 C > 56
170 602 C > 9
170 721 C > 29
170 722 C > 49
170 733 C > 43
170 883 C > 10
171 172 D = 238
171 173 C > 53
171 174 C > 12
171 365 C > 12
171 366 C > 1
171 368 C > 33
171 401 C > 8
171 640 C > 13
172 266 C > 21
172 339 C > 8
172 340 C > 37
172 367 C > 7
172 368 C > 28
172 640 C > 68
173 174 D = 238
173 362 C > 2
173 365 C > 12
173 366 C > 42
173 413 C > 26
173 555 C > 8
173 702 C > 9
173 860 C > 52
174 361 C > 22
174 414 C > 33
174 555 C > 8
174 556 C > 4
174 893 C > 6
174 894 C > 25
175 176 D = 238
175 266 C > 52
175 289 C > 2
175 290 C > 64
175 401 C > 55
176 265 C > 9
176 367 C > 11
177 178 D = 238
177 189 C > 35
177 190 C > 20
177 191 C > 12
177 192 C > 47
177 343 C > 24
177 344 C > 41
177 493 C > 25
177 494 C > 1
177 511 C > 17
177 512 C > 3
177 667 C > 8
177 668 C > 12
177 769 C > 34
177 770 C > 4
177 835 C > 15
177 836 C > 19
178 191 C > 45
178 192 C > 2
178 343 C > 42
178 344 C > 1
178 493 C > 33
178 494 C > 32
178 511 C > 62
178 512 C > 35
178 667 C > 4
178 668 C > 12
178 769 C > 20
178 770 C > 28
178 835 C > 47
178 836 C > 4
179 180 D = 238
179 435 C > 51
179 436 C > 18
179 605 C > 41
179 674 C > 2
179 901 C > 5
179 902 C > 50
180 292 C > 9
180 621 C > 38
180 622 C > 12
180 844 C > 6
180 903 C > 13
181 182 D = 238
181 226 C > 20
181 273 C > 26
181 274 C > 12
181 383 C > 40
181 384 C > 4
181 461 C > 6
182 384 C > 30
182 461 C > 18
183 184 D = 238
183 609 C > 6
183 671 C > 1
183 672 C > 1
183 732 C > 38
183 888 C > 2
184 610 C > 5
184 731 C > 24
185 186 D = 238
185 241 C > 56
185 657 C > 24
185 658 C > 20
185 713 C > 2
186 827 C > 13
187 188 D = 238
187 624 C > 5
187 724 C > 44
187 905 C > 20
187 906 C > 9
188 354 C > 41
188 451 C > 22
188 452 C > 15
188 724 C > 9
188 905 C > 16
188 906 C > 15
189 190 D = 238
189 405 C > 32
189 406 C > 6
191 192 D = 238
191 343 C > 5
191 344 C > 4
191 493 C > 65
191 494 C > 36
191 511 C > 3
191 512 C > 19
191 667 C > 38
191 668 C > 8
191 769 C > 28
191 770 C > 5
191 835 C > 40
191 836 C > 4
192 343 C > 1
192 344 C > 3
192 493 C > 2
192 494 C > 12
192 505 C > 1
192 506 C > 16
192 511 C > 12
192 512 C > 56
192 667 C > 22
192 668 C > 26
192 769 C > 38
192 770 C > 47
192 835 C > 36
192 836 C > 36
193 194 D = 238
193 458 C > 36
193 559 C > 20
193 560 C > 5
193 601 C > 24
193 687 C > 13
193 884 C > 7
194 393 C > 56
194 423 C > 49
194 443 C > 25
194 444 C > 23
194 458 C > 56
194 734 C > 7
195 196 D = 238
195 397 C > 13
195 398 C > 53
196 233 C > 29
197 198 D = 238
197 266 C > 9
197 402 C > 14
197 639 C > 4
198 265 C > 33
198 266 C > 45
198 368 C > 8
198 639 C > 10
199 200 D = 238
199 421 C > 3
199 422 C > 8
199 485 C > 40
199 486 C > 2
199 581 C > 5
199 582 C > 56
199 663 C > 31
199 664 C > 46
199 781 C > 52
199 782 C > 36
199 805 C > 16
199 806 C > 12
199 837 C > 2
199 838 C > 22
199 847 C > 19
199 848 C > 40
199 861 C > 24
199 862 C > 26
200 421 C > 19
200 422 C > 1
200 485 C > 3
200 486 C > 56
200 581 C > 5
200 582 C > 73
200 663 C > 30
200 664 C > 48
200 781 C > 28
200 782 C > 49
200 837 C > 46
200 838 C > 35
200 847 C > 33
200 848 C > 2
200 861 C > 29
200 862 C > 15
201 202 D = 238
201 275 C > 44
201 276 C > 2
201 355 C > 38
201 356 C > 56
201 538 C > 19
202 256 C > 22
202 321 C > 38
202 322 C > 49
202 447 C > 76
202 633 C > 9
202 634 C > 39
203 204 D = 238
203 248 C > 12
203 279 C > 49
203 280 C > 50
203 303 C > 25
203 304 C > 4
203 518 C > 52
203 519 C > 10
204 301 C > 19
204 302 C > 2
204 517 C > 17
204 519 C > 5
204 520 C > 22
205 206 D = 238
205 330 C > 56
205 340 C > 30
205 611 C > 86
205 612 C > 14
206 469 C > 11
206 470 C > 6
207 208 D = 238
207 387 C > 19
207 388 C > 32
207 613 C > 40
207 614 C > 25
207 707 C > 55
207 708 C > 54
207 747 C > 41
207 748 C > 23
207 749 C > 27
207 750 C > 47
207 809 C > 95
207 810 C > 115
207 863 C > 14
207 864 C > 22
207 889 C > 12
207 890 C > 24
207 911 C > 5
207 912 C > 2
208 387 C > 41
208 388 C > 17
208 613 C > 56
208 614 C > 22
208 707 C > 38
208 708 C > 4
208 747 C > 53
208 748 C > 1
208 749 C > 11
208 750 C > 8
208 809 C > 6
208 810 C > 56
208 863 C > 17
208 864 C > 17
208 889 C > 50
208 890 C > 23
208 893 C > 40
208 894 C > 19
209 210 D = 238
209 211 C > 10
209 233 C > 43
209 234 C > 18
209 287 C > 32
209 321 C > 27
209 378 C > 2
210 305 C > 27
210 306 C > 9
210 321 C > 11
210 465 C > 33
210 577 C > 14
211 212 D = 238
211 287 C > 10
211 288 C > 34
211 377 C > 50
211 551 C > 2
211 552 C > 35
211 651 C > 30
212 319 C > 66
212 320 C > 10
212 322 C > 47
212 466 C > 31
212 578 C > 13
213 214 D = 238
213 389 C > 6
213 390 C > 6
213 495 C > 8
213 496 C > 56
213 541 C > 5
213 542 C > 51
213 567 C > 53
213 568 C > 17
213 631 C > 37
213 632 C > 10
213 665 C > 18
213 666 C > 1
213 757 C > 8
213 758 C > 9
214 389 C > 7
214 390 C > 6
214 495 C > 13
214 496 C > 32
214 541 C > 33
214 542 C > 17
214 567 C > 8
214 568 C > 42
214 641 C > 9
214 642 C > 5
214 665 C > 1
214 666 C > 5
214 757 C > 19
214 758 C > 23
215 216 D = 238
215 353 C > 7
215 445 C > 80
215 446 C > 1
215 483 C > 32
215 724 C > 5
215 905 C > 1
216 354 C > 1
216 481 C > 17
216 482 C > 42
216 723 C > 32
216 905 C > 1
217 218 D = 238
217 339 C > 18
217 340 C > 33
217 643 C > 45
217 787 C > 27
217 854 C > 56
218 358 C > 28
218 531 C > 9
218 643 C > 5
218 788 C > 11
219 220 D = 238
219 396 C > 53
219 479 C > 27
220 480 C > 1
221 222 D = 238
221 289 C > 41
221 290 C > 49
221 369 C > 39
221 678 C > 11
222 363 C > 4
222 364 C > 18
222 371 C > 14
223 224 D = 238
223 239 C > 1
223 310 C > 25
224 239 C > 16
224 911 C > 23
224 913 C > 50
224 914 C > 1
225 226 D = 238
226 235 C > 3
226 236 C > 8
226 299 C > 7
226 300 C > 21
227 228 D = 238
227 229 C > 7
227 257 C > 3
227 399 C > 13
227 449 C > 46
228 230 C > 10
228 513 C > 19
228 514 C > 27
229 230 D = 238
229 258 C > 13
229 399 C > 13
229 449 C > 56
229 592 C > 46
229 765 C > 17
229 766 C > 10
230 263 C > 8
230 264 C > 10
230 449 C > 1
231 232 D = 238
231 277 C > 9
231 278 C > 1
231 405 C > 30
231 406 C > 11
231 488 C > 18
231 521 C > 47
231 700 C > 1
232 278 C > 4
232 405 C > 3
232 406 C > 23
232 487 C > 62
232 488 C > 12
232 521 C > 8
233 234 D = 238
233 301 C > 26
233 302 C > 45
233 305 C > 10
233 306 C > 13
234 305 C > 3
235 236 D = 238
235 462 C > 12
237 238 D = 238
237 259 C > 9
237 260 C > 8
237 313 C > 22
237 314 C > 4
237 316 C > 10
237 406 C > 9
237 527 C > 2
237 528 C > 38
237 679 C > 37
237 856 C > 56
238 528 C > 5
238 855 C > 13
238 856 C > 17
238 909 C > 85
239 240 D = 238
239 249 C > 39
239 250 C > 14
239 310 C > 4
239 911 C > 14
240 912 C > 3
241 242 D = 238
241 415 C > 1
241 895 C > 31
242 415 C > 5
242 416 C > 9
242 497 C > 21
242 671 C > 4
243 244 D = 238
243 420 C > 56
243 575 C > 12
243 576 C > 5
243 588 C > 15
243 761 C > 21
244 581 C > 3
244 582 C > 34
244 725 C > 3
244 762 C > 62
245 246 D = 238
245 275 C > 18
245 276 C > 44
245 489 C > 45
245 545 C > 35
246 439 C > 8
246 440 C > 96
246 489 C > 13
246 490 C > 37
246 499 C > 1
246 500 C > 44
246 543 C > 9
246 545 C > 56
246 546 C > 22
247 248 D = 238
247 518 C > 16
247 707 C > 30
247 708 C > 38
248 520 C > 22
249 250 D = 238
249 254 C > 46
249 535 C > 1
249 649 C > 40
249 705 C > 17
249 706 C > 2
249 829 C > 3
250 323 C > 8
250 650 C > 6
250 829 C > 54
250 877 C > 119
250 878 C > 79
251 252 D = 238
251 361 C > 13
251 413 C > 12
251 701 C > 20
251 707 C > 7
251 708 C > 18
252 361 C > 38
252 509 C > 10
252 510 C > 34
252 556 C > 32
252 702 C > 32
253 254 D = 238
254 324 C > 7
254 823 C > 20
254 824 C > 6
254 830 C > 25
255 256 D = 238
255 634 C > 4
255 733 C > 26
255 734 C > 3
256 356 C > 4
256 537 C > 7
256 831 C > 22
256 832 C > 53
257 258 D = 238
257 449 C > 56
257 482 C > 13
257 537 C > 49
257 538 C > 22
257 566 C > 32
258 400 C > 34
258 481 C > 39
258 566 C > 124
258 591 C > 1
259 260 D = 238
259 276 C > 15
259 293 C > 4
259 294 C > 11
259 470 C > 1
259 612 C > 2
260 289 C > 75
260 290 C > 35
260 339 C > 6
260 340 C > 49
261 262 D = 238
261 453 C > 5
261 454 C > 8
261 468 C > 17
261 625 C > 12
262 467 C > 17
262 468 C > 17
262 478 C > 17
262 571 C > 45
262 572 C > 50
263 264 D = 238
263 359 C > 16
263 579 C > 25
263 735 C > 5
264 360 C > 9
264 445 C > 41
264 446 C > 36
265 266 D = 238
265 368 C > 28
266 366 C > 2
266 367 C > 55
266 401 C > 11
266 503 C > 15
266 504 C > 6
267 268 D = 238
267 563 C > 2
267 564 C > 53
267 603 C > 47
267 604 C > 35
267 697 C > 1
267 698 C > 34
267 729 C > 40
267 730 C > 102
267 737 C > 41
267 738 C > 5
267 813 C > 2
267 814 C > 4
267 841 C > 25
267 842 C > 18
267 877 C > 21
267 878 C > 15
267 891 C > 13
267 892 C > 43
268 563 C > 23
268 564 C > 5
268 577 C > 53
268 578 C > 25
268 603 C > 35
268 604 C > 1
268 697 C > 54
268 698 C > 31
268 729 C > 23
268 730 C > 40
268 737 C > 12
268 738 C > 1
268 813 C > 25
268 814 C > 51
268 841 C > 56
268 842 C > 17
268 877 C > 3
268 878 C > 20
269 270 D = 238
269 572 C > 3
269 635 C > 62
269 801 C > 10
269 891 C > 8
269 892 C > 7
270 437 C > 5
270 572 C > 3
270 635 C > 7
270 641 C > 56
270 642 C > 19
271 272 D = 238
272 912 C > 16
272 915 C > 7
272 916 C > 28
273 274 D = 238
273 347 C > 23
273 348 C > 15
273 545 C > 43
273 546 C > 33
273 559 C > 36
273 560 C > 2
273 583 C > 55
273 584 C > 16
273 631 C > 44
273 632 C > 20
273 689 C > 21
273 690 C > 6
273 805 C > 36
273 806 C > 22
273 823 C > 34
273 824 C > 53
274 347 C > 12
274 348 C > 23
274 371 C > 1
274 372 C > 47
274 559 C > 4
274 560 C > 25
274 583 C > 1
274 584 C > 37
274 631 C > 21
274 632 C > 2
274 689 C > 9
274 690 C > 16
274 805 C > 2
274 806 C > 56
274 823 C > 32
274 824 C > 28
275 276 D = 238
275 329 C > 11
275 330 C > 13
275 339 C > 14
275 340 C > 7
275 611 C > 27
275 637 C > 22
275 638 C > 6
276 329 C > 5
276 330 C > 1
276 340 C > 2
276 611 C > 54
276 612 C > 8
277 278 D = 238
277 382 C > 32
277 395 C > 33
277 396 C > 68
277 398 C > 29
277 522 C > 5
278 381 C > 7
278 382 C > 6
278 395 C > 1
278 396 C > 48
278 522 C > 12
278 699 C > 46
279 280 D = 238
279 440 C > 32
279 489 C > 20
279 544 C > 35
279 763 C > 6
280 440 C > 2
280 479 C > 12
280 480 C > 16
280 490 C > 56
280 545 C > 50
280 764 C > 1
281 282 D = 238
281 445 C > 16
281 463 C > 7
281 464 C > 6
281 507 C > 3
282 555 C > 56
282 556 C > 55
282 573 C > 13
282 574 C > 47
283 284 D = 238
283 331 C > 5
283 332 C > 34
283 472 C > 49
283 638 C > 48
284 335 C > 1
284 471 C > 37
284 570 C > 14
284 637 C > 29
285 286 D = 238
285 370 C > 61
285 371 C > 44
285 510 C > 10
285 677 C > 18
286 341 C > 17
287 288 D = 238
287 321 C > 19
287 447 C > 50
287 448 C > 75
287 466 C > 28
287 578 C > 25
287 652 C > 15
288 322 C > 37
288 377 C > 10
289 290 D = 238
289 311 C > 58
289 312 C > 17
289 331 C > 17
289 332 C > 46
289 345 C > 54
289 346 C > 4
289 365 C > 6
289 366 C > 18
289 375 C > 7
289 376 C > 47
289 553 C > 5
289 554 C > 5
289 683 C > 20
289 684 C > 4
289 727 C > 4
289 728 C > 33
289 793 C > 14
289 794 C > 4
290 311 C > 11
290 312 C > 16
290 331 C > 12
290 332 C > 8
290 345 C > 56
290 346 C > 14
290 375 C > 48
290 376 C > 8
290 553 C > 51
290 554 C > 11
290 683 C > 8
290 684 C > 4
290 727 C > 44
290 728 C > 26
290 755 C > 21
290 756 C > 5
290 793 C > 20
290 794 C > 10
291 292 D = 238
291 605 C > 17
292 436 C > 4
292 467 C > 13
292 468 C > 26
292 673 C > 3
292 874 C > 29
293 294 D = 238
293 359 C > 24
293 360 C > 5
294 627 C > 16
294 628 C > 54
295 296 D = 238
295 459 C > 33
295 460 C > 35
296 727 C > 20
296 728 C > 29
297 298 D = 238
297 399 C > 5
297 400 C > 9
298 395 C > 4
298 407 C > 7
298 408 C > 41
298 479 C > 25
298 480 C > 47
299 300 D = 238
299 373 C > 51
299 374 C > 29
299 461 C > 48
300 461 C > 31
300 462 C > 31
301 302 D = 238
301 303 C > 1
301 304 C > 7
301 351 C > 3
301 352 C > 53
301 391 C > 8
301 392 C > 22
301 599 C > 13
301 600 C > 20
301 709 C > 12
301 710 C > 2
301 779 C > 9
301 780 C > 27
301 839 C > 30
301 840 C > 11
301 867 C > 3
301 868 C > 3
301 875 C > 12
301 876 C > 51
302 351 C > 10
302 352 C > 11
302 391 C > 39
302 392 C > 1
302 599 C > 12
302 600 C > 17
302 709 C > 6
302 710 C > 7
302 779 C > 8
302 780 C > 3
302 819 C > 27
302 820 C > 3
302 839 C > 13
302 840 C > 6
302 867 C > 3
302 868 C > 14
302 875 C > 99
302 876 C > 27
303 304 D = 238
303 517 C > 36
303 519 C > 39
303 520 C > 12
303 715 C > 18
303 716 C > 19
305 306 D = 238
305 657 C > 5
305 658 C > 11
306 549 C > 4
306 550 C > 7
307 308 D = 238
307 586 C > 8
307 645 C > 19
308 460 C > 6
308 645 C > 47
309 310 D = 238
309 912 C > 5
310 911 C > 14
311 312 D = 238
311 331 C > 3
311 332 C > 99
311 345 C > 14
311 346 C > 42
311 349 C > 25
311 350 C > 45
311 375 C > 68
311 376 C > 1
311 553 C > 42
311 554 C > 10
311 683 C > 1
311 684 C > 1
311 727 C > 10
311 728 C > 56
311 793 C > 5
311 794 C > 15
312 331 C > 54
312 332 C > 11
312 345 C > 39
312 346 C > 32
312 375 C > 36
312 376 C > 1
312 553 C > 48
312 554 C > 54
312 683 C > 21
312 684 C > 33
312 727 C > 7
312 728 C > 1
312 793 C > 15
312 794 C > 33
313 314 D = 238
313 315 C > 12
313 849 C > 12
313 850 C > 3
313 855 C > 38
313 909 C > 7
314 405 C > 35
314 901 C > 11
314 902 C > 16
314 910 C > 6
315 316 D = 238
315 443 C > 55
315 444 C > 8
315 528 C > 52
315 679 C > 36
315 901 C > 56
315 909 C > 48
316 527 C > 9
316 528 C > 3
316 641 C > 36
316 642 C > 37
317 318 D = 238
317 379 C > 12
317 380 C > 37
317 499 C > 56
317 500 C > 47
317 539 C > 51
317 540 C > 32
317 607 C > 49
317 608 C > 42
317 719 C > 33
317 720 C > 43
317 759 C > 8
317 760 C > 13
318 379 C > 18
318 380 C > 4
318 499 C > 5
318 500 C > 1
318 539 C > 12
318 540 C > 22
318 607 C > 20
318 608 C > 4
318 719 C > 21
318 720 C > 16
318 759 C > 17
318 760 C > 65
319 320 D = 238
319 451 C > 24
319 565 C > 4
319 566 C > 15
319 661 C > 14
319 675 C > 22
319 754 C > 33
320 425 C > 2
320 452 C > 13
320 589 C > 55
320 661 C > 32
320 733 C > 23
320 734 C > 39
320 872 C > 5
321 322 D = 238
321 591 C > 24
321 592 C > 5
322 465 C > 9
322 577 C > 2
322 643 C > 11
322 644 C > 8
323 324 D = 238
323 617 C > 1
323 693 C > 4
324 641 C > 40
324 642 C > 2
325 326 D = 238
325 491 C > 21
325 492 C > 1
325 581 C > 38
325 582 C > 51
325 655 C > 3
325 656 C > 7
325 681 C > 21
325 682 C > 52
325 739 C > 53
325 740 C > 12
325 777 C > 41
325 778 C > 54
325 845 C > 27
325 846 C > 40
325 881 C > 4
325 882 C > 13
326 491 C > 1
326 492 C > 3
326 655 C > 22
326 656 C > 19
326 681 C > 44
326 682 C > 6
326 691 C > 30
326 692 C > 22
326 739 C > 46
326 740 C > 42
326 777 C > 54
326 778 C > 17
326 845 C > 18
326 846 C > 28
326 881 C > 1
326 882 C > 31
327 328 D = 238
327 505 C > 22
327 506 C > 8
327 657 C > 3
327 658 C > 52
327 715 C > 54
327 716 C > 25
327 743 C > 16
327 744 C > 6
327 799 C > 45
327 800 C > 5
327 811 C > 9
327 812 C > 68
327 849 C > 19
327 850 C > 5
327 869 C > 4
327 870 C > 15
327 893 C > 23
327 894 C > 3
328 505 C > 33
328 506 C > 11
328 657 C > 53
328 658 C > 52
328 743 C > 14
328 744 C > 13
328 799 C > 37
328 800 C > 60
328 811 C > 27
328 812 C > 87
328 849 C > 45
328 850 C > 4
328 865 C > 60
328 866 C > 25
328 869 C > 10
328 870 C > 10
328 893 C > 44
328 894 C > 5
329 330 D = 238
329 339 C > 1
330 339 C > 10
330 612 C > 15
331 332 D = 238
331 339 C > 21
331 340 C > 2
331 345 C > 8
331 346 C > 10
331 375 C > 45
331 376 C > 7
331 553 C > 33
331 554 C > 44
331 683 C > 35
331 684 C > 1
331 727 C > 15
331 728 C > 6
331 793 C > 40
331 794 C > 5
332 345 C > 1
332 346 C > 13
332 375 C > 38
332 376 C > 56
332 553 C > 13
332 554 C > 12
332 661 C > 34
332 662 C > 5
332 683 C > 3
332 684 C > 11
332 727 C > 10
332 728 C > 13
332 793 C > 1
332 794 C > 51
333 334 D = 238
333 403 C > 31
333 404 C > 56
333 533 C > 7
333 534 C > 52
333 647 C > 11
333 648 C > 40
333 677 C > 16
333 678 C > 8
333 695 C > 36
333 696 C > 1
333 771 C > 8
333 772 C > 54
333 789 C > 31
333 790 C > 13
333 825 C > 8
333 826 C > 4
333 885 C > 7
333 886 C > 11
334 403 C > 47
334 404 C > 9
334 533 C > 4
334 534 C > 13
334 647 C > 17
334 648 C > 56
334 695 C > 15
334 696 C > 13
334 771 C > 4
334 772 C > 105
334 789 C > 46
334 790 C > 8
334 825 C > 34
334 826 C > 5
334 885 C > 20
334 886 C > 24
334 903 C > 86
334 904 C > 3
335 336 D = 238
336 472 C > 13
336 557 C > 103
336 558 C > 9
336 569 C > 39
336 637 C > 38
337 338 D = 238
337 358 C > 4
337 643 C > 35
338 531 C > 1
338 644 C > 11
338 670 C > 47
338 853 C > 46
339 340 D = 238
339 469 C > 9
339 612 C > 21
339 665 C > 4
339 666 C > 5
340 469 C > 56
341 342 D = 238
341 510 C > 34
342 369 C > 75
342 509 C > 3
342 677 C > 47
342 907 C > 46
343 344 D = 238
343 493 C > 15
343 494 C > 6
343 501 C > 9
343 502 C > 5
343 511 C > 56
343 512 C > 130
343 667 C > 46
343 668 C > 54
343 769 C > 7
343 770 C > 13
343 835 C > 12
343 836 C > 41
344 493 C > 47
344 494 C > 74
344 511 C > 3
344 512 C > 13
344 667 C > 54
344 668 C > 20
344 733 C > 42
344 734 C > 5
344 769 C > 56
344 770 C > 11
344 835 C > 17
344 836 C > 17
345 346 D = 238
345 365 C > 39
345 366 C > 56
345 375 C > 38
345 376 C > 16
345 553 C > 48
345 554 C > 41
345 683 C > 23
345 684 C > 6
345 727 C > 45
345 728 C > 52
345 793 C > 40
345 794 C > 46
346 375 C > 7
346 376 C > 38
346 517 C > 24
346 518 C > 35
346 553 C > 29
346 554 C > 46
346 683 C > 22
346 684 C > 56
346 727 C > 22
346 728 C > 27
346 793 C > 19
346 794 C > 47
347 348 D = 238
347 559 C > 9
347 560 C > 12
347 583 C > 4
347 584 C > 44
347 631 C > 52
347 632 C > 3
347 635 C > 56
347 636 C > 38
347 689 C > 62
347 690 C > 4
347 805 C > 1
347 806 C > 37
347 823 C > 8
347 824 C > 24
348 559 C > 58
348 560 C > 2
348 565 C > 14
348 566 C > 46
348 583 C > 56
348 584 C > 17
348 631 C > 37
348 632 C > 42
348 689 C > 38
348 690 C > 51
348 805 C > 41
348 806 C > 48
348 823 C > 3
348 824 C > 108
349 350 D = 238
349 516 C > 26
349 609 C > 3
349 731 C > 38
349 737 C > 23
349 738 C > 10
349 888 C > 4
350 515 C > 3
350 755 C > 38
350 888 C > 17
351 352 D = 238
351 377 C > 46
351 378 C > 29
351 391 C > 13
351 392 C > 28
351 599 C > 7
351 600 C > 28
351 709 C > 18
351 710 C > 50
351 779 C > 20
351 780 C > 12
351 839 C > 24
351 840 C > 3
351 867 C > 63
351 868 C > 19
351 875 C > 1
351 876 C > 18
352 391 C > 30
352 392 C > 20
352 599 C > 6
352 600 C > 23
352 709 C > 49
352 710 C > 43
352 779 C > 43
352 780 C > 46
352 839 C > 27
352 840 C > 29
352 867 C > 110
352 868 C > 56
352 875 C > 9
352 876 C > 41
353 354 D = 238
353 479 C > 35
353 480 C > 56
353 624 C > 33
353 905 C > 36
354 484 C > 21
354 905 C > 42
354 906 C > 45
355 356 D = 238
355 453 C > 9
355 454 C > 56
355 537 C > 34
356 473 C > 51
356 537 C > 8
356 634 C > 14
357 358 D = 238
357 532 C > 97
357 670 C > 22
357 853 C > 8
357 854 C > 37
358 670 C > 7
358 853 C > 105
358 854 C > 24
359 360 D = 238
359 551 C > 11
360 551 C > 21
360 553 C > 82
360 554 C > 26
360 561 C > 12
360 562 C > 13
360 692 C > 71
360 736 C > 50
361 362 D = 238
361 413 C > 12
361 505 C > 1
361 506 C > 47
361 859 C > 18
362 859 C > 51
362 860 C > 50
363 364 D = 238
363 441 C > 43
363 442 C > 56
363 549 C > 15
363 550 C > 23
363 575 C > 8
363 576 C > 18
363 715 C > 56
363 716 C > 26
363 745 C > 44
363 746 C > 37
363 815 C > 2
363 816 C > 42
363 865 C > 9
363 866 C > 48
363 879 C > 7
363 880 C > 1
364 441 C > 40
364 442 C > 41
364 549 C > 21
364 550 C > 6
364 575 C > 26
364 576 C > 56
364 715 C > 32
364 716 C > 7
364 745 C > 2
364 746 C > 41
364 815 C > 4
364 816 C > 41
364 865 C > 2
364 866 C > 24
364 879 C > 43
364 880 C > 19
365 366 D = 238
365 367 C > 8
365 368 C > 55
365 369 C > 7
365 370 C > 5
365 401 C > 2
365 640 C > 7
366 402 C > 29
366 640 C > 5
367 368 D = 238
367 401 C > 26
367 409 C > 35
367 410 C > 38
367 640 C > 8
368 402 C > 98
369 370 D = 238
369 510 C > 5
370 509 C > 5
370 510 C > 6
370 678 C > 41
370 908 C > 56
371 372 D = 238
371 677 C > 3
371 908 C > 7
372 907 C > 1
372 908 C > 54
373 374 D = 238
373 387 C > 16
373 388 C > 38
373 417 C > 12
373 418 C > 62
373 523 C > 26
373 524 C > 50
373 615 C > 31
373 616 C > 1
373 741 C > 10
373 742 C > 22
373 767 C > 33
373 768 C > 1
373 795 C > 11
373 796 C > 29
374 417 C > 29
374 418 C > 4
374 523 C > 9
374 524 C > 5
374 615 C > 4
374 616 C > 23
374 741 C > 9
374 742 C > 56
374 747 C > 14
374 748 C > 39
374 767 C > 26
374 768 C > 9
374 795 C > 51
374 796 C > 53
375 376 D = 238
375 553 C > 9
375 554 C > 4
375 607 C > 1
375 608 C > 3
375 683 C > 15
375 684 C > 12
375 727 C > 9
375 728 C > 10
375 793 C > 7
375 794 C > 54
376 553 C > 7
376 554 C > 12
376 669 C > 24
376 670 C > 1
376 683 C > 15
376 684 C > 13
376 727 C > 10
376 728 C > 21
376 793 C > 54
376 794 C > 1
377 378 D = 238
377 466 C > 49
379 380 D = 238
379 499 C > 29
379 500 C > 56
379 539 C > 46
379 540 C > 14
379 607 C > 67
379 608 C > 25
379 719 C > 19
379 720 C > 5
379 757 C > 24
379 758 C > 13
379 759 C > 52
379 760 C > 23
380 499 C > 21
380 500 C > 32
380 539 C > 26
380 540 C > 47
380 607 C > 115
380 608 C > 8
380 719 C > 36
380 720 C > 29
380 759 C > 7
380 760 C > 21
380 813 C > 9
380 814 C > 44
381 382 D = 238
381 397 C > 13
381 434 C > 19
381 463 C > 56
381 464 C > 2
381 487 C > 31
382 434 C > 24
382 521 C > 79
383 384 D = 238
383 457 C > 19
383 458 C > 20
384 461 C > 35
384 462 C > 50
385 386 D = 238
385 593 C > 24
385 594 C > 2
385 595 C > 17
385 596 C > 10
385 597 C > 23
385 598 C > 19
385 621 C > 7
385 622 C > 15
385 641 C > 38
385 642 C > 26
385 703 C > 56
385 704 C > 30
385 705 C > 3
385 706 C > 2
385 773 C > 23
385 774 C > 56
385 775 C > 12
385 776 C > 31
386 593 C > 51
386 594 C > 17
386 595 C > 35
386 596 C > 19
386 597 C > 47
386 598 C > 13
386 621 C > 56
386 622 C > 31
386 641 C > 52
386 642 C > 56
386 703 C > 9
386 704 C > 19
386 705 C > 56
386 706 C > 2
386 773 C > 56
386 774 C > 22
386 775 C > 55
386 776 C > 22
387 388 D = 238
387 613 C > 7
387 614 C > 13
387 707 C > 14
387 708 C > 5
387 747 C > 33
387 748 C > 41
387 749 C > 26
387 750 C > 56
387 809 C > 13
387 810 C > 25
387 863 C > 56
387 864 C > 43
387 889 C > 11
387 890 C > 32
387 891 C > 13
387 892 C > 4
388 613 C > 24
388 614 C > 25
388 707 C > 42
388 708 C > 22
388 741 C > 39
388 742 C > 30
388 747 C > 11
388 748 C > 51
388 749 C > 26
388 750 C > 45
388 809 C > 5
388 810 C > 18
388 863 C > 15
388 864 C > 65
388 889 C > 9
388 890 C > 3
389 390 D = 238
389 495 C > 31
389 496 C > 30
389 541 C > 55
389 542 C > 68
389 561 C > 46
389 562 C > 101
389 567 C > 49
389 568 C > 16
389 665 C > 21
389 666 C > 27
389 757 C > 7
389 758 C > 6
390 495 C > 3
390 496 C > 60
390 541 C > 9
390 542 C > 35
390 551 C > 47
390 552 C > 21
390 567 C > 2
390 568 C > 2
390 665 C > 33
390 666 C > 14
390 757 C > 13
390 758 C > 54
391 392 D = 238
391 599 C > 6
391 600 C > 78
391 709 C > 54
391 710 C > 35
391 779 C > 44
391 780 C > 4
391 797 C > 36
391 798 C > 25
391 839 C > 6
391 840 C > 17
391 867 C > 4
391 868 C > 10
391 875 C > 32
391 876 C > 20
392 599 C > 52
392 600 C > 11
392 709 C > 41
392 710 C > 13
392 779 C > 40
392 780 C > 41
392 839 C > 20
392 840 C > 36
392 857 C > 30
392 858 C > 29
392 867 C > 42
392 868 C > 15
392 875 C > 12
392 876 C > 42
393 394 D = 238
393 423 C > 12
393 447 C > 47
393 448 C > 5
393 602 C > 3
393 688 C > 11
393 883 C > 1
393 884 C > 5
395 396 D = 238
395 403 C > 23
395 404 C > 52
395 412 C > 22
397 398 D = 238
397 488 C > 45
397 521 C > 27
397 699 C > 44
399 400 D = 238
399 449 C > 3
399 482 C > 24
399 497 C > 6
399 498 C > 30
400 459 C > 9
400 460 C > 3
400 565 C > 18
400 592 C > 8
401 402 D = 238
401 640 C > 6
402 639 C > 3
403 404 D = 238
403 531 C > 21
403 532 C > 7
403 533 C > 5
403 534 C > 30
403 647 C > 18
403 648 C > 41
403 695 C > 12
403 696 C > 35
403 771 C > 37
403 772 C > 26
403 789 C > 29
403 790 C > 24
403 825 C > 11
403 826 C > 32
403 885 C > 6
403 886 C > 40
404 533 C > 49
404 534 C > 23
404 647 C > 18
404 648 C > 25
404 695 C > 56
404 696 C > 50
404 719 C > 50
404 720 C > 47
404 771 C > 37
404 772 C > 5
404 789 C > 28
404 790 C > 5
404 825 C > 4
404 826 C > 11
404 885 C > 17
404 886 C > 73
405 406 D = 238
405 528 C > 34
405 856 C > 37
405 901 C > 34
405 911 C > 56
405 912 C > 40
406 679 C > 11
406 821 C > 17
406 822 C > 29
406 901 C > 35
406 909 C > 39
406 910 C > 53
407 408 D = 238
407 417 C > 25
407 418 C > 7
407 501 C > 2
407 502 C > 21
407 557 C > 28
407 558 C > 3
407 685 C > 15
407 686 C > 2
407 785 C > 46
407 786 C > 5
407 797 C > 10
407 798 C > 7
407 803 C > 25
407 804 C > 25
407 817 C > 46
407 818 C > 19
408 501 C > 41
408 502 C > 19
408 557 C > 39
408 558 C > 19
408 685 C > 74
408 686 C > 21
408 785 C > 70
408 786 C > 42
408 797 C > 18
408 798 C > 27
408 803 C > 12
408 804 C > 24
408 817 C > 8
408 818 C > 57
409 410 D = 238
409 619 C > 4
409 620 C > 4
409 721 C > 38
409 722 C > 40
409 751 C > 47
409 752 C > 32
409 765 C > 26
409 766 C > 7
409 791 C > 18
409 792 C > 8
409 821 C > 34
409 822 C > 35
409 833 C > 33
409 834 C > 56
410 619 C > 50
410 620 C > 5
410 721 C > 19
410 722 C > 2
410 751 C > 3
410 752 C > 23
410 765 C > 29
410 766 C > 24
410 791 C > 17
410 792 C > 27
410 821 C > 62
410 822 C > 16
410 833 C > 8
410 834 C > 12
411 412 D = 238
411 449 C > 32
411 450 C > 19
411 479 C > 35
412 479 C > 49
412 653 C > 2
412 654 C > 2
413 414 D = 238
413 443 C > 13
413 783 C > 2
413 784 C > 29
413 860 C > 24
413 901 C > 13
413 902 C > 14
414 702 C > 64
414 783 C > 127
414 784 C > 14
414 863 C > 40
414 864 C > 19
415 416 D = 238
415 531 C > 46
415 532 C > 37
415 713 C > 47
415 828 C > 15
415 895 C > 10
416 641 C > 13
416 642 C > 50
416 672 C > 16
416 713 C > 5
416 828 C > 1
417 418 D = 238
417 523 C > 56
417 524 C > 51
417 615 C > 74
417 616 C > 41
417 741 C > 56
417 742 C > 12
417 767 C > 19
417 768 C > 15
417 791 C > 2
417 792 C > 26
417 795 C > 48
417 796 C > 73
418 523 C > 48
418 524 C > 32
418 615 C > 55
418 616 C > 47
418 699 C > 9
418 700 C > 48
418 741 C > 14
418 742 C > 11
418 767 C > 4
418 768 C > 3
418 795 C > 2
418 796 C > 53
419 420 D = 238
419 591 C > 87
419 592 C > 15
419 807 C > 55
420 548 C > 23
420 587 C > 4
420 629 C > 7
421 422 D = 238
421 485 C > 2
421 486 C > 91
421 581 C > 20
421 582 C > 62
421 663 C > 25
421 664 C > 1
421 781 C > 5
421 782 C > 14
421 787 C > 23
421 788 C > 11
421 837 C > 16
421 838 C > 6
421 847 C > 6
421 848 C > 4
421 861 C > 40
421 862 C > 6
422 485 C > 30
422 486 C > 3
422 581 C > 54
422 582 C > 9
422 663 C > 78
422 664 C > 4
422 781 C > 1
422 782 C > 42
422 837 C > 32
422 838 C > 18
422 845 C > 15
422 846 C > 35
422 847 C > 46
422 848 C > 50
422 861 C > 11
422 862 C > 12
423 424 D = 238
423 458 C > 3
423 687 C > 4
423 733 C > 9
423 901 C > 13
423 902 C > 14
424 688 C > 8
424 703 C > 106
424 704 C > 31
424 883 C > 9
425 426 D = 238
425 451 C > 12
425 495 C > 24
425 496 C > 138
425 589 C > 12
425 753 C > 28
426 493 C > 3
426 494 C > 1
426 590 C > 38
427 428 D = 238
427 501 C > 2
427 502 C > 11
427 507 C > 42
427 574 C > 4
428 430 C > 56
428 445 C > 5
428 461 C > 22
428 462 C > 5
428 463 C > 24
428 464 C > 52
428 507 C > 49
428 574 C > 98
429 430 D = 238
430 445 C > 15
430 529 C > 10
430 530 C > 7
431 432 D = 238
432 585 C > 85
433 434 D = 238
433 485 C > 43
433 486 C > 12
433 488 C > 7
433 522 C > 16
433 700 C > 49
434 487 C > 29
434 699 C > 42
434 700 C > 5
435 436 D = 238
435 605 C > 10
435 873 C > 31
435 899 C > 12
436 843 C > 13
436 849 C > 107
436 850 C > 23
436 899 C > 42
437 438 D = 238
437 571 C > 8
437 572 C > 23
437 636 C > 54
437 827 C > 15
437 828 C > 13
437 892 C > 11
438 605 C > 16
438 606 C > 7
438 654 C > 57
438 802 C > 13
438 891 C > 23
438 892 C > 9
439 440 D = 238
439 459 C > 13
439 460 C > 48
440 545 C > 11
440 763 C > 17
440 785 C > 55
440 786 C > 3
441 442 D = 238
441 549 C > 26
441 550 C > 36
441 575 C > 10
441 576 C > 1
441 715 C > 8
441 716 C > 54
441 745 C > 16
441 746 C > 9
441 815 C > 23
441 816 C > 68
441 825 C > 9
441 826 C > 37
441 865 C > 3
441 866 C > 35
441 879 C > 1
441 880 C > 55
442 549 C > 7
442 550 C > 1
442 575 C > 8
442 576 C > 10
442 715 C > 13
442 716 C > 9
442 745 C > 71
442 746 C > 22
442 815 C > 13
442 816 C > 13
442 865 C > 6
442 866 C > 3
442 879 C > 12
442 880 C > 2
443 444 D = 238
443 555 C > 10
443 567 C > 11
443 568 C > 3
443 701 C > 25
444 705 C > 40
444 706 C > 18
444 859 C > 22
445 446 D = 238
445 463 C > 2
445 517 C > 42
445 518 C > 2
445 574 C > 7
446 464 C > 13
446 475 C > 41
446 476 C > 13
446 508 C > 12
447 448 D = 238
447 473 C > 13
447 474 C > 11
447 898 C > 12
448 474 C > 8
448 537 C > 4
448 633 C > 46
449 450 D = 238
449 479 C > 3
449 480 C > 19
450 481 C > 1
450 891 C > 50
450 892 C > 14
451 452 D = 238
451 535 C > 14
451 536 C > 12
451 590 C > 1
451 871 C > 2
452 676 C > 43
452 753 C > 9
452 883 C > 9
452 884 C > 32
453 454 D = 238
453 465 C > 4
453 466 C > 36
453 467 C > 12
454 626 C > 6
455 456 D = 238
455 717 C > 5
455 733 C > 56
455 734 C > 56
456 507 C > 73
456 508 C > 2
456 513 C > 12
456 526 C > 56
457 458 D = 238
457 537 C > 4
457 538 C > 6
457 688 C > 54
457 734 C > 20
457 883 C > 29
459 460 D = 238
459 591 C > 4
459 592 C > 11
459 595 C > 14
460 596 C > 12
460 619 C > 9
460 620 C > 80
461 462 D = 238
462 641 C > 6
462 642 C > 79
463 464 D = 238
463 508 C > 9
463 697 C > 46
463 698 C > 44
465 466 D = 238
465 577 C > 63
465 651 C > 47
466 578 C > 41
466 651 C > 4
467 468 D = 238
468 478 C > 30
469 470 D = 238
470 612 C > 24
471 472 D = 238
471 570 C > 29
471 603 C > 19
471 604 C > 5
471 637 C > 14
472 570 C > 2
472 629 C > 38
472 630 C > 8
472 852 C > 11
473 474 D = 238
473 634 C > 39
473 898 C > 30
474 634 C > 37
474 901 C > 5
474 902 C > 14
475 476 D = 238
475 483 C > 1
475 624 C > 29
475 906 C > 30
476 624 C > 7
476 724 C > 1
477 478 D = 238
478 626 C > 15
479 480 D = 238
480 653 C > 1
480 654 C > 3
481 482 D = 238
481 561 C > 3
481 562 C > 27
481 565 C > 101
482 566 C > 23
482 575 C > 42
482 576 C > 3
483 484 D = 238
483 593 C > 35
483 594 C > 87
485 486 D = 238
485 581 C > 13
485 582 C > 53
485 663 C > 4
485 664 C > 6
485 781 C > 5
485 782 C > 37
485 837 C > 18
485 838 C > 18
485 845 C > 13
485 846 C > 8
485 847 C > 7
485 848 C > 3
485 861 C > 37
485 862 C > 54
486 581 C > 9
486 582 C > 6
486 663 C > 2
486 664 C > 40
486 781 C > 53
486 782 C > 39
486 837 C > 5
486 838 C > 37
486 847 C > 67
486 848 C > 16
486 861 C > 24
486 862 C > 19
487 488 D = 238
488 521 C > 8
488 522 C > 22
489 490 D = 238
489 543 C > 3
489 764 C > 54
489 817 C > 20
489 818 C > 38
490 764 C > 13
491 492 D = 238
491 655 C > 9
491 656 C > 15
491 681 C > 55
491 682 C > 50
491 687 C > 23
491 688 C > 98
491 739 C > 1
491 740 C > 4
491 777 C > 26
491 778 C > 25
491 845 C > 13
491 846 C > 56
491 881 C > 53
491 882 C > 32
492 655 C > 8
492 656 C > 8
492 681 C > 9
492 682 C > 12
492 739 C > 18
492 740 C > 43
492 777 C > 3
492 778 C > 52
492 843 C > 27
492 844 C > 47
492 845 C > 16
492 846 C > 1
492 881 C > 42
492 882 C > 72
493 494 D = 238
493 501 C > 17
493 502 C > 17
493 511 C > 10
493 512 C > 16
493 667 C > 14
493 668 C > 47
493 769 C > 8
493 770 C > 22
493 835 C > 26
493 836 C > 34
494 511 C > 23
494 512 C > 3
494 577 C > 10
494 578 C > 21
494 667 C > 24
494 668 C > 9
494 769 C > 3
494 770 C > 46
494 835 C > 16
494 836 C > 17
495 496 D = 238
495 541 C > 13
495 542 C > 35
495 567 C > 12
495 568 C > 79
495 665 C > 1
495 666 C > 102
495 757 C > 27
495 758 C > 13
496 541 C > 17
496 542 C > 5
496 567 C > 26
496 568 C > 21
496 665 C > 15
496 666 C > 24
496 757 C > 43
496 758 C > 56
497 498 D = 238
497 628 C > 2
497 714 C > 40
497 865 C > 126
497 866 C > 1
498 671 C > 7
498 711 C > 10
498 712 C > 45
498 828 C > 56
499 500 D = 238
499 539 C > 7
499 540 C > 25
499 607 C > 4
499 608 C > 44
499 665 C > 8
499 666 C > 14
499 719 C > 30
499 720 C > 2
499 759 C > 42
499 760 C > 41
500 539 C > 133
500 540 C > 1
500 607 C > 8
500 608 C > 18
500 719 C > 24
500 720 C > 15
500 759 C > 23
500 760 C > 2
501 502 D = 238
501 557 C > 1
501 558 C > 7
501 685 C > 24
501 686 C > 46
501 785 C > 22
501 786 C > 6
501 797 C > 9
501 798 C > 1
501 803 C > 2
501 804 C > 3
501 817 C > 35
501 818 C > 29
502 557 C > 31
502 558 C > 7
502 685 C > 5
502 686 C > 2
502 785 C > 46
502 786 C > 5
502 797 C > 56
502 798 C > 23
502 803 C > 12
502 804 C > 4
502 817 C > 10
502 818 C > 56
503 504 D = 238
503 718 C > 1
504 615 C > 27
504 616 C > 5
504 659 C > 23
504 660 C > 9
504 820 C > 45
505 506 D = 238
505 657 C > 23
505 658 C > 5
505 743 C > 18
505 744 C > 34
505 781 C > 39
505 782 C > 12
505 799 C > 24
505 800 C > 30
505 811 C > 48
505 812 C > 6
505 849 C > 34
505 850 C > 38
505 869 C > 43
505 870 C > 53
505 893 C > 33
505 894 C > 3
506 657 C > 6
506 658 C > 13
506 743 C > 51
506 744 C > 7
506 799 C > 3
506 800 C > 56
506 811 C > 3
506 812 C > 1
506 849 C > 56
506 850 C > 12
506 869 C > 46
506 870 C > 16
506 893 C > 9
506 894 C > 9
506 899 C > 17
506 900 C > 30
507 508 D = 238
507 755 C > 7
507 756 C > 7
508 573 C > 39
508 574 C > 17
509 510 D = 238
509 677 C > 12
509 678 C > 27
509 911 C > 2
509 912 C > 30
510 677 C > 27
510 907 C > 17
510 915 C > 34
510 916 C > 99
511 512 D = 238
511 667 C > 1
511 668 C > 7
511 769 C > 8
511 770 C > 48
511 835 C > 6
511 836 C > 48
512 667 C > 5
512 668 C > 13
512 763 C > 2
512 764 C > 7
512 769 C > 14
512 770 C > 20
512 835 C > 36
512 836 C > 23
513 514 D = 238
513 517 C > 56
513 518 C > 41
513 820 C > 1
514 659 C > 2
514 718 C > 30
515 516 D = 238
515 803 C > 6
515 804 C > 19
515 888 C > 31
516 610 C > 7
516 858 C > 32
516 865 C > 13
516 866 C > 6
516 888 C > 44
517 518 D = 238
517 520 C > 8
519 520 D = 238
520 713 C > 5
520 714 C > 18
521 522 D = 238
521 700 C > 50
523 524 D = 238
523 579 C > 7
523 580 C > 4
523 615 C > 11
523 616 C > 5
523 741 C > 26
523 742 C > 32
523 767 C > 4
523 768 C > 43
523 795 C > 43
523 796 C > 1
524 615 C > 47
524 616 C > 5
524 741 C > 18
524 742 C > 20
524 767 C > 3
524 768 C > 64
524 795 C > 25
524 796 C > 7
525 526 D = 238
525 660 C > 56
525 718 C > 5
526 717 C > 8
526 819 C > 39
526 820 C > 9
526 869 C > 6
526 870 C > 42
527 528 D = 238
527 851 C > 56
527 852 C > 11
527 856 C > 40
527 901 C > 26
527 910 C > 4
528 680 C > 3
528 855 C > 27
528 903 C > 33
528 904 C > 10
528 910 C > 36
529 530 D = 238
529 552 C > 56
529 561 C > 10
529 573 C > 35
529 574 C > 5
529 735 C > 11
530 580 C > 39
531 532 D = 238
531 670 C > 11
531 877 C > 41
531 878 C > 21
532 669 C > 43
532 788 C > 11
532 791 C > 3
532 792 C > 3
532 854 C > 56
533 534 D = 238
533 647 C > 13
533 648 C > 11
533 695 C > 74
533 696 C > 16
533 771 C > 36
533 772 C > 28
533 789 C > 4
533 790 C > 1
533 825 C > 12
533 826 C > 51
533 885 C > 35
533 886 C > 5
533 913 C > 41
533 914 C > 17
534 647 C > 9
534 648 C > 9
534 695 C > 50
534 696 C > 5
534 771 C > 46
534 772 C > 31
534 789 C > 66
534 790 C > 4
534 813 C > 3
534 814 C > 1
534 825 C > 29
534 826 C > 24
534 885 C > 3
534 886 C > 3
535 536 D = 238
535 694 C > 23
536 650 C > 11
536 693 C > 17
536 829 C > 19
537 538 D = 238
537 634 C > 30
537 685 C > 19
537 686 C > 9
537 897 C > 5
538 634 C > 104
538 807 C > 14
538 808 C > 23
538 897 C > 20
539 540 D = 238
539 607 C > 1
539 608 C > 21
539 719 C > 42
539 720 C > 31
539 759 C > 7
539 760 C > 38
540 607 C > 2
540 608 C > 2
540 719 C > 43
540 720 C > 9
540 753 C > 4
540 754 C > 10
540 759 C > 38
540 760 C > 7
541 542 D = 238
541 567 C > 13
541 568 C > 21
541 665 C > 8
541 666 C > 1
541 675 C > 8
541 676 C > 17
541 757 C > 62
541 758 C > 61
542 567 C > 5
542 568 C > 2
542 637 C > 21
542 638 C > 5
542 665 C > 3
542 666 C > 38
542 757 C > 20
542 758 C > 38
543 544 D = 238
543 546 C > 1
543 735 C > 1
543 736 C > 30
543 764 C > 45
545 546 D = 238
546 764 C > 17
547 548 D = 238
547 588 C > 30
547 629 C > 40
547 630 C > 39
547 683 C > 11
547 684 C > 14
547 725 C > 31
547 832 C > 46
548 749 C > 47
548 750 C > 45
548 832 C > 7
549 550 D = 238
549 575 C > 7
549 576 C > 35
549 715 C > 76
549 716 C > 56
549 745 C > 12
549 746 C > 1
549 815 C > 32
549 816 C > 9
549 865 C > 35
549 866 C > 22
549 879 C > 56
549 880 C > 12
550 575 C > 5
550 576 C > 5
550 715 C > 5
550 716 C > 48
550 729 C > 32
550 730 C > 33
550 745 C > 78
550 746 C > 28
550 815 C > 41
550 816 C > 48
550 865 C > 41
550 866 C > 1
550 879 C > 22
550 880 C > 44
551 552 D = 238
551 573 C > 1
551 574 C > 15
551 580 C > 15
551 692 C > 2
551 735 C > 5
551 736 C > 20
552 579 C > 16
552 691 C > 23
552 692 C > 2
553 554 D = 238
553 683 C > 12
553 684 C > 14
553 727 C > 7
553 728 C > 31
553 793 C > 7
553 794 C > 53
554 683 C > 15
554 684 C > 3
554 705 C > 24
554 706 C > 8
554 727 C > 9
554 728 C > 7
554 793 C > 21
554 794 C > 50
555 556 D = 238
556 701 C > 34
556 783 C > 10
556 784 C > 47
556 859 C > 44
556 860 C > 27
556 901 C > 2
556 902 C > 26
557 558 D = 238
557 685 C > 81
557 686 C > 1
557 785 C > 92
557 786 C > 9
557 797 C > 42
557 798 C > 36
557 803 C > 3
557 804 C > 11
557 817 C > 51
557 818 C > 45
558 685 C > 4
558 686 C > 21
558 785 C > 7
558 786 C > 64
558 797 C > 56
558 798 C > 9
558 803 C > 27
558 804 C > 47
558 807 C > 38
558 808 C > 30
558 817 C > 28
558 818 C > 13
559 560 D = 238
559 583 C > 37
559 584 C > 31
559 631 C > 9
559 632 C > 40
559 689 C > 2
559 690 C > 25
559 805 C > 4
559 806 C > 5
559 823 C > 6
559 824 C > 10
560 583 C > 6
560 584 C > 23
560 631 C > 37
560 632 C > 5
560 689 C > 6
560 690 C > 25
560 805 C > 3
560 806 C > 23
560 823 C > 37
560 824 C > 22
561 562 D = 238
561 580 C > 43
562 729 C > 13
562 730 C > 2
563 564 D = 238
563 603 C > 13
563 604 C > 11
563 697 C > 33
563 698 C > 20
563 725 C > 24
563 726 C > 1
563 729 C > 49
563 730 C > 52
563 737 C > 21
563 738 C > 2
563 813 C > 7
563 814 C > 106
563 841 C > 44
563 842 C > 48
563 877 C > 13
563 878 C > 20
564 603 C > 56
564 604 C > 17
564 697 C > 7
564 698 C > 25
564 705 C > 5
564 706 C > 30
564 729 C > 101
564 730 C > 18
564 737 C > 6
564 738 C > 53
564 813 C > 15
564 814 C > 26
564 841 C > 8
564 842 C > 40
564 877 C > 31
564 878 C > 55
565 566 D = 238
565 592 C > 55
566 795 C > 29
566 796 C > 12
567 568 D = 238
567 665 C > 13
567 666 C > 21
567 757 C > 13
567 758 C > 5
568 665 C > 56
568 666 C > 6
568 757 C > 44
568 758 C > 3
568 779 C > 6
568 780 C > 6
569 570 D = 238
569 637 C > 16
570 851 C > 50
571 572 D = 238
571 593 C > 39
571 594 C > 3
571 711 C > 47
571 712 C > 6
571 891 C > 27
572 636 C > 46
572 801 C > 47
572 802 C > 12
573 574 D = 238
574 657 C > 1
574 658 C > 9
575 576 D = 238
575 715 C > 35
575 716 C > 17
575 745 C > 71
575 746 C > 13
575 815 C > 13
575 816 C > 3
575 865 C > 22
575 866 C > 45
575 879 C > 21
575 880 C > 56
576 715 C > 28
576 716 C > 17
576 745 C > 26
576 746 C > 52
576 815 C > 52
576 816 C > 13
576 865 C > 10
576 866 C > 22
576 879 C > 17
576 880 C > 95
577 578 D = 238
578 652 C > 4
579 580 D = 238
579 692 C > 36
579 735 C > 6
579 736 C > 11
580 692 C > 2
580 793 C > 5
580 794 C > 22
581 582 D = 238
581 583 C > 30
581 584 C > 11
581 663 C > 1
581 664 C > 11
581 781 C > 10
581 782 C > 117
581 837 C > 28
581 838 C > 31
581 847 C > 42
581 848 C > 8
581 861 C > 31
581 862 C > 22
582 663 C > 126
582 664 C > 3
582 781 C > 15
582 782 C > 16
582 837 C > 10
582 838 C > 45
582 847 C > 86
582 848 C > 8
582 861 C > 23
582 862 C > 10
583 584 D = 238
583 631 C > 4
583 632 C > 6
583 689 C > 5
583 690 C > 10
583 805 C > 1
583 806 C > 4
583 823 C > 1
583 824 C > 16
584 631 C > 39
584 632 C > 13
584 689 C > 2
584 690 C > 5
584 805 C > 94
584 806 C > 6
584 823 C > 56
584 824 C > 54
585 586 D = 238
585 587 C > 12
585 588 C > 5
585 646 C > 7
586 596 C > 7
586 646 C > 28
587 588 D = 238
587 617 C > 2
587 618 C > 111
587 629 C > 26
587 630 C > 8
587 725 C > 38
587 761 C > 22
588 761 C > 3
589 590 D = 238
589 662 C > 85
589 675 C > 10
589 754 C > 26
589 871 C > 36
591 592 D = 238
592 597 C > 16
592 598 C > 4
593 594 D = 238
593 597 C > 17
593 598 C > 19
593 621 C > 15
593 622 C > 70
593 641 C > 20
593 642 C > 2
593 703 C > 1
593 704 C > 46
593 705 C > 22
593 706 C > 39
593 713 C > 30
593 714 C > 2
593 773 C > 76
593 774 C > 10
593 775 C > 30
593 776 C > 5
594 597 C > 62
594 598 C > 20
594 621 C > 13
594 622 C > 24
594 641 C > 2
594 642 C > 32
594 703 C > 1
594 704 C > 11
594 705 C > 56
594 706 C > 13
594 773 C > 17
594 774 C > 26
594 775 C > 11
594 776 C > 10
595 596 D = 238
595 645 C > 6
596 735 C > 1
596 736 C > 38
597 598 D = 238
597 621 C > 10
597 622 C > 36
597 623 C > 5
597 624 C > 35
597 641 C > 32
597 642 C > 5
597 703 C > 61
597 704 C > 54
597 705 C > 5
597 706 C > 47
597 773 C > 39
597 774 C > 5
597 775 C > 14
597 776 C > 7
598 621 C > 40
598 622 C > 2
598 641 C > 2
598 642 C > 33
598 703 C > 60
598 704 C > 6
598 705 C > 30
598 706 C > 28
598 773 C > 7
598 774 C > 42
598 775 C > 36
598 776 C > 53
599 600 D = 238
599 709 C > 26
599 710 C > 11
599 779 C > 34
599 780 C > 33
599 839 C > 9
599 840 C > 5
599 867 C > 20
599 868 C > 20
599 875 C > 47
599 876 C > 47
600 709 C > 13
600 710 C > 91
600 779 C > 38
600 780 C > 56
600 839 C > 32
600 840 C > 58
600 867 C > 53
600 868 C > 11
600 875 C > 27
600 876 C > 21
601 602 D = 238
602 883 C > 56
602 911 C > 17
602 912 C > 35
603 604 D = 238
603 697 C > 11
603 698 C > 29
603 729 C > 32
603 730 C > 34
603 737 C > 18
603 738 C > 11
603 747 C > 40
603 748 C > 132
603 813 C > 27
603 814 C > 24
603 841 C > 7
603 842 C > 3
603 877 C > 32
603 878 C > 53
604 697 C > 5
604 698 C > 10
604 729 C > 56
604 730 C > 37
604 737 C > 42
604 738 C > 56
604 813 C > 46
604 814 C > 19
604 841 C > 48
604 842 C > 14
604 877 C > 40
604 878 C > 33
605 606 D = 238
605 617 C > 43
605 618 C > 19
605 673 C > 23
605 674 C > 23
605 843 C > 81
605 844 C > 1
605 873 C > 14
605 899 C > 7
606 674 C > 44
606 841 C > 56
606 842 C > 1
607 608 D = 238
607 707 C > 23
607 708 C > 21
607 719 C > 32
607 720 C > 33
607 759 C > 28
607 760 C > 56
608 719 C > 3
608 720 C > 56
608 759 C > 56
608 760 C > 21
609 610 D = 238
609 671 C > 9
609 672 C > 8
609 731 C > 12
609 755 C > 17
609 857 C > 4
609 858 C > 10
610 857 C > 12
610 858 C > 24
610 871 C > 2
610 872 C > 100
611 612 D = 238
611 737 C > 35
611 738 C > 40
612 665 C > 14
612 666 C > 20
613 614 D = 238
613 707 C > 7
613 708 C > 40
613 747 C > 24
613 748 C > 55
613 749 C > 12
613 750 C > 94
613 809 C > 27
613 810 C > 12
613 863 C > 52
613 864 C > 6
613 889 C > 28
613 890 C > 4
614 707 C > 34
614 708 C > 3
614 717 C > 28
614 718 C > 6
614 747 C > 7
614 748 C > 32
614 749 C > 1
614 750 C > 20
614 809 C > 4
614 810 C > 54
614 863 C > 13
614 864 C > 1
614 889 C > 26
614 890 C > 14
615 616 D = 238
615 741 C > 13
615 742 C > 15
615 767 C > 23
615 768 C > 56
615 795 C > 13
615 796 C > 60
616 741 C > 40
616 742 C > 3
616 767 C > 17
616 768 C > 1
616 795 C > 25
616 796 C > 51
617 618 D = 238
617 649 C > 5
617 650 C > 2
619 620 D = 238
619 721 C > 8
619 722 C > 1
619 751 C > 4
619 752 C > 37
619 763 C > 52
619 764 C > 12
619 765 C > 32
619 766 C > 7
619 791 C > 13
619 792 C > 4
619 821 C > 76
619 822 C > 47
619 833 C > 1
619 834 C > 17
620 721 C > 85
620 722 C > 8
620 751 C > 8
620 752 C > 9
620 765 C > 35
620 766 C > 33
620 791 C > 8
620 792 C > 36
620 821 C > 23
620 822 C > 6
620 827 C > 21
620 828 C > 6
620 833 C > 7
620 834 C > 27
621 622 D = 238
621 641 C > 61
621 642 C > 8
621 651 C > 4
621 652 C > 56
621 703 C > 5
621 704 C > 138
621 705 C > 45
621 706 C > 56
621 773 C > 6
621 774 C > 11
621 775 C > 10
621 776 C > 10
622 641 C > 1
622 642 C > 40
622 703 C > 17
622 704 C > 1
622 705 C > 1
622 706 C > 54
622 733 C > 12
622 734 C > 2
622 773 C > 6
622 774 C > 10
622 775 C > 34
622 776 C > 40
623 624 D = 238
623 633 C > 15
623 634 C > 5
623 906 C > 31
624 821 C > 33
624 822 C > 13
625 626 D = 238
625 693 C > 18
625 694 C > 4
626 751 C > 10
626 752 C > 33
627 628 D = 238
627 671 C > 10
627 672 C > 8
627 828 C > 7
627 895 C > 4
627 896 C > 5
628 714 C > 4
628 896 C > 11
629 630 D = 238
629 726 C > 22
629 808 C > 9
630 727 C > 54
630 728 C > 7
630 761 C > 3
630 808 C > 16
630 832 C > 41
631 632 D = 238
631 689 C > 5
631 690 C > 24
631 805 C > 2
631 806 C > 28
631 823 C > 19
631 824 C > 6
631 845 C > 21
631 846 C > 49
632 689 C > 42
632 690 C > 2
632 805 C > 4
632 806 C > 6
632 823 C > 63
632 824 C > 10
633 634 D = 238
633 898 C > 109
635 636 D = 238
635 712 C > 3
636 712 C > 4
636 801 C > 49
637 638 D = 238
638 851 C > 29
638 852 C > 10
639 640 D = 238
640 745 C > 12
640 746 C > 2
641 642 D = 238
641 703 C > 11
641 704 C > 46
641 705 C > 17
641 706 C > 5
641 773 C > 11
641 774 C > 46
641 775 C > 10
641 776 C > 18
641 817 C > 20
641 818 C > 30
642 703 C > 50
642 704 C > 7
642 705 C > 8
642 706 C > 18
642 773 C > 35
642 774 C > 34
642 775 C > 29
642 776 C > 6
643 644 D = 238
643 669 C > 2
643 751 C > 7
643 752 C > 2
643 854 C > 24
645 646 D = 238
646 777 C > 35
646 778 C > 7
647 648 D = 238
647 695 C > 42
647 696 C > 55
647 771 C > 46
647 772 C > 46
647 789 C > 13
647 790 C > 37
647 813 C > 55
647 814 C > 25
647 825 C > 25
647 826 C > 54
647 885 C > 11
647 886 C > 51
648 695 C > 84
648 696 C > 19
648 771 C > 16
648 772 C > 55
648 779 C > 39
648 780 C > 7
648 789 C > 14
648 790 C > 9
648 825 C > 13
648 826 C > 34
648 885 C > 55
648 886 C > 31
649 650 D = 238
650 731 C > 5
650 732 C > 2
650 829 C > 13
651 652 D = 238
652 717 C > 47
652 718 C > 18
653 654 D = 238
653 711 C > 8
653 802 C > 8
654 802 C > 4
654 879 C > 12
654 880 C > 16
655 656 D = 238
655 681 C > 90
655 682 C > 11
655 739 C > 4
655 740 C > 24
655 777 C > 32
655 778 C > 43
655 845 C > 4
655 846 C > 15
655 849 C > 30
655 850 C > 36
655 881 C > 66
655 882 C > 45
656 681 C > 14
656 682 C > 56
656 739 C > 47
656 740 C > 49
656 777 C > 1
656 778 C > 20
656 845 C > 13
656 846 C > 34
656 881 C > 33
656 882 C > 51
657 658 D = 238
657 743 C > 9
657 744 C > 14
657 799 C > 30
657 800 C > 15
657 811 C > 56
657 812 C > 20
657 849 C > 34
657 850 C > 6
657 869 C > 9
657 870 C > 40
657 893 C > 40
657 894 C > 45
658 743 C > 1
658 744 C > 4
658 799 C > 2
658 800 C > 24
658 809 C > 14
658 810 C > 29
658 811 C > 38
658 812 C > 56
658 849 C > 7
658 850 C > 58
658 869 C > 31
658 870 C > 39
658 893 C > 21
658 894 C > 8
659 660 D = 238
659 717 C > 40
659 718 C > 85
659 819 C > 33
660 717 C > 53
660 718 C > 1
661 662 D = 238
661 676 C > 45
661 753 C > 32
662 872 C > 18
663 664 D = 238
663 781 C > 13
663 782 C > 7
663 793 C > 19
663 794 C > 36
663 837 C > 6
663 838 C > 37
663 847 C > 56
663 848 C > 44
663 861 C > 10
663 862 C > 22
664 781 C > 22
664 782 C > 4
664 837 C > 9
664 838 C > 6
664 847 C > 34
664 848 C > 54
664 855 C > 11
664 856 C > 24
664 861 C > 21
664 862 C > 51
665 666 D = 238
665 757 C > 25
665 758 C > 2
666 757 C > 56
666 758 C > 4
667 668 D = 238
667 769 C > 23
667 770 C > 46
667 835 C > 14
667 836 C > 44
668 769 C > 48
668 770 C > 50
668 835 C > 6
668 836 C > 3
669 670 D = 238
669 863 C > 17
669 864 C > 3
671 672 D = 238
671 897 C > 13
671 898 C > 15
672 713 C > 10
672 714 C > 6
672 827 C > 55
672 828 C > 11
672 829 C > 19
672 830 C > 1
672 896 C > 10
673 674 D = 238
674 844 C > 6
674 874 C > 7
674 899 C > 10
674 901 C > 6
674 902 C > 18
674 904 C > 31
675 676 D = 238
676 754 C > 7
676 872 C > 18
677 678 D = 238
677 908 C > 14
679 680 D = 238
679 701 C > 3
679 702 C > 36
679 856 C > 51
680 905 C > 16
680 906 C > 9
681 682 D = 238
681 739 C > 4
681 740 C > 3
681 777 C > 10
681 778 C > 20
681 795 C > 67
681 796 C > 2
681 845 C > 7
681 846 C > 45
681 881 C > 37
681 882 C > 3
682 739 C > 9
682 740 C > 5
682 743 C > 2
682 744 C > 39
682 777 C > 4
682 778 C > 17
682 845 C > 22
682 846 C > 11
682 881 C > 46
682 882 C > 4
683 684 D = 238
683 727 C > 127
683 728 C > 51
683 793 C > 16
683 794 C > 56
684 727 C > 5
684 728 C > 3
684 793 C > 10
684 794 C > 19
685 686 D = 238
685 785 C > 8
685 786 C > 52
685 797 C > 2
685 798 C > 17
685 803 C > 1
685 804 C > 5
685 807 C > 4
685 808 C > 7
685 817 C > 45
685 818 C > 1
686 785 C > 34
686 786 C > 9
686 797 C > 40
686 798 C > 7
686 803 C > 16
686 804 C > 6
686 809 C > 47
686 810 C > 1
686 817 C > 13
686 818 C > 47
687 688 D = 238
687 884 C > 26
687 911 C > 32
687 912 C > 7
688 734 C > 21
688 883 C > 6
688 889 C > 1
688 890 C > 3
689 690 D = 238
689 805 C > 11
689 806 C > 32
689 823 C > 23
689 824 C > 102
690 805 C > 20
690 806 C > 28
690 823 C > 46
690 824 C > 2
691 692 D = 238
691 735 C > 36
692 735 C > 37
693 694 D = 238
693 777 C > 1
693 778 C > 37
693 829 C > 41
693 830 C > 10
694 830 C > 15
695 696 D = 238
695 759 C > 22
695 760 C > 10
695 771 C > 9
695 772 C > 38
695 789 C > 19
695 790 C > 18
695 825 C > 13
695 826 C > 15
695 885 C > 45
695 886 C > 7
696 771 C > 55
696 772 C > 9
696 789 C > 48
696 790 C > 24
696 793 C > 9
696 794 C > 69
696 825 C > 51
696 826 C > 27
696 885 C > 6
696 886 C > 56
697 698 D = 238
697 729 C > 10
697 730 C > 56
697 737 C > 43
697 738 C > 8
697 813 C > 69
697 814 C > 10
697 841 C > 56
697 842 C > 15
697 855 C > 24
697 856 C > 17
697 877 C > 11
697 878 C > 1
698 729 C > 11
698 730 C > 24
698 737 C > 37
698 738 C > 54
698 813 C > 33
698 814 C > 53
698 841 C > 2
698 842 C > 44
698 877 C > 23
698 878 C > 56
699 700 D = 238
700 825 C > 50
700 826 C > 7
701 702 D = 238
701 783 C > 15
701 859 C > 29
701 903 C > 10
701 904 C > 19
702 783 C > 55
703 704 D = 238
703 705 C > 5
703 706 C > 45
703 773 C > 92
703 774 C > 21
703 775 C > 2
703 776 C > 2
704 705 C > 10
704 706 C > 2
704 753 C > 3
704 754 C > 17
704 773 C > 41
704 774 C > 47
704 775 C > 35
704 776 C > 6
705 706 D = 238
705 773 C > 19
705 774 C > 85
705 775 C > 15
705 776 C > 39
706 773 C > 16
706 774 C > 27
706 775 C > 3
706 776 C > 20
707 708 D = 238
707 747 C > 35
707 748 C > 21
707 749 C > 13
707 750 C > 35
707 809 C > 71
707 810 C > 54
707 863 C > 4
707 864 C > 12
707 877 C > 28
707 878 C > 5
707 889 C > 17
707 890 C > 50
708 747 C > 7
708 748 C > 1
708 749 C > 8
708 750 C > 30
708 809 C > 46
708 810 C > 9
708 863 C > 60
708 864 C > 6
708 889 C > 4
708 890 C > 17
709 710 D = 238
709 779 C > 2
709 780 C > 55
709 839 C > 19
709 840 C > 55
709 867 C > 105
709 868 C > 17
709 875 C > 11
709 876 C > 1
710 779 C > 16
710 780 C > 7
710 839 C > 39
710 840 C > 8
710 867 C > 11
710 868 C > 39
710 875 C > 27
710 876 C > 12
710 895 C > 11
710 896 C > 50
711 712 D = 238
711 801 C > 33
711 802 C > 3
711 892 C > 74
711 911 C > 9
711 912 C > 18
713 714 D = 238
713 896 C > 11
713 905 C > 8
713 906 C > 34
714 827 C > 14
714 907 C > 9
714 908 C > 2
715 716 D = 238
715 745 C > 3
715 746 C > 2
715 815 C > 18
715 816 C > 15
715 835 C > 13
715 836 C > 12
715 865 C > 9
715 866 C > 12
715 879 C > 10
715 880 C > 46
716 745 C > 17
716 746 C > 1
716 815 C > 16
716 816 C > 9
716 865 C > 48
716 866 C > 48
716 879 C > 21
716 880 C > 47
717 718 D = 238
717 820 C > 44
718 889 C > 23
718 890 C > 50
719 720 D = 238
719 759 C > 50
719 760 C > 2
720 759 C > 3
720 760 C > 6
721 722 D = 238
721 749 C > 1
721 750 C > 114
721 751 C > 12
721 752 C > 56
721 765 C > 21
721 766 C > 56
721 791 C > 3
721 792 C > 6
721 821 C > 9
721 822 C > 21
721 833 C > 13
721 834 C > 49
722 751 C > 46
722 752 C > 54
722 765 C > 7
722 766 C > 24
722 791 C > 31
722 792 C > 9
722 821 C > 2
722 822 C > 16
722 833 C > 77
722 834 C > 3
723 724 D = 238
723 751 C > 29
723 752 C > 6
725 726 D = 238
725 761 C > 4
725 832 C > 1
725 881 C > 30
725 882 C > 55
726 817 C > 6
726 818 C > 1
726 831 C > 46
727 728 D = 238
727 793 C > 6
727 794 C > 14
728 793 C > 61
728 794 C > 45
728 799 C > 39
728 800 C > 1
729 730 D = 238
729 735 C > 10
729 736 C > 7
729 737 C > 5
729 738 C > 6
729 813 C > 27
729 814 C > 12
729 841 C > 4
729 842 C > 9
729 877 C > 17
729 878 C > 35
730 737 C > 5
730 738 C > 9
730 813 C > 3
730 814 C > 17
730 819 C > 16
730 820 C > 55
730 841 C > 23
730 842 C > 2
730 877 C > 11
730 878 C > 29
731 732 D = 238
731 756 C > 51
732 888 C > 9
733 734 D = 238
733 849 C > 2
733 850 C > 47
733 884 C > 33
735 736 D = 238
736 773 C > 8
736 774 C > 34
737 738 D = 238
737 813 C > 10
737 814 C > 117
737 841 C > 13
737 842 C > 2
737 877 C > 6
737 878 C > 51
738 813 C > 7
738 814 C > 10
738 841 C > 3
738 842 C > 4
738 877 C > 31
738 878 C > 6
739 740 D = 238
739 777 C > 3
739 778 C > 10
739 845 C > 6
739 846 C > 22
739 881 C > 15
739 882 C > 6
740 777 C > 25
740 778 C > 13
740 845 C > 5
740 846 C > 3
740 881 C > 15
740 882 C > 32
740 905 C > 70
740 906 C > 13
741 742 D = 238
741 767 C > 7
741 768 C > 4
741 795 C > 55
741 796 C > 49
742 767 C > 21
742 768 C > 3
742 795 C > 49
742 796 C > 6
743 744 D = 238
743 799 C > 103
743 800 C > 10
743 811 C > 1
743 812 C > 30
743 829 C > 4
743 830 C > 22
743 849 C > 56
743 850 C > 15
743 869 C > 20
743 870 C > 2
743 893 C > 55
743 894 C > 8
744 799 C > 47
744 800 C > 19
744 807 C > 37
744 808 C > 8
744 811 C > 81
744 812 C > 46
744 849 C > 1
744 850 C > 31
744 869 C > 2
744 870 C > 15
744 893 C > 24
744 894 C > 4
745 746 D = 238
745 815 C > 12
745 816 C > 55
745 865 C > 11
745 866 C > 55
745 879 C > 108
745 880 C > 37
746 815 C > 2
746 816 C > 2
746 865 C > 40
746 866 C > 22
746 879 C > 3
746 880 C > 52
746 911 C > 3
746 912 C > 3
747 748 D = 238
747 749 C > 6
747 750 C > 17
747 789 C > 5
747 790 C > 29
747 809 C > 26
747 810 C > 5
747 863 C > 23
747 864 C > 42
747 889 C > 8
747 890 C > 4
748 749 C > 11
748 750 C > 1
748 809 C > 13
748 810 C > 5
748 831 C > 26
748 832 C > 29
748 863 C > 1
748 864 C > 9
748 889 C > 6
748 890 C > 35
749 750 D = 238
749 809 C > 1
749 810 C > 38
749 863 C > 49
749 864 C > 42
749 889 C > 35
749 890 C > 56
750 809 C > 3
750 810 C > 10
750 845 C > 56
750 846 C > 18
750 863 C > 51
750 864 C > 43
750 889 C > 21
750 890 C > 22
751 752 D = 238
751 765 C > 6
751 766 C > 21
751 791 C > 5
751 792 C > 10
751 821 C > 1
751 822 C > 14
751 833 C > 54
751 834 C > 5
752 765 C > 5
752 766 C > 9
752 791 C > 1
752 792 C > 12
752 819 C > 40
752 820 C > 56
752 821 C > 3
752 822 C > 9
752 833 C > 10
752 834 C > 10
753 754 D = 238
753 849 C > 16
753 850 C > 4
755 756 D = 238
755 877 C > 2
755 878 C > 9
755 887 C > 22
755 888 C > 48
756 857 C > 23
756 869 C > 53
756 870 C > 12
756 887 C > 9
756 888 C > 19
757 758 D = 238
757 809 C > 112
757 810 C > 39
758 913 C > 32
758 914 C > 46
759 760 D = 238
760 837 C > 7
760 838 C > 30
761 762 D = 238
761 832 C > 2
763 764 D = 238
764 821 C > 6
764 822 C > 17
765 766 D = 238
765 773 C > 40
765 774 C > 1
765 791 C > 4
765 792 C > 27
765 821 C > 7
765 822 C > 16
765 833 C > 10
765 834 C > 1
766 791 C > 63
766 792 C > 7
766 793 C > 23
766 794 C > 10
766 821 C > 12
766 822 C > 2
766 833 C > 24
766 834 C > 4
767 768 D = 238
767 795 C > 48
767 796 C > 46
767 837 C > 8
767 838 C > 8
768 795 C > 4
768 796 C > 30
769 770 D = 238
769 835 C > 15
769 836 C > 9
770 835 C > 31
770 836 C > 3
771 772 D = 238
771 789 C > 12
771 790 C > 38
771 825 C > 52
771 826 C > 8
771 885 C > 23
771 886 C > 18
772 789 C > 5
772 790 C > 9
772 825 C > 4
772 826 C > 41
772 885 C > 9
772 886 C > 20
773 774 D = 238
773 775 C > 36
773 776 C > 14
774 775 C > 80
774 776 C > 52
775 776 D = 238
776 899 C > 22
776 900 C > 54
777 778 D = 238
777 845 C > 28
777 846 C > 8
777 881 C > 48
777 882 C > 26
778 845 C > 12
778 846 C > 56
778 881 C > 6
778 882 C > 49
779 780 D = 238
779 839 C > 5
779 840 C > 57
779 867 C > 1
779 868 C > 12
779 875 C > 14
779 876 C > 56
780 839 C > 19
780 840 C > 6
780 867 C > 9
780 868 C > 1
780 875 C > 50
780 876 C > 13
781 782 D = 238
781 837 C > 6
781 838 C > 35
781 847 C > 56
781 848 C > 53
781 861 C > 10
781 862 C > 8
781 869 C > 17
781 870 C > 5
782 837 C > 29
782 838 C > 10
782 847 C > 22
782 848 C > 1
782 861 C > 30
782 862 C > 14
783 784 D = 238
783 859 C > 10
783 860 C > 20
784 860 C > 13
785 786 D = 238
785 797 C > 2
785 798 C > 16
785 803 C > 37
785 804 C > 17
785 817 C > 26
785 818 C > 7
786 797 C > 2
786 798 C > 3
786 803 C > 1
786 804 C > 4
786 809 C > 33
786 810 C > 9
786 817 C > 1
786 818 C > 41
787 788 D = 238
787 853 C > 15
788 853 C > 50
788 854 C > 20
789 790 D = 238
789 819 C > 6
789 820 C > 43
789 825 C > 55
789 826 C > 18
789 885 C > 21
789 886 C > 9
790 825 C > 47
790 826 C > 6
790 885 C > 24
790 886 C > 19
791 792 D = 238
791 821 C > 45
791 822 C > 56
791 833 C > 110
791 834 C > 28
792 821 C > 5
792 822 C > 31
792 829 C > 42
792 830 C > 10
792 833 C > 3
792 834 C > 1
793 794 D = 238
793 803 C > 12
793 804 C > 1
794 855 C > 9
794 856 C > 36
795 796 D = 238
796 863 C > 44
796 864 C > 13
797 798 D = 238
797 799 C > 27
797 800 C > 12
797 803 C > 10
797 804 C > 51
797 817 C > 45
797 818 C > 26
798 803 C > 4
798 804 C > 2
798 817 C > 32
798 818 C > 35
799 800 D = 238
799 801 C > 12
799 802 C > 18
799 811 C > 4
799 812 C > 37
799 849 C > 11
799 850 C > 33
799 869 C > 13
799 870 C > 12
799 893 C > 5
799 894 C > 8
800 811 C > 20
800 812 C > 1
800 825 C > 7
800 826 C > 5
800 849 C > 40
800 850 C > 7
800 869 C > 12
800 870 C > 41
800 893 C > 55
800 894 C > 3
801 802 D = 238
802 893 C > 23
802 894 C > 28
803 804 D = 238
803 817 C > 6
803 818 C > 16
803 909 C > 33
803 910 C > 85
804 817 C > 6
804 818 C > 18
805 806 D = 238
805 823 C > 24
805 824 C > 11
806 823 C > 1
806 824 C > 46
807 808 D = 238
808 831 C > 31
809 810 D = 238
809 863 C > 56
809 864 C > 1
809 889 C > 30
809 890 C > 5
809 911 C > 33
809 912 C > 19
810 863 C > 29
810 864 C > 34
810 889 C > 51
810 890 C > 31
810 895 C > 32
810 896 C > 5
811 812 D = 238
811 849 C > 12
811 850 C > 6
811 869 C > 3
811 870 C > 6
811 893 C > 53
811 894 C > 8
812 849 C > 23
812 850 C > 6
812 869 C > 28
812 870 C > 55
812 893 C > 21
812 894 C > 56
812 909 C > 6
812 910 C > 2
813 814 D = 238
813 841 C > 12
813 842 C > 2
813 877 C > 56
813 878 C > 44
814 841 C > 9
814 842 C > 56
814 875 C > 23
814 876 C > 51
814 877 C > 48
814 878 C > 45
815 816 D = 238
815 865 C > 45
815 866 C > 8
815 879 C > 45
815 880 C > 28
816 865 C > 3
816 866 C > 103
816 879 C > 11
816 880 C > 32
817 818 D = 238
818 863 C > 11
818 864 C > 33
819 820 D = 238
820 913 C > 1
820 914 C > 34
821 822 D = 238
821 833 C > 7
821 834 C > 30
822 833 C > 31
822 834 C > 33
823 824 D = 238
824 845 C > 31
824 846 C > 10
825 826 D = 238
825 885 C > 23
825 886 C > 56
826 885 C > 56
826 886 C > 25
827 828 D = 238
829 830 D = 238
830 863 C > 4
830 864 C > 53
831 832 D = 238
832 855 C > 16
832 856 C > 16
833 834 D = 238
833 913 C > 8
833 914 C > 20
834 863 C > 8
834 864 C > 12
835 836 D = 238
836 899 C > 13
836 900 C > 26
837 838 D = 238
837 847 C > 25
837 848 C > 7
837 861 C > 5
837 862 C > 28
838 847 C > 41
838 848 C > 2
838 861 C > 10
838 862 C > 56
839 840 D = 238
839 867 C > 7
839 868 C > 1
839 875 C > 8
839 876 C > 17
840 867 C > 30
840 868 C > 6
840 875 C > 1
840 876 C > 23
841 842 D = 238
841 877 C > 11
841 878 C > 6
841 887 C > 26
841 888 C > 7
842 877 C > 1
842 878 C > 19
843 844 D = 238
843 899 C > 11
843 900 C > 52
843 901 C > 1
843 902 C > 2
844 874 C > 12
844 901 C > 20
844 902 C > 9
844 904 C > 7
845 846 D = 238
845 881 C > 54
845 882 C > 31
846 881 C > 48
846 882 C > 4
846 911 C > 37
846 912 C > 40
847 848 D = 238
847 861 C > 54
847 862 C > 1
848 861 C > 48
848 862 C > 8
849 850 D = 238
849 869 C > 42
849 870 C > 12
849 893 C > 24
849 894 C > 44
850 869 C > 19
850 870 C > 29
850 893 C > 39
850 894 C > 46
851 852 D = 238
852 867 C > 9
852 868 C > 42
853 854 D = 238
853 899 C > 44
853 900 C > 56
854 913 C > 55
854 914 C > 15
855 856 D = 238
855 901 C > 47
855 909 C > 9
855 910 C > 52
855 915 C > 7
855 916 C > 5
856 901 C > 16
857 858 D = 238
859 860 D = 238
860 913 C > 36
860 914 C > 5
861 862 D = 238
862 899 C > 3
862 900 C > 7
863 864 D = 238
863 889 C > 30
863 890 C > 5
864 889 C > 53
864 890 C > 7
865 866 D = 238
865 879 C > 1
865 880 C > 56
866 879 C > 80
866 880 C > 26
867 868 D = 238
867 875 C > 32
867 876 C > 14
868 875 C > 29
868 876 C > 55
868 877 C > 2
868 878 C > 6
869 870 D = 238
869 893 C > 39
869 894 C > 1
870 893 C > 18
870 894 C > 37
870 909 C > 3
870 910 C > 40
871 872 D = 238
872 899 C > 16
872 900 C > 53
873 874 D = 238
874 900 C > 12
874 901 C > 6
874 902 C > 5
875 876 D = 238
876 899 C > 2
876 900 C > 21
877 878 D = 238
878 899 C > 23
878 900 C > 37
879 880 D = 238
880 913 C > 4
880 914 C > 16
881 882 D = 238
882 899 C > 23
882 900 C > 41
883 884 D = 238
884 913 C > 40
884 914 C > 11
885 886 D = 238
885 913 C > 29
885 914 C > 7
886 899 C > 41
886 900 C > 45
887 888 D = 238
888 913 C > 56
888 914 C > 17
889 890 D = 238
890 913 C > 8
890 914 C > 21
891 892 D = 238
891 901 C > 32
891 902 C > 20
892 913 C > 1
892 914 C > 56
893 894 D = 238
893 913 C > 20
893 914 C > 15
894 913 C > 52
894 914 C > 31
895 896 D = 238
896 913 C > 9
896 914 C > 47
897 898 D = 238
898 913 C > 14
898 914 C > 11
899 900 D = 238
901 902 D = 238
901 909 C > 7
901 911 C > 4
901 912 C > 10
903 904 D = 238
904 913 C > 29
904 914 C > 22
905 906 D = 238
906 913 C > 16
906 914 C > 10
907 908 D = 238
908 913 C > 43
908 914 C > 39
909 910 D = 238
910 913 C > 18
910 914 C > 7
911 912 D = 238
912 913 C > 3
912 914 C > 100
913 914 D = 238
913 915 C > 21
913 916 C > 30
914 915 C > 8
914 916 C > 56
915 916 D = 238
