  1   2 D = 238 0
  1  19 C >  95 1
  1  20 C > 124 4
  1  37 C > 216 1
  1  38 C > 199 1
  1  49 C > 388 4
  1  50 C > 446 2
  1  53 C > 141 4
  1  54 C > 114 4
  1 103 C >  53 4
  1 104 C > 293 2
  1 145 C > 138 4
  1 146 C > 270 1
  2  37 C > 277 1
  2  50 C > 355 4
  2  77 C > 137 3
  2  78 C >  93 3
  2 104 C >  50 1
  3   4 D = 238 0
  3  21 C >  23 4
  3  22 C > 262 4
  3 158 C > 173 3
  3 278 C > 235 3
  3 533 C > 126 1
  3 907 C > 157 4
  3 908 C > 145 4
  4  61 C > 286 4
  4 113 C > 172 2
  4 114 C > 299 1
  4 135 C > 354 2
  4 157 C > 192 4
  4 158 C > 170 2
  4 277 C > 127 4
  4 278 C > 145 2
  4 534 C > 267 3
  5   6 D = 238 0
  5 353 C > 201 1
  5 354 C > 152 1
  5 569 C > 533 3
  5 570 C > 144 3
  5 663 C >  68 2
  5 664 C > 260 3
  5 755 C > 360 1
  5 756 C > 305 1
  5 803 C > 231 4
  5 804 C > 234 4
  5 841 C > 166 3
  5 842 C > 263 3
  5 857 C > 151 2
  5 858 C > 214 2
  6 353 C > 143 2
  6 354 C > 183 1
  6 569 C > 129 4
  6 570 C > 196 1
  6 663 C > 166 3
  6 664 C >  65 1
  6 735 C > 289 1
  6 736 C > 201 1
  6 755 C > 447 1
  6 756 C > 515 1
  6 803 C > 522 4
  6 804 C > 284 3
  6 841 C > 507 3
  6 842 C > 270 4
  7   8 D = 238 0
  7 361 C > 242 2
  7 362 C > 223 2
  7 443 C > 531 1
  7 444 C > 229 1
  7 607 C > 102 4
  7 608 C > 209 4
  7 651 C >  53 2
  7 652 C > 288 4
  7 763 C >  67 4
  7 764 C > 162 3
  7 781 C >  50 2
  7 782 C > 181 4
  7 799 C >  67 4
  7 800 C > 165 3
  8 361 C > 257 2
  8 362 C > 225 1
  8 373 C > 267 1
  8 374 C > 113 2
  8 443 C > 103 1
  8 444 C > 186 1
  8 607 C > 258 1
  8 608 C > 214 4
  8 651 C > 176 2
  8 652 C >  54 2
  8 781 C > 293 3
  8 782 C >  55 4
  8 799 C > 168 4
  8 800 C >  65 3
  9  10 D = 238 0
  9  87 C > 270 1
  9  88 C > 189 2
  9 915 C >  53 4
  9 916 C > 290 4
 10  87 C > 264 2
 10  88 C > 187 2
 10 915 C > 181 3
 10 916 C >  50 3
 11  12 D = 238 0
 11 167 C > 286 1
 11 168 C > 252 3
 11 269 C > 240 4
 11 270 C > 118 3
 11 279 C > 291 3
 11 291 C >   9 1
 12 167 C > 266 1
 12 255 C > 146 3
 12 256 C > 155 2
 12 279 C > 251 4
 12 280 C >  71 4
 12 347 C > 253 4
 13  14 D = 238 0
 13 509 C >  40 1
 13 525 C >  54 3
 13 526 C > 181 3
 13 537 C >  24 3
 13 538 C > 265 1
 13 606 C > 291 4
 13 843 C > 175 4
 13 844 C > 351 3
 14 303 C > 145 4
 14 304 C > 183 2
 14 479 C > 296 4
 14 480 C >  61 1
 14 537 C > 205 1
 14 844 C > 113 3
 15  16 D = 238 0
 15  75 C >  11 4
 15  76 C > 220 1
 15 123 C > 233 3
 15 385 C >  13 2
 15 594 C > 263 4
 16  90 C >   9 3
 16 107 C > 110 2
 16 108 C > 122 3
 16 386 C >   8 4
 16 413 C > 104 3
 16 414 C > 198 1
 17  18 D = 238 0
 17  31 C > 299 1
 17  32 C > 180 2
 17 137 C >  41 1
 17 139 C >  10 2
 17 140 C > 222 4
 17 147 C > 253 4
 17 191 C >  27 4
 17 290 C > 150 2
 17 305 C > 106 4
 17 306 C > 205 3
 18 137 C > 279 3
 18 147 C > 449 1
 18 148 C > 213 2
 18 159 C > 176 4
 18 160 C >  52 3
 18 289 C > 126 2
 18 290 C >  78 1
 18 306 C >  87 2
 19  20 D = 238 0
 19  24 C > 132 3
 19  36 C > 247 2
 19  39 C >  23 2
 19  40 C > 204 2
 19  43 C > 247 4
 19  44 C > 217 3
 19  52 C > 167 2
 19 101 C >  94 1
 19 102 C > 139 3
 19 900 C > 276 4
 20  23 C > 187 1
 20  44 C > 129 3
 20  49 C > 219 2
 20  50 C > 199 4
 20 101 C > 156 2
 20 899 C > 191 1
 21  22 D = 238 0
 21 107 C > 106 3
 21 118 C > 382 2
 21 123 C > 180 3
 21 124 C > 154 2
 21 127 C >  24 2
 21 268 C > 190 4
 21 302 C > 182 2
 21 366 C > 508 4
 22 118 C > 145 4
 22 301 C > 257 2
 22 365 C > 125 1
 23  24 D = 238 0
 23  44 C > 283 3
 23  51 C >  94 3
 23  67 C >  93 1
 23  68 C > 170 2
 23 101 C > 480 1
 23 899 C > 184 3
 24  35 C > 193 2
 24  39 C > 289 2
 24  40 C > 226 2
 24  51 C > 138 3
 24  52 C >  95 4
 24 101 C > 519 1
 25  26 D = 238 0
 25  79 C > 142 2
 25  80 C > 215 1
 25 129 C >  36 1
 25 169 C >  25 1
 25 170 C > 265 3
 25 883 C >  95 4
 25 884 C > 215 4
 25 913 C >  51 4
 25 914 C > 180 2
 26  79 C > 195 3
 26 169 C > 204 4
 26 251 C > 206 1
 26 252 C >  26 4
 26 263 C > 213 3
 26 264 C > 212 3
 26 913 C > 289 2
 26 914 C >  51 2
 27  28 D = 238 0
 27 121 C > 198 3
 27 242 C > 282 2
 27 259 C >  64 4
 27 289 C >  96 3
 27 290 C > 135 1
 27 316 C > 153 1
 27 368 C > 138 4
 27 531 C >  24 3
 28 121 C > 265 4
 28 122 C > 197 4
 28 241 C > 282 2
 28 243 C > 175 4
 28 244 C > 197 3
 28 315 C > 267 4
 28 316 C >  81 3
 28 367 C > 250 2
 28 531 C > 264 2
 28 532 C >  27 1
 29  30 D = 238 0
 29 219 C > 159 1
 29 220 C > 234 2
 29 295 C > 139 3
 29 395 C > 235 4
 29 396 C > 268 1
 29 506 C > 194 3
 29 658 C > 106 1
 29 661 C > 136 3
 29 662 C > 201 2
 29 788 C > 110 1
 30 296 C > 101 4
 30 396 C >  30 2
 30 658 C >  75 4
 30 753 C > 125 2
 30 754 C > 102 4
 30 787 C > 197 4
 31  32 D = 238 0
 31 192 C > 423 3
 31 287 C > 536 4
 31 288 C > 273 3
 31 290 C > 159 2
 32 137 C > 242 2
 32 138 C > 200 1
 32 141 C > 135 1
 32 142 C >  95 2
 32 191 C > 283 2
 32 289 C > 187 3
 32 290 C > 238 2
 33  34 D = 238 0
 33  57 C > 138 1
 33  58 C > 269 3
 33 381 C >  69 4
 33 382 C > 132 2
 33 479 C > 120 2
 33 480 C > 197 3
 33 573 C >  81 4
 33 574 C > 210 4
 33 653 C > 419 1
 33 654 C > 490 2
 33 697 C >  50 1
 33 698 C > 291 2
 34  57 C > 298 2
 34  58 C > 256 3
 34 381 C > 166 2
 34 382 C >  69 3
 34 479 C > 109 2
 34 480 C > 125 3
 34 573 C > 152 4
 34 574 C >  78 1
 34 653 C > 305 1
 34 654 C > 362 3
 34 697 C > 176 3
 34 698 C >  53 4
 35  36 D = 238 0
 35  43 C > 154 3
 35  51 C > 278 4
 35 102 C > 123 3
 36  51 C > 244 2
 36  52 C >  87 2
 36 101 C > 273 3
 36 102 C > 109 2
 36 899 C > 204 1
 37  38 D = 238 0
 37  45 C >  39 2
 37  46 C > 190 2
 37  54 C > 247 2
 37 104 C > 198 4
 37 146 C > 158 4
 38  49 C > 277 4
 38  50 C >  36 3
 38 103 C > 111 2
 38 104 C > 201 4
 38 119 C > 271 2
 38 120 C >  28 3
 38 146 C > 115 1
 38 342 C > 131 2
 39  40 D = 238 0
 39 377 C >  38 2
 39 378 C > 190 4
 39 388 C > 245 2
 39 471 C > 165 3
 39 472 C > 239 4
 39 527 C > 129 1
 39 528 C > 250 1
 39 897 C > 228 3
 39 898 C > 299 3
 40  56 C >  53 4
 40 137 C > 221 2
 40 138 C > 183 3
 40 216 C >  65 4
 40 378 C >  39 4
 40 387 C > 266 3
 41  42 D = 238 0
 41  71 C > 139 2
 41  72 C > 221 3
 41 149 C >  97 4
 41 150 C > 265 4
 41 195 C > 242 2
 41 196 C > 151 2
 41 231 C > 135 2
 41 232 C > 251 2
 41 309 C > 289 1
 41 310 C > 230 4
 41 557 C > 432 1
 41 558 C > 389 2
 41 615 C > 248 4
 41 616 C > 180 1
 42  71 C > 151 4
 42  72 C > 270 1
 42 149 C > 135 4
 42 150 C >  95 3
 42 215 C > 180 3
 42 216 C > 295 4
 42 231 C >  95 1
 42 232 C > 136 4
 42 309 C > 164 2
 42 310 C > 183 4
 42 557 C > 348 1
 42 558 C > 471 2
 42 615 C > 205 1
 42 616 C > 197 3
 43  44 D = 238 0
 43  52 C > 262 1
 43 102 C > 261 2
 43 899 C > 120 1
 43 900 C > 245 4
 44  93 C > 271 1
 44  94 C >  68 2
 44 101 C > 291 3
 44 102 C > 225 3
 44 899 C > 117 1
 45  46 D = 238 0
 45  79 C >  12 1
 45  80 C > 247 1
 45 107 C > 138 4
 45 108 C > 255 3
 45 129 C > 113 2
 45 130 C > 156 4
 45 170 C > 250 1
 45 264 C > 260 3
 45 913 C > 395 1
 45 914 C > 366 2
 46  81 C > 127 3
 46  82 C > 142 4
 46 129 C > 253 3
 46 130 C > 197 2
 46 169 C > 244 2
 46 264 C >  25 2
 46 913 C > 413 1
 47  48 D = 238 0
 47 105 C > 130 1
 47 106 C > 264 2
 47 171 C >  22 1
 47 172 C > 204 1
 47 300 C > 279 1
 47 435 C > 215 2
 47 436 C > 282 3
 47 635 C >  54 4
 47 636 C > 176 4
 47 739 C > 118 1
 47 740 C > 243 2
 48 171 C > 264 2
 48 172 C >  26 4
 48 177 C > 252 2
 48 299 C > 193 1
 48 300 C >  39 2
 48 435 C > 250 3
 48 740 C > 186 4
 49  50 D = 238 0
 49  53 C >  52 3
 49  54 C > 291 4
 49  69 C > 138 2
 49  70 C > 148 2
 49 103 C > 253 2
 49 104 C > 235 3
 49 146 C > 241 2
 50 104 C > 239 2
 50 341 C > 228 3
 50 597 C > 233 3
 50 598 C > 200 3
 51  52 D = 238 0
 51  95 C > 295 1
 51  96 C > 159 2
 51 101 C > 532 3
 51 102 C > 255 2
 51 900 C > 295 2
 52 545 C > 290 1
 52 546 C >  54 4
 52 899 C > 294 3
 52 900 C >  57 4
 53  54 D = 238 0
 53 103 C > 142 3
 53 104 C > 213 2
 53 145 C > 169 3
 53 353 C >  51 4
 53 354 C > 293 1
 54 103 C > 138 2
 54 146 C > 101 4
 54 341 C > 189 4
 55  56 D = 238 0
 55  79 C > 154 1
 55  80 C > 180 4
 55 215 C >  10 4
 55 377 C >  13 2
 55 378 C > 246 4
 55 387 C > 209 1
 56 215 C > 246 3
 56 216 C >  10 4
 56 377 C > 220 3
 56 378 C >   8 3
 56 387 C > 289 1
 56 472 C > 182 2
 56 897 C > 183 1
 56 898 C > 283 3
 56 899 C > 106 3
 56 900 C > 121 1
 57  58 D = 238 0
 57 381 C > 281 2
 57 382 C > 164 1
 57 479 C > 101 3
 57 480 C > 213 2
 57 573 C > 278 1
 57 574 C > 189 2
 57 653 C >  40 4
 57 654 C > 194 3
 57 663 C >  27 4
 57 664 C > 262 3
 57 697 C > 169 2
 57 698 C > 191 1
 58 381 C > 424 1
 58 382 C > 186 3
 58 423 C > 278 3
 58 424 C >  41 2
 58 479 C > 146 3
 58 480 C > 126 4
 58 573 C > 243 2
 58 574 C > 170 3
 58 653 C > 274 3
 58 654 C >  40 3
 58 697 C > 117 4
 58 698 C > 200 1
 59  60 D = 238 0
 59 281 C > 196 2
 59 282 C > 251 3
 59 339 C > 295 3
 59 340 C > 246 2
 59 401 C > 298 2
 59 475 C >  55 1
 59 476 C > 179 1
 59 686 C > 123 4
 59 764 C > 273 4
 59 889 C >   9 3
 59 890 C > 223 3
 60 281 C > 170 4
 60 395 C > 281 4
 60 396 C >  47 4
 60 401 C > 123 4
 60 402 C > 173 1
 60 475 C > 289 3
 60 476 C >  55 4
 60 686 C > 111 4
 60 890 C >   8 2
 61  62 D = 238 0
 61 136 C >  11 3
 61 153 C > 156 3
 61 154 C > 312 2
 61 158 C > 139 1
 61 277 C >  66 4
 61 278 C > 162 3
 61 907 C > 164 2
 62 135 C > 156 4
 62 136 C > 223 3
 62 161 C > 173 2
 62 162 C > 220 4
 62 277 C > 307 2
 62 907 C > 221 2
 62 908 C > 164 4
 63  64 D = 238 0
 63 117 C > 238 2
 63 118 C > 295 2
 63 196 C > 198 4
 63 257 C > 532 4
 63 258 C > 466 2
 63 265 C >  82 1
 64 195 C > 222 2
 64 196 C > 256 2
 64 207 C > 233 2
 64 208 C > 253 1
 64 258 C > 225 1
 64 265 C > 149 4
 64 266 C >  82 4
 65  66 D = 238 0
 65  73 C > 183 2
 65  74 C > 278 1
 65 187 C > 287 4
 65 188 C > 194 1
 65 469 C >  22 3
 65 470 C > 205 2
 65 579 C >  41 1
 65 580 C > 193 1
 65 727 C >  41 2
 65 728 C > 276 3
 65 729 C > 103 2
 65 730 C > 293 1
 65 743 C > 297 3
 65 744 C > 162 3
 66 187 C > 127 1
 66 188 C > 256 1
 66 469 C > 262 4
 66 470 C >  24 2
 66 471 C > 178 3
 66 472 C >  50 3
 66 579 C > 276 2
 66 580 C >  39 1
 66 727 C > 190 2
 66 728 C >  37 4
 66 729 C > 283 1
 66 730 C > 215 1
 66 743 C > 232 3
 66 744 C >  99 3
 67  68 D = 238 0
 67 205 C >  25 1
 67 206 C > 260 4
 67 244 C > 143 1
 67 523 C >  39 2
 67 747 C > 253 3
 67 748 C > 125 2
 68 144 C >  73 3
 68 243 C > 138 1
 68 244 C > 199 1
 68 457 C > 222 2
 68 523 C > 193 2
 68 524 C >  36 1
 69  70 D = 238 0
 69 217 C > 124 3
 69 218 C > 108 3
 69 239 C >  40 4
 69 269 C > 111 4
 69 270 C > 120 2
 69 335 C > 103 3
 69 336 C > 146 1
 69 600 C > 240 3
 69 807 C >  55 3
 70 239 C > 274 2
 70 240 C >  40 2
 70 255 C > 187 3
 70 256 C >  96 3
 70 270 C > 110 2
 70 600 C >   5 3
 70 807 C > 293 2
 70 808 C >  50 4
 71  72 D = 238 0
 71  79 C > 214 3
 71  80 C > 264 2
 71 149 C > 531 2
 71 150 C > 192 2
 71 231 C > 179 4
 71 232 C > 290 2
 71 309 C >  80 1
 71 310 C > 232 3
 71 557 C >  27 2
 71 558 C > 208 1
 71 615 C >  67 3
 71 616 C > 210 1
 72 149 C > 155 4
 72 150 C > 173 2
 72 231 C > 241 4
 72 232 C > 126 2
 72 267 C > 218 3
 72 268 C >  11 2
 72 309 C > 152 3
 72 310 C >  78 3
 72 557 C > 261 3
 72 558 C >  25 2
 72 615 C > 164 2
 72 616 C >  64 1
 73  74 D = 238 0
 73  90 C > 127 2
 73 386 C > 206 3
 73 413 C >  65 1
 73 414 C > 100 3
 73 553 C > 186 4
 73 554 C > 202 4
 73 593 C > 298 2
 74  89 C > 165 4
 74  90 C > 285 2
 74 123 C > 246 1
 74 407 C > 190 2
 74 408 C >  40 3
 74 594 C > 243 1
 75  76 D = 238 0
 75 113 C > 523 3
 75 114 C > 307 4
 75 159 C > 134 2
 75 307 C >  53 3
 75 369 C > 289 1
 75 370 C > 260 4
 75 383 C >  92 4
 75 641 C > 109 1
 75 707 C > 135 4
 76 114 C > 353 4
 76 159 C >  95 4
 77  78 D = 238 0
 77 176 C > 276 2
 77 191 C > 276 4
 77 192 C > 222 4
 77 193 C > 168 4
 77 431 C > 119 4
 77 432 C > 205 4
 77 883 C >  50 3
 77 903 C > 174 1
 77 904 C > 421 4
 78 176 C >  38 4
 78 194 C > 115 4
 78 431 C > 148 4
 78 432 C > 201 3
 78 495 C > 332 4
 79  80 D = 238 0
 79 129 C > 278 3
 79 130 C > 180 3
 79 170 C > 258 3
 79 219 C > 219 3
 79 220 C > 284 3
 79 263 C >  11 1
 79 913 C > 156 3
 79 914 C > 287 3
 80 129 C > 250 2
 80 130 C > 183 2
 80 169 C > 263 3
 80 264 C >  11 3
 80 914 C > 285 2
 81  82 D = 238 0
 81  97 C >  92 2
 81 355 C > 150 1
 81 356 C >  82 2
 81 411 C > 123 3
 81 412 C > 111 4
 81 451 C > 162 2
 81 452 C > 251 1
 81 543 C > 234 3
 81 802 C > 252 2
 81 864 C > 176 1
 82  97 C > 222 2
 82 356 C > 152 4
 82 451 C > 295 3
 82 863 C > 288 4
 83  84 D = 238 0
 83 248 C > 256 1
 83 251 C >  55 3
 83 252 C > 180 2
 83 256 C > 285 2
 83 400 C >  92 1
 83 909 C > 117 4
 83 910 C > 157 4
 83 911 C > 280 4
 83 912 C > 269 4
 84 877 C > 199 2
 84 878 C > 131 2
 84 883 C > 219 4
 84 884 C >  10 4
 84 909 C > 184 1
 85  86 D = 238 0
 85 155 C >  39 4
 85 156 C > 279 1
 85 190 C > 109 4
 85 357 C > 348 1
 85 445 C >  93 2
 85 446 C > 272 2
 85 851 C > 148 3
 85 852 C > 256 4
 86 152 C > 199 4
 86 153 C > 282 4
 86 154 C > 294 4
 86 155 C > 195 4
 86 156 C >  37 4
 86 189 C >  11 4
 86 190 C > 218 2
 86 357 C > 341 3
 86 358 C > 477 4
 86 445 C > 136 1
 86 446 C >  96 3
 87  88 D = 238 0
 87 915 C > 155 3
 87 916 C > 168 4
 88 915 C > 261 2
 88 916 C > 131 2
 89  90 D = 238 0
 89 385 C >  27 2
 89 405 C > 127 4
 89 406 C > 113 4
 89 414 C > 171 3
 89 593 C >  36 4
 89 594 C > 276 3
 90 386 C >  22 2
 91  92 D = 238 0
 91 203 C > 213 2
 91 204 C > 287 2
 91 317 C >  53 3
 91 318 C > 288 3
 91 429 C > 135 3
 91 430 C > 119 4
 91 449 C > 219 1
 91 450 C > 120 1
 91 461 C > 171 1
 91 462 C > 202 4
 91 467 C > 261 4
 91 468 C > 142 4
 91 481 C > 466 1
 91 482 C > 483 2
 92 203 C > 107 4
 92 204 C > 183 3
 92 317 C > 177 3
 92 318 C >  55 4
 92 429 C >  97 2
 92 430 C > 138 4
 92 447 C > 192 1
 92 448 C >  38 3
 92 449 C >  13 4
 92 450 C > 221 2
 92 467 C > 171 1
 92 468 C > 255 1
 92 481 C > 513 2
 92 482 C > 377 2
 93  94 D = 238 0
 93 111 C > 123 3
 93 112 C > 266 4
 93 137 C >  38 3
 93 138 C > 277 2
 93 237 C >  36 2
 93 238 C > 274 3
 93 501 C > 110 3
 94 111 C > 110 1
 94 323 C > 447 4
 94 324 C > 442 4
 94 501 C > 156 3
 94 502 C > 196 2
 94 857 C > 176 3
 94 885 C > 180 2
 94 886 C > 227 1
 95  96 D = 238 0
 95 349 C > 286 2
 95 350 C > 139 4
 95 515 C >  68 2
 95 516 C > 163 2
 95 647 C > 231 4
 95 648 C > 133 3
 95 723 C >  39 1
 95 724 C > 190 3
 95 811 C >  10 3
 95 812 C > 223 4
 95 837 C > 535 4
 95 838 C > 122 4
 96 349 C > 292 2
 96 350 C > 211 2
 96 515 C > 255 2
 96 516 C >  67 2
 96 647 C > 110 1
 96 648 C > 226 3
 96 723 C > 274 3
 96 724 C >  37 1
 96 811 C > 248 3
 96 812 C >   9 3
 96 827 C > 365 2
 96 828 C > 129 1
 96 837 C > 254 1
 96 838 C > 172 4
 97  98 D = 238 0
 97 451 C > 284 3
 97 543 C > 166 1
 97 544 C > 282 3
 97 769 C > 101 4
 97 770 C > 172 4
 97 801 C > 102 4
 97 863 C >  41 2
 97 864 C > 274 1
 98 355 C > 293 2
 98 356 C >  51 1
 98 452 C > 238 2
 98 493 C > 130 2
 98 494 C > 241 2
 98 543 C > 147 3
 98 864 C >  36 3
 99 100 D = 238 0
 99 322 C > 121 4
 99 774 C > 133 1
 99 794 C > 152 3
 99 841 C >  82 2
 99 842 C > 149 4
100 321 C > 213 3
100 322 C > 106 4
100 519 C > 192 4
100 535 C > 180 4
100 536 C > 182 4
100 699 C > 138 3
100 773 C > 336 4
100 793 C > 209 3
101 102 D = 238 0
101 900 C > 102 2
103 104 D = 238 0
103 135 C >  53 2
103 136 C > 180 1
103 145 C >  80 2
103 341 C >  65 3
103 342 C > 290 2
104 321 C > 139 4
104 322 C > 243 4
104 341 C > 164 3
104 342 C >  65 4
105 106 D = 238 0
105 196 C > 123 3
105 217 C > 266 3
105 218 C > 165 3
105 219 C >  82 3
105 220 C > 149 3
105 221 C > 536 1
105 265 C > 259 2
106 195 C > 231 2
106 218 C > 168 1
106 221 C > 235 3
106 258 C >  81 3
106 265 C > 296 3
107 108 D = 238 0
107 111 C >  10 3
107 112 C > 220 2
107 118 C > 266 4
107 127 C > 134 2
107 128 C >  96 3
107 267 C > 289 2
107 268 C > 221 1
107 366 C > 275 2
108 117 C > 271 3
108 118 C >  29 1
108 128 C > 137 3
108 268 C > 115 3
108 302 C > 129 3
108 315 C > 275 2
108 316 C > 124 4
108 365 C > 105 1
108 366 C > 154 3
109 110 D = 238 0
109 245 C > 178 3
109 246 C > 148 2
109 271 C > 123 1
109 293 C > 122 4
109 294 C > 276 4
109 328 C > 274 1
109 440 C > 119 3
110 246 C > 155 4
110 257 C > 507 1
110 258 C > 270 1
110 271 C > 109 3
110 320 C > 375 3
110 327 C > 191 2
110 437 C > 163 4
110 440 C > 109 2
111 112 D = 238 0
111 238 C > 151 3
111 324 C > 145 3
111 501 C > 222 4
111 857 C >  66 4
111 858 C > 166 1
111 885 C > 216 4
111 886 C > 336 2
111 905 C > 218 4
111 906 C > 273 4
112 237 C > 296 2
112 238 C >  78 4
112 857 C > 302 1
112 858 C >  67 4
112 886 C > 100 4
113 114 D = 238 0
113 159 C > 124 4
113 160 C > 181 3
113 383 C > 195 4
113 384 C > 128 4
113 641 C > 132 2
113 642 C > 257 4
113 707 C >  94 1
114 307 C > 285 3
114 308 C > 240 2
114 384 C > 200 4
114 707 C > 138 1
114 708 C >  93 1
115 116 D = 238 0
115 139 C > 251 4
115 223 C > 520 1
115 224 C > 374 1
115 305 C > 125 3
115 306 C > 117 4
115 474 C > 189 2
115 780 C > 221 2
116 139 C > 125 4
116 224 C > 519 1
116 473 C > 192 3
116 474 C > 270 4
116 481 C > 214 3
116 482 C > 296 2
116 679 C >  92 3
117 118 D = 238 0
117 127 C > 116 4
117 267 C >  80 3
117 268 C > 153 2
117 301 C >  94 4
117 302 C > 134 2
117 365 C > 120 3
117 366 C > 111 3
118 128 C > 170 3
118 267 C > 132 3
118 293 C > 260 1
118 294 C >  24 1
119 120 D = 238 0
119 491 C > 209 3
119 492 C > 215 3
119 525 C > 164 4
119 526 C >  66 1
119 547 C > 534 3
119 548 C > 225 4
119 577 C > 152 4
119 578 C >  80 4
119 671 C > 277 1
119 672 C > 169 1
119 705 C > 176 2
119 706 C >  55 3
119 777 C > 220 2
119 778 C >   9 3
120 491 C > 257 2
120 492 C >  72 2
120 525 C > 101 3
120 526 C > 167 1
120 539 C > 184 3
120 540 C > 222 4
120 577 C > 247 4
120 578 C > 148 1
120 671 C > 168 2
120 672 C >  61 2
120 705 C > 287 3
120 706 C > 180 1
120 777 C > 223 4
120 778 C > 223 1
121 122 D = 238 0
121 241 C > 149 4
121 260 C > 126 2
121 315 C > 219 3
121 316 C > 131 4
121 368 C > 467 1
121 531 C > 282 1
121 543 C > 156 4
121 544 C > 145 4
122 247 C > 395 2
122 248 C > 155 2
122 315 C > 211 2
122 531 C > 111 4
122 532 C > 228 3
123 124 D = 238 0
123 375 C > 137 4
123 376 C > 252 3
123 386 C > 143 4
124 385 C > 101 1
124 414 C >  78 2
124 593 C > 107 2
124 594 C > 252 3
125 126 D = 238 0
125 360 C > 203 2
125 371 C > 137 4
125 372 C > 101 1
125 604 C > 261 2
125 866 C > 163 1
125 887 C > 151 2
126 360 C >  66 1
126 529 C > 190 2
126 603 C > 209 4
126 604 C >  26 3
126 865 C >  82 1
126 888 C > 253 4
126 901 C > 420 2
127 128 D = 238 0
127 193 C >  83 2
127 194 C > 123 1
127 267 C > 242 4
127 268 C > 251 1
127 302 C > 115 4
127 366 C > 492 1
128 302 C > 269 2
128 366 C > 376 2
129 130 D = 238 0
129 143 C >  23 4
129 144 C > 260 1
129 169 C >  10 4
129 263 C > 197 1
129 914 C > 134 3
130 170 C >   8 3
130 263 C > 294 4
130 914 C >  97 4
130 915 C > 276 1
130 916 C >  40 4
131 132 D = 238 0
131 423 C >  26 2
131 424 C > 207 3
131 545 C > 273 1
131 546 C > 184 1
131 637 C > 108 4
131 638 C > 368 2
131 741 C > 246 4
131 742 C > 267 1
131 775 C > 536 1
131 776 C > 267 2
131 825 C >  78 4
131 826 C > 160 1
131 827 C > 223 2
131 828 C > 239 4
132 423 C > 262 3
132 424 C >  26 2
132 545 C > 467 1
132 546 C > 225 2
132 637 C > 202 3
132 638 C > 129 3
132 739 C > 206 4
132 740 C >  27 4
132 775 C > 149 2
132 776 C > 266 3
132 825 C > 152 1
132 826 C >  78 2
132 827 C > 410 2
132 828 C > 169 1
133 134 D = 238 0
133 189 C > 130 4
133 190 C > 254 4
133 201 C > 176 4
133 202 C > 229 2
133 411 C > 299 1
133 412 C > 248 3
133 547 C >  51 3
133 875 C > 171 2
133 891 C >  27 4
133 892 C > 207 4
133 906 C > 224 2
134 201 C > 209 3
134 202 C > 227 1
134 412 C > 213 1
134 431 C > 290 3
134 432 C >  55 3
134 547 C > 293 2
134 548 C >  55 4
134 875 C > 259 1
134 891 C > 263 4
134 905 C > 279 2
134 906 C > 239 2
135 136 D = 238 0
135 157 C > 125 2
135 158 C > 146 4
135 277 C > 150 3
135 278 C > 183 3
135 534 C > 264 1
135 908 C > 289 3
136 277 C >  80 2
136 278 C > 149 3
136 581 C >   8 1
136 582 C > 219 2
137 138 D = 238 0
137 148 C > 275 4
137 290 C > 194 3
137 305 C > 223 2
137 306 C > 282 3
138 147 C > 495 3
138 163 C > 144 3
138 164 C > 199 3
138 191 C > 223 1
138 192 C >  10 3
138 290 C >  37 2
139 140 D = 238 0
139 223 C >  68 4
139 473 C >  36 3
139 484 C > 218 1
139 680 C > 274 4
139 780 C > 116 4
139 811 C > 131 3
139 812 C > 408 3
140 224 C >  66 2
140 483 C > 249 3
140 484 C >   9 4
140 679 C > 258 3
140 715 C > 131 2
140 716 C > 226 2
140 779 C > 267 1
141 142 D = 238 0
141 249 C > 128 4
141 250 C > 201 1
141 331 C >  81 2
141 332 C > 148 4
141 485 C > 180 3
141 486 C > 240 2
141 639 C >  37 2
141 640 C > 191 4
141 715 C > 148 2
141 716 C >  83 3
141 783 C > 217 3
141 784 C > 258 1
141 835 C > 286 1
141 836 C > 229 2
142 249 C > 101 1
142 250 C >  75 3
142 485 C > 243 2
142 486 C >   5 3
142 639 C > 278 3
142 640 C >  37 2
142 677 C > 238 4
142 678 C >   5 4
142 715 C > 221 3
142 716 C > 153 3
142 783 C > 253 4
142 784 C > 103 3
142 835 C > 241 2
142 836 C > 143 3
143 144 D = 238 0
143 243 C > 123 1
143 458 C > 152 1
143 507 C >  69 4
143 508 C > 164 4
143 524 C > 266 3
143 695 C >  26 1
144 243 C > 169 4
144 244 C > 122 3
144 475 C > 159 1
144 476 C > 115 2
144 523 C > 266 2
144 524 C >  29 2
144 695 C > 206 2
144 748 C >  36 4
145 146 D = 238 0
145 557 C > 139 4
145 558 C >  93 4
146 341 C > 248 3
146 342 C >  13 3
147 148 D = 238 0
147 191 C > 253 2
147 192 C > 170 2
147 297 C > 107 3
147 298 C > 189 2
148 191 C > 187 1
148 192 C > 240 3
148 303 C > 182 4
148 304 C > 299 2
148 306 C > 121 2
149 150 D = 238 0
149 207 C > 265 1
149 208 C > 192 3
149 231 C >  40 4
149 232 C > 279 4
149 309 C > 535 4
149 310 C > 155 1
149 557 C > 532 4
149 558 C > 260 3
149 615 C > 293 3
149 616 C > 256 3
150 231 C > 195 1
150 232 C >  36 2
150 309 C > 280 3
150 310 C >  89 4
150 557 C > 258 3
150 558 C > 201 4
150 615 C > 120 2
150 616 C > 102 1
151 152 D = 238 0
151 155 C > 130 3
151 357 C >  94 2
151 423 C > 195 1
151 424 C > 282 3
151 446 C > 170 1
151 851 C > 112 3
152 155 C > 107 2
152 175 C > 294 4
152 176 C >  58 2
152 190 C >  19 3
152 358 C >  97 4
152 445 C > 338 3
152 446 C > 101 2
152 851 C > 284 4
153 154 D = 238 0
153 370 C > 450 4
153 563 C > 267 3
153 610 C > 245 4
153 839 C >  82 3
153 840 C > 316 1
153 857 C >  55 4
153 858 C > 293 1
153 861 C > 159 3
153 862 C > 121 4
154 211 C > 208 4
154 212 C > 267 1
154 369 C > 345 3
154 370 C > 397 4
154 517 C > 228 3
154 518 C > 284 1
154 563 C > 164 4
154 564 C > 168 4
155 156 D = 238 0
155 181 C >  23 3
155 182 C > 265 2
155 189 C > 176 4
155 445 C >  51 1
155 851 C > 106 2
155 852 C > 243 2
156 189 C >  52 4
156 190 C > 177 1
156 357 C > 252 2
156 445 C > 181 1
156 446 C >  55 1
156 851 C > 125 2
156 852 C > 108 1
157 158 D = 238 0
157 277 C >  24 4
157 534 C > 138 1
157 907 C >  66 1
157 908 C > 162 4
157 911 C > 111 1
157 912 C > 284 4
158 277 C > 205 2
158 533 C > 226 4
159 160 D = 238 0
159 307 C >  78 4
159 384 C > 191 1
159 499 C > 134 2
159 500 C >  95 1
159 642 C > 208 4
160 307 C > 164 4
160 308 C >  82 2
160 383 C > 278 2
160 384 C >  41 3
160 642 C >  27 4
160 893 C > 237 4
160 894 C >  87 2
161 162 D = 238 0
161 163 C >  50 3
161 164 C > 289 1
161 389 C > 108 1
161 390 C > 163 3
161 493 C > 344 1
161 494 C > 324 1
161 597 C >  92 2
161 598 C > 100 4
161 623 C > 124 1
161 624 C > 172 4
161 629 C > 125 1
161 630 C > 224 3
161 633 C > 218 4
161 634 C > 154 2
162 163 C > 178 3
162 164 C >  55 2
162 209 C > 194 3
162 210 C >  41 2
162 389 C > 123 2
162 390 C > 109 1
162 493 C > 509 3
162 494 C > 403 4
162 597 C > 136 2
162 598 C >  92 1
162 623 C > 107 2
162 624 C > 124 4
162 633 C > 198 1
162 634 C > 210 1
163 164 D = 238 0
163 389 C >  50 1
163 390 C > 288 4
163 493 C > 105 3
163 494 C > 476 3
163 597 C >  39 1
163 598 C > 275 2
163 601 C >  37 3
163 602 C > 192 2
163 623 C >  64 1
163 624 C > 104 2
163 633 C > 158 3
163 634 C > 247 3
164 389 C > 176 2
164 390 C >  51 4
164 457 C > 222 3
164 458 C > 239 2
164 493 C > 103 3
164 494 C > 243 1
164 597 C > 195 3
164 598 C >  39 3
164 623 C > 166 3
164 624 C >  68 4
164 633 C > 152 3
164 634 C > 156 1
165 166 D = 238 0
165 201 C > 535 4
165 202 C > 107 1
165 287 C >  38 3
165 288 C > 279 3
165 555 C > 535 3
165 556 C > 245 4
165 683 C > 532 4
165 684 C > 295 2
165 703 C > 247 2
165 704 C > 191 2
165 753 C > 249 4
165 754 C > 240 4
165 821 C >  64 2
165 822 C > 166 2
166 287 C > 193 3
166 288 C >  37 1
166 555 C > 112 2
166 556 C > 228 2
166 683 C > 145 1
166 684 C > 131 2
166 703 C > 270 3
166 704 C > 112 4
166 737 C > 180 4
166 738 C > 157 4
166 753 C > 246 1
166 754 C > 159 1
166 821 C > 173 4
166 822 C >  68 1
167 168 D = 238 0
167 187 C > 112 3
167 188 C > 298 1
167 208 C > 345 2
167 291 C > 151 4
167 292 C > 236 2
167 489 C > 269 1
168 207 C > 313 1
168 208 C > 306 3
168 279 C > 110 3
168 280 C > 121 2
168 281 C > 222 3
168 282 C > 213 4
168 291 C > 226 2
168 292 C > 210 1
168 348 C > 266 4
168 489 C > 277 2
168 490 C > 143 2
169 170 D = 238 0
169 263 C > 194 3
169 264 C > 231 4
169 719 C > 219 1
169 720 C > 196 1
169 914 C > 150 3
170 263 C > 424 1
170 264 C > 182 4
170 513 C > 135 4
170 514 C > 199 1
170 913 C > 275 4
170 914 C >  83 2
171 172 D = 238 0
171 177 C > 133 2
171 178 C > 280 2
171 299 C >  68 4
171 435 C > 240 3
171 636 C > 206 4
171 739 C > 145 2
172 177 C > 261 3
172 235 C > 106 2
172 236 C > 183 1
172 299 C > 162 1
172 436 C > 269 2
173 174 D = 238 0
173 241 C > 263 4
173 242 C > 257 4
173 330 C > 192 4
173 513 C > 111 2
173 514 C > 122 3
173 521 C > 531 2
173 572 C > 149 3
174 252 C >  88 3
174 323 C > 187 2
174 324 C > 172 1
174 330 C >  36 4
174 477 C > 202 1
174 572 C >  82 2
175 176 D = 238 0
175 177 C >  52 4
175 178 C > 181 1
175 193 C > 248 1
175 432 C > 146 2
175 495 C > 137 4
175 496 C >  97 3
175 883 C >  11 3
175 903 C > 149 2
176 193 C > 220 4
176 194 C >  74 1
176 431 C > 276 2
176 495 C > 158 2
176 695 C > 220 1
176 696 C >   9 2
176 903 C > 295 4
177 178 D = 238 0
177 201 C >  66 4
177 202 C > 164 4
177 299 C > 534 3
177 300 C > 131 1
177 636 C > 246 1
177 739 C >  24 2
177 740 C > 206 1
178 300 C > 114 4
178 425 C > 236 3
178 426 C >  80 2
178 435 C > 319 3
178 636 C > 213 3
179 180 D = 238 0
179 219 C >  27 3
179 220 C > 261 3
179 251 C >  81 2
179 252 C > 119 1
179 397 C > 262 2
179 398 C > 140 3
179 415 C > 489 1
179 416 C > 518 1
179 643 C > 536 3
179 644 C > 180 2
179 741 C > 185 4
179 742 C > 174 2
179 769 C > 531 4
179 770 C > 206 4
180 219 C > 205 4
180 220 C >  25 4
180 397 C > 292 3
180 398 C > 198 3
180 415 C > 423 1
180 416 C > 338 1
180 437 C > 266 2
180 438 C > 229 1
180 643 C > 247 1
180 644 C > 243 1
180 741 C > 199 4
180 742 C > 271 2
180 769 C > 139 4
180 770 C > 169 3
181 182 D = 238 0
181 403 C > 158 3
181 404 C > 256 4
181 531 C > 219 4
181 532 C > 294 3
181 589 C > 534 3
181 590 C > 136 4
181 611 C > 164 2
181 612 C > 191 1
181 655 C >  69 2
181 656 C > 164 1
181 693 C > 189 3
181 694 C > 265 4
181 789 C >  66 2
181 790 C > 127 2
182 403 C > 176 4
182 404 C > 168 3
182 585 C > 304 1
182 586 C >  69 2
182 589 C > 191 1
182 590 C > 201 4
182 611 C > 286 1
182 612 C > 126 2
182 655 C > 306 2
182 656 C >  67 2
182 693 C > 176 1
182 694 C > 227 3
182 789 C > 163 3
182 790 C >  67 4
183 184 D = 238 0
183 205 C > 215 2
183 206 C > 103 3
183 409 C >  39 4
183 410 C > 195 1
183 441 C >  96 1
183 453 C >  53 3
183 565 C > 532 3
183 566 C > 435 2
183 591 C >  37 1
184 210 C >  50 3
184 410 C >  38 3
184 442 C >  94 3
184 453 C > 178 1
184 454 C >  50 1
185 186 D = 238 0
185 191 C > 242 3
185 192 C > 295 2
185 234 C > 506 3
185 326 C > 394 2
185 497 C > 107 4
185 601 C >  10 1
185 602 C > 247 2
185 879 C > 139 3
186 233 C > 507 4
186 325 C > 406 1
186 326 C > 429 3
186 498 C > 215 1
186 579 C > 235 3
186 580 C > 297 1
186 602 C >  10 2
186 879 C >  96 2
187 188 D = 238 0
187 469 C > 272 4
187 470 C > 276 3
187 579 C > 495 1
187 580 C > 413 1
187 727 C > 109 3
187 728 C > 450 2
187 729 C >  38 3
187 730 C > 279 4
187 743 C > 148 4
187 744 C > 238 1
187 903 C > 531 4
187 904 C > 158 4
188 469 C > 173 4
188 470 C > 284 3
188 481 C > 149 4
188 482 C > 295 2
188 579 C > 395 1
188 580 C > 421 1
188 727 C > 131 2
188 728 C > 211 3
188 729 C > 195 3
188 730 C >  38 3
188 743 C >  79 4
188 744 C > 149 2
189 190 D = 238 0
189 297 C > 110 4
189 298 C > 121 1
189 357 C > 289 3
189 358 C > 311 3
189 446 C > 108 2
189 852 C > 167 3
190 357 C > 212 2
190 365 C > 163 1
190 366 C > 219 4
190 445 C > 223 4
190 446 C > 125 2
190 851 C > 127 3
191 192 D = 238 0
191 290 C > 176 3
191 305 C > 172 2
191 306 C > 126 1
192 289 C > 291 3
192 290 C >  52 1
192 306 C > 116 4
193 194 D = 238 0
193 432 C > 148 2
193 771 C > 142 4
193 772 C > 151 1
193 883 C > 241 1
193 884 C > 297 2
193 903 C >  69 4
193 904 C > 163 3
194 432 C >  82 3
194 495 C > 214 3
194 496 C > 211 4
194 883 C > 298 2
194 884 C >  59 1
195 196 D = 238 0
195 197 C > 167 3
195 198 C > 169 3
195 217 C > 209 1
195 218 C > 275 2
195 221 C > 449 3
195 222 C > 419 2
195 266 C > 229 4
196 219 C > 206 2
196 220 C >  22 4
196 222 C > 325 4
196 258 C >  24 2
196 265 C > 153 1
197 198 D = 238 0
197 201 C > 166 4
197 202 C > 519 4
197 205 C > 125 3
197 206 C > 362 3
197 334 C > 175 3
197 375 C >  36 4
197 376 C > 274 2
197 539 C > 446 1
197 691 C > 122 2
197 692 C > 205 2
198 209 C > 161 3
198 210 C > 252 4
198 333 C > 163 4
198 334 C >  67 1
198 375 C > 193 2
198 376 C >  40 2
198 539 C > 463 1
198 691 C > 223 2
198 870 C >  93 1
199 200 D = 238 0
199 433 C > 360 1
199 434 C > 346 2
199 513 C >  12 3
199 514 C > 246 2
199 541 C > 129 4
199 542 C > 142 4
199 711 C > 212 1
199 712 C > 148 2
199 785 C > 292 2
199 786 C > 173 4
199 833 C >  92 1
199 834 C > 237 3
199 847 C >  54 1
199 848 C > 289 2
200 433 C > 495 1
200 434 C > 517 2
200 541 C > 243 1
200 542 C > 212 3
200 711 C > 276 2
200 712 C > 270 1
200 785 C > 276 2
200 786 C > 257 4
200 833 C > 136 2
200 834 C >  92 1
200 847 C > 176 4
200 848 C >  55 3
201 202 D = 238 0
201 412 C > 247 3
201 548 C > 206 2
201 876 C > 249 4
201 879 C > 120 1
201 880 C > 240 2
201 892 C > 159 1
202 412 C >  11 3
202 875 C > 153 2
202 887 C > 274 2
202 888 C > 238 1
202 891 C > 279 4
202 905 C > 249 3
202 906 C >   9 3
203 204 D = 238 0
203 317 C > 171 4
203 318 C > 139 1
203 345 C > 294 2
203 346 C > 115 2
203 429 C > 113 1
203 430 C > 284 4
203 449 C > 280 3
203 450 C > 197 2
203 467 C >  66 2
203 468 C > 163 4
203 481 C > 111 4
203 482 C > 123 1
204 317 C > 107 4
204 318 C > 129 4
204 429 C > 285 3
204 430 C >  45 3
204 449 C > 200 3
204 450 C >  35 2
204 467 C > 112 1
204 468 C >  69 2
204 481 C > 289 1
204 482 C > 111 2
205 206 D = 238 0
205 375 C >  79 3
205 691 C > 509 1
205 692 C > 271 1
205 870 C > 208 2
205 887 C >  79 3
205 888 C > 153 2
206 363 C > 238 2
206 364 C >  95 2
206 376 C >  83 1
206 691 C > 269 4
206 870 C >  25 2
207 208 D = 238 0
207 253 C > 192 4
207 254 C > 244 2
207 280 C > 144 3
207 347 C >  23 2
207 348 C > 262 4
207 489 C > 151 3
207 490 C > 217 4
208 377 C > 208 3
208 378 C >  25 3
209 210 D = 238 0
209 409 C >   9 2
209 410 C > 251 4
209 441 C >  39 1
209 442 C > 194 4
209 454 C > 249 2
209 479 C > 284 3
209 480 C > 165 4
209 566 C > 291 4
209 591 C >  95 3
209 592 C > 167 4
210 409 C > 220 2
210 442 C >  38 1
211 212 D = 238 0
211 369 C >  26 3
211 563 C >  94 3
211 564 C > 244 3
211 839 C > 112 1
211 840 C > 222 1
211 857 C > 141 1
211 858 C > 452 3
211 861 C >   9 4
212 370 C >  23 2
212 564 C >  93 4
212 565 C > 110 3
212 566 C > 268 3
212 839 C > 423 2
212 861 C > 218 2
213 214 D = 238 0
213 617 C > 137 1
213 618 C >  93 4
213 682 C > 285 3
213 859 C > 146 3
213 903 C > 192 1
213 904 C > 299 3
214 582 C >  83 2
214 617 C > 259 2
214 618 C > 135 4
214 682 C >  42 3
214 855 C > 220 2
214 860 C > 155 2
215 216 D = 238 0
215 472 C > 434 3
215 679 C > 137 3
215 680 C > 261 1
215 898 C > 393 1
216 377 C > 208 2
216 387 C > 293 4
216 388 C > 156 2
216 471 C > 193 1
216 897 C > 525 1
216 898 C > 422 1
217 218 D = 238 0
217 222 C > 220 1
217 257 C > 115 2
217 258 C > 276 2
217 265 C > 111 4
217 266 C > 268 2
218 222 C >  11 4
218 258 C > 252 3
219 220 D = 238 0
219 397 C > 266 1
219 398 C > 296 1
219 415 C > 295 2
219 416 C > 287 2
219 643 C > 132 3
219 644 C > 223 4
219 737 C >  37 4
219 738 C > 279 2
219 741 C > 261 2
219 742 C > 134 3
219 769 C > 230 4
219 770 C > 298 4
220 397 C > 410 1
220 398 C > 171 4
220 415 C > 111 2
220 416 C > 270 2
220 643 C > 277 1
220 644 C > 213 2
220 741 C > 480 1
220 742 C > 241 2
220 769 C > 382 4
220 770 C > 144 2
220 783 C > 256 3
220 784 C > 229 2
221 222 D = 238 0
222 257 C > 116 2
222 258 C > 271 2
223 224 D = 238 0
223 474 C > 261 4
223 489 C > 184 1
223 490 C > 271 3
223 679 C > 224 3
224 483 C > 179 4
224 484 C >  55 4
224 680 C > 157 1
224 779 C > 275 2
224 780 C > 198 1
224 827 C > 139 3
224 828 C >  97 1
225 226 D = 238 0
225 461 C >  25 4
225 462 C > 260 3
225 554 C > 109 1
225 837 C >  51 3
225 838 C > 292 3
225 853 C >  97 2
225 854 C > 125 1
225 881 C >  10 3
225 895 C >  83 1
225 896 C > 213 4
226 553 C > 110 2
226 554 C > 120 2
226 757 C > 331 1
226 758 C > 525 1
226 853 C > 137 4
226 882 C >   8 3
227 228 D = 238 0
227 333 C > 257 1
227 334 C > 208 4
227 337 C > 285 3
227 338 C > 232 1
227 575 C > 100 2
227 576 C > 167 4
227 619 C > 293 3
227 620 C > 142 1
227 701 C >  80 4
227 702 C > 149 2
227 815 C > 237 2
227 816 C > 259 4
227 849 C >  27 4
227 850 C > 261 3
228 337 C > 324 4
228 338 C >  86 1
228 575 C > 152 1
228 576 C > 102 3
228 619 C > 177 3
228 620 C > 128 3
228 701 C > 196 3
228 702 C >  80 1
228 815 C > 219 3
228 816 C > 215 2
228 849 C > 207 3
228 850 C >  27 1
229 230 D = 238 0
229 559 C > 175 4
229 560 C > 273 2
229 710 C > 208 2
229 721 C >  50 1
229 722 C > 288 1
229 817 C > 125 4
229 818 C > 285 3
230 500 C > 267 3
230 650 C > 224 1
230 710 C >  26 1
230 721 C > 181 1
230 722 C >  54 3
230 814 C > 213 2
230 817 C > 110 3
231 232 D = 238 0
231 309 C > 238 1
231 310 C > 283 2
231 557 C > 111 1
231 558 C > 393 2
231 611 C >  37 4
231 612 C > 191 1
231 615 C > 294 4
231 616 C > 294 3
232 309 C > 283 2
232 310 C >  45 4
232 557 C > 211 1
232 558 C > 155 1
232 615 C > 294 2
232 616 C >  59 3
233 234 D = 238 0
233 325 C >  24 3
233 326 C > 206 3
233 498 C > 291 1
233 632 C > 346 1
233 879 C > 279 4
234 479 C > 134 4
234 480 C >  93 4
234 498 C >  51 4
234 602 C > 255 2
234 631 C > 122 2
234 879 C > 291 4
235 236 D = 238 0
235 313 C > 248 2
235 379 C > 115 4
235 487 C >  67 4
235 587 C > 218 1
235 588 C > 176 2
235 627 C > 136 3
235 845 C >  10 3
235 846 C > 249 2
236 380 C > 140 3
236 449 C >  93 1
236 450 C > 136 2
236 487 C > 246 2
236 567 C > 273 1
236 568 C >  80 1
236 627 C >  96 2
236 845 C > 218 2
237 238 D = 238 0
237 323 C > 232 4
237 324 C > 158 2
237 857 C >  12 2
237 858 C > 250 3
237 867 C >  97 1
237 868 C > 170 2
237 885 C > 126 4
238 324 C > 252 3
238 727 C > 192 2
238 728 C >  38 2
238 858 C >  13 4
238 886 C > 187 3
239 240 D = 238 0
239 267 C > 159 4
239 268 C > 395 4
239 465 C >  94 4
239 808 C > 223 1
240 503 C > 131 4
240 504 C >  94 3
240 808 C >  12 3
241 242 D = 238 0
241 259 C > 181 2
241 293 C >  55 3
241 294 C > 179 2
241 315 C > 253 1
241 368 C > 177 4
241 531 C > 534 3
242 259 C > 103 1
242 260 C > 113 2
242 265 C > 252 2
242 266 C >  19 2
242 315 C > 286 4
242 316 C > 130 3
242 368 C > 145 3
243 244 D = 238 0
243 307 C > 122 4
243 308 C > 149 4
243 458 C > 368 2
243 523 C > 531 2
243 524 C > 245 4
244 458 C > 385 4
244 523 C > 396 4
244 533 C > 209 1
244 534 C >  23 3
244 747 C > 152 3
245 246 D = 238 0
245 272 C > 267 2
245 319 C > 139 2
245 355 C > 134 2
245 356 C >  93 3
245 439 C > 104 3
246 271 C > 267 4
246 272 C >  30 2
246 309 C > 263 3
246 310 C >  25 3
246 327 C > 271 2
246 439 C > 284 3
246 440 C >  42 1
247 248 D = 238 0
247 256 C > 139 3
247 305 C > 243 2
247 306 C > 269 4
247 399 C > 243 4
247 877 C > 111 2
247 878 C > 125 4
247 910 C >  93 3
247 912 C > 220 3
248 256 C >  92 2
248 293 C > 297 2
248 294 C >  61 3
248 399 C > 206 1
248 877 C > 220 3
248 878 C > 111 2
248 910 C > 136 2
249 250 D = 238 0
249 485 C >  67 4
249 486 C > 123 2
249 639 C > 130 2
249 640 C > 220 2
249 715 C > 535 4
249 716 C > 227 1
249 783 C >  27 4
249 784 C > 204 3
249 835 C >  66 3
249 836 C > 164 2
250 485 C > 166 4
250 486 C >  65 1
250 639 C > 223 4
250 640 C > 115 4
250 715 C > 298 2
250 716 C > 228 1
250 783 C > 265 2
250 784 C >  23 3
250 827 C > 204 2
250 828 C >  25 4
250 835 C > 172 1
250 836 C >  67 2
251 252 D = 238 0
251 329 C > 109 3
251 477 C > 144 3
251 513 C > 172 4
251 514 C > 270 4
251 521 C >  81 2
251 522 C > 150 1
251 571 C > 532 1
251 572 C > 103 4
252 329 C > 162 4
252 330 C > 126 3
252 514 C > 200 3
252 521 C > 259 3
252 571 C > 230 3
252 572 C > 172 4
253 254 D = 238 0
253 399 C > 137 1
253 400 C > 275 3
253 517 C > 268 2
253 518 C > 263 2
253 551 C > 266 3
253 552 C > 210 2
253 735 C >  36 2
253 736 C > 191 2
253 737 C > 233 4
253 738 C > 124 4
253 759 C > 136 3
253 760 C >  92 1
253 797 C > 217 1
253 798 C > 253 4
254 517 C > 270 1
254 518 C > 143 4
254 551 C > 286 3
254 552 C > 158 4
254 735 C > 275 1
254 736 C >  41 1
254 737 C > 211 2
254 738 C >  84 3
254 759 C > 107 1
254 760 C > 135 3
254 797 C > 257 1
254 798 C >  18 2
255 256 D = 238 0
255 399 C > 531 4
255 400 C > 169 4
255 877 C >  13 2
255 878 C > 223 3
255 911 C >  78 3
255 912 C > 257 1
255 913 C > 136 2
255 914 C > 252 4
256 399 C > 242 4
256 400 C > 254 4
256 877 C > 247 4
256 878 C >  12 3
256 909 C > 279 1
256 911 C > 149 2
256 912 C >  83 3
257 258 D = 238 0
259 260 D = 238 0
259 315 C >  11 3
259 316 C > 222 1
259 368 C > 208 2
259 532 C > 275 1
259 907 C > 271 4
259 908 C > 280 4
260 531 C > 194 2
260 532 C >  37 1
261 262 D = 238 0
261 645 C > 106 3
261 646 C > 121 2
261 666 C > 235 3
261 667 C > 216 2
261 718 C > 139 3
261 719 C > 270 4
261 720 C > 205 4
261 796 C > 152 1
262 427 C > 124 2
262 428 C > 110 2
262 645 C > 103 2
262 646 C > 108 3
262 665 C > 167 3
262 666 C > 172 4
262 718 C > 183 1
262 743 C > 193 1
262 744 C >  40 4
263 264 D = 238 0
263 915 C > 533 4
263 916 C > 239 4
264 915 C > 151 2
264 916 C > 213 4
265 266 D = 238 0
266 315 C > 238 3
266 316 C > 107 3
267 268 D = 238 0
267 365 C >  38 3
268 301 C > 246 2
268 365 C > 274 3
268 366 C >  41 3
268 431 C > 283 3
268 432 C > 255 3
269 270 D = 238 0
269 465 C >  27 3
269 466 C > 205 2
269 587 C >  67 3
269 588 C > 283 4
270 413 C > 117 3
270 414 C > 182 1
270 465 C > 263 4
270 600 C > 116 3
270 807 C > 179 4
270 808 C >  50 3
271 272 D = 238 0
271 320 C > 242 1
271 327 C >  82 1
271 328 C > 153 3
272 320 C > 173 3
272 465 C > 104 3
272 466 C > 122 2
273 274 D = 238 0
273 349 C > 287 4
273 350 C > 296 3
273 459 C > 218 2
273 460 C >   8 1
273 621 C > 235 2
273 622 C > 202 2
273 688 C > 111 4
273 767 C >  83 3
274 459 C > 186 3
274 622 C >  75 2
274 647 C > 279 2
274 648 C >  75 4
274 768 C >  78 3
274 873 C > 281 3
275 276 D = 238 0
275 393 C > 220 4
275 455 C > 100 1
275 527 C > 136 3
275 765 C > 165 1
275 872 C > 164 4
275 894 C >  82 2
276 433 C > 237 3
276 434 C > 221 2
276 456 C >  73 4
276 528 C >   5 4
276 765 C > 196 1
276 766 C >  30 1
276 872 C >  68 4
276 894 C > 149 2
277 278 D = 238 0
277 533 C > 122 1
277 908 C > 136 2
278 533 C > 203 4
278 534 C > 124 4
278 908 C >  93 4
279 280 D = 238 0
279 291 C > 239 3
279 292 C > 292 4
279 489 C > 124 3
279 490 C > 256 3
280 291 C > 202 4
280 292 C >  87 2
280 347 C > 268 2
281 282 D = 238 0
281 401 C >  67 4
281 475 C > 152 2
281 764 C > 153 4
281 869 C > 214 3
281 870 C > 115 4
282 402 C >  68 1
282 475 C > 232 4
282 476 C > 159 2
282 686 C > 215 4
282 719 C > 178 2
282 720 C > 115 2
282 764 C >  81 4
282 889 C > 137 3
282 890 C > 116 1
283 284 D = 238 0
283 293 C > 101 1
283 294 C > 246 4
283 559 C > 134 2
283 560 C > 251 3
283 613 C > 247 1
283 614 C > 105 2
283 761 C > 335 1
283 762 C > 336 1
283 763 C > 283 2
283 764 C > 236 1
283 791 C > 125 2
283 792 C > 105 1
283 831 C > 293 3
283 832 C > 185 4
284 293 C > 291 2
284 294 C > 199 3
284 559 C >  93 1
284 560 C > 137 4
284 613 C > 135 1
284 614 C > 157 4
284 761 C > 434 1
284 762 C > 310 3
284 791 C > 152 4
284 792 C > 185 1
284 831 C > 201 2
284 832 C > 266 2
285 286 D = 238 0
285 351 C > 534 2
285 352 C > 451 3
285 447 C >   9 4
285 448 C > 221 1
285 647 C > 241 2
285 648 C > 175 2
285 675 C > 259 2
285 676 C > 105 4
285 713 C >  25 3
285 714 C > 204 2
285 731 C >  51 2
285 732 C > 176 2
285 819 C > 169 4
285 820 C > 337 4
286 351 C > 453 2
286 352 C > 210 4
286 447 C > 249 2
286 448 C >  10 2
286 675 C > 270 1
286 676 C > 242 1
286 713 C > 264 2
286 714 C >  26 3
286 731 C > 293 1
286 732 C >  53 2
286 819 C > 117 4
286 820 C > 100 3
287 288 D = 238 0
287 555 C > 126 1
287 556 C > 133 2
287 683 C > 111 3
287 684 C > 219 1
287 703 C > 111 3
287 704 C > 244 3
287 753 C > 536 1
287 754 C > 249 2
287 789 C > 176 1
287 790 C > 283 2
287 821 C > 106 2
287 822 C > 123 3
288 555 C > 232 1
288 556 C > 186 3
288 683 C > 262 2
288 684 C >  84 3
288 703 C > 246 2
288 704 C >  72 4
288 753 C > 260 2
288 754 C > 113 4
288 821 C > 346 2
288 822 C > 108 2
289 290 D = 238 0
289 707 C > 271 2
289 708 C > 162 3
290 306 C > 170 4
291 292 D = 238 0
291 347 C >  55 3
291 483 C > 237 1
291 484 C > 269 1
291 489 C >  69 3
292 347 C > 289 4
292 348 C >  51 2
292 441 C > 267 1
292 442 C >  78 3
293 294 D = 238 0
293 347 C >  66 3
293 348 C > 163 3
293 559 C > 173 2
293 560 C > 297 4
293 613 C >  41 4
293 614 C > 275 4
293 761 C >  92 3
293 762 C > 138 1
293 791 C >  10 4
293 792 C > 248 3
293 831 C >  68 1
293 832 C > 162 2
294 559 C > 297 2
294 560 C >  61 1
294 613 C > 191 3
294 614 C >  40 2
294 761 C > 118 4
294 762 C >  94 3
294 781 C > 265 4
294 782 C >  78 3
294 791 C > 219 3
294 792 C >   9 3
294 831 C > 130 2
294 832 C >  68 2
295 296 D = 238 0
295 467 C > 143 1
295 468 C > 197 3
295 505 C > 291 4
295 657 C >  25 4
295 658 C > 264 4
295 661 C >  66 2
295 788 C > 193 3
296 395 C > 164 2
296 593 C > 420 1
296 594 C > 184 2
296 658 C >  25 4
297 298 D = 238 0
297 312 C > 262 4
297 317 C >  51 2
297 318 C > 176 4
297 504 C > 268 3
297 625 C > 156 1
298 312 C >  26 2
298 363 C > 213 3
298 364 C > 158 2
298 397 C > 118 2
298 398 C >  84 1
298 405 C > 220 3
298 426 C > 107 3
298 503 C > 284 2
298 504 C > 186 3
298 625 C > 281 4
298 626 C >  42 2
299 300 D = 238 0
299 435 C > 205 2
299 445 C > 287 4
299 446 C > 286 4
300 635 C > 205 2
300 703 C > 289 3
300 704 C >  86 4
300 739 C > 171 3
300 740 C > 145 3
301 302 D = 238 0
301 366 C > 205 4
302 721 C > 180 4
302 722 C >  53 2
303 304 D = 238 0
303 581 C > 218 2
303 582 C > 247 4
303 606 C > 126 2
303 689 C > 335 1
303 690 C > 523 1
304 509 C > 220 1
304 605 C > 135 3
304 606 C >  93 1
304 689 C > 434 1
304 690 C > 486 1
304 844 C >  66 2
305 306 D = 238 0
306 729 C > 292 3
306 730 C >  81 4
307 308 D = 238 0
307 327 C >  13 4
307 328 C > 220 4
307 384 C > 275 2
307 707 C > 255 2
308 693 C > 292 1
308 694 C >  51 1
309 310 D = 238 0
309 557 C > 109 2
309 558 C > 120 4
309 615 C >  10 1
309 616 C > 221 3
310 557 C > 143 1
310 558 C > 107 1
310 615 C > 248 2
310 616 C >  13 4
310 853 C > 325 1
310 854 C >  86 1
311 312 D = 238 0
311 405 C >  10 1
311 406 C > 223 4
311 407 C >  81 2
311 408 C > 152 4
311 425 C > 136 3
311 426 C >  95 2
311 625 C > 175 1
312 405 C > 251 1
312 425 C > 135 4
312 426 C > 137 4
312 504 C > 156 1
313 314 D = 238 0
313 379 C >  67 1
313 380 C > 305 4
313 459 C > 113 3
313 460 C > 534 2
313 567 C > 428 2
313 568 C > 501 3
313 627 C > 213 1
313 628 C > 107 4
313 846 C > 201 3
314 379 C > 165 4
314 529 C > 175 4
314 530 C > 254 2
314 567 C > 485 3
314 568 C > 303 4
314 627 C > 267 2
314 628 C >  70 3
314 845 C > 117 3
314 846 C > 196 3
315 316 D = 238 0
315 367 C >   9 4
315 532 C > 293 4
316 367 C > 248 2
316 507 C > 201 2
316 508 C > 226 2
316 531 C > 181 2
317 318 D = 238 0
317 319 C >  52 3
317 320 C > 176 3
317 429 C >  82 2
317 430 C > 235 1
317 449 C > 165 2
317 450 C > 185 3
317 467 C > 211 2
317 468 C > 205 2
317 481 C > 118 2
317 482 C > 148 1
318 429 C > 151 1
318 430 C >  79 2
318 449 C >  65 3
318 450 C > 166 1
318 467 C > 138 3
318 468 C > 196 1
318 473 C > 450 4
318 474 C > 214 1
318 481 C > 119 4
318 482 C > 241 4
319 320 D = 238 0
319 325 C > 122 4
319 326 C > 536 4
319 327 C > 277 3
319 328 C > 169 2
319 437 C > 277 2
320 327 C > 131 1
320 439 C > 230 2
321 322 D = 238 0
321 523 C > 136 1
321 524 C > 119 3
321 700 C > 292 3
321 773 C > 204 1
321 774 C > 233 1
321 794 C > 262 1
322 519 C > 480 1
322 520 C > 241 1
322 700 C > 198 3
322 774 C > 211 3
322 783 C > 191 4
322 784 C >  36 1
322 794 C >  27 2
323 324 D = 238 0
323 502 C > 141 1
323 858 C > 233 2
323 885 C >  65 4
323 886 C > 167 1
324 502 C >  95 2
324 857 C > 203 3
324 858 C > 238 1
324 885 C > 163 4
325 326 D = 238 0
325 497 C >  83 1
325 498 C > 114 4
325 602 C > 231 2
325 613 C > 179 4
325 614 C > 263 4
325 631 C > 136 4
326 601 C > 155 1
326 602 C > 282 2
326 632 C > 135 4
326 847 C > 179 2
326 848 C >  52 1
326 880 C > 157 3
327 328 D = 238 0
327 759 C >  40 1
327 760 C > 192 3
328 437 C > 208 1
328 438 C >  26 4
328 439 C > 166 2
328 440 C >  65 1
329 330 D = 238 0
329 381 C >  13 2
329 382 C > 223 4
329 478 C > 148 3
329 513 C >  67 2
329 514 C > 163 2
329 521 C > 106 2
329 571 C >  41 2
329 572 C > 191 2
330 477 C > 117 4
330 514 C >  65 1
330 531 C > 248 4
330 532 C >  13 3
330 571 C > 276 2
331 332 D = 238 0
331 371 C > 132 2
331 372 C > 218 2
331 495 C >  67 2
331 496 C > 166 1
331 583 C > 177 4
331 584 C > 189 1
331 719 C > 176 2
331 720 C > 289 3
331 751 C >  38 3
331 752 C > 195 4
331 805 C > 536 4
331 806 C > 202 1
331 823 C >  67 4
331 824 C > 163 1
332 371 C > 257 3
332 372 C > 196 4
332 583 C > 296 3
332 584 C >  89 4
332 719 C > 231 3
332 720 C > 129 1
332 751 C > 278 2
332 752 C >  40 4
332 805 C > 237 1
332 806 C > 226 4
332 823 C > 202 3
332 824 C >  66 4
333 334 D = 238 0
333 376 C > 205 3
333 539 C > 118 1
333 540 C > 205 2
333 691 C > 297 2
333 869 C >  25 3
333 870 C > 265 3
334 539 C > 463 4
334 540 C > 226 1
334 691 C > 136 4
334 692 C >  84 1
334 870 C >  23 2
335 336 D = 238 0
335 599 C > 152 1
335 600 C > 130 1
336 465 C > 335 4
336 466 C > 414 4
336 808 C > 213 1
337 338 D = 238 0
337 491 C > 123 3
337 492 C > 110 3
337 575 C >  12 1
337 576 C > 220 2
337 619 C >  39 3
337 620 C > 190 4
337 701 C > 126 2
337 702 C > 133 3
337 815 C > 120 2
337 816 C > 110 4
337 849 C > 535 2
337 850 C > 295 4
338 575 C > 248 3
338 576 C >  10 1
338 619 C > 278 3
338 620 C >  37 4
338 681 C > 250 1
338 682 C >   9 4
338 701 C > 158 1
338 702 C > 173 3
338 815 C > 192 2
338 816 C > 125 3
338 849 C > 299 1
338 850 C >  57 4
339 340 D = 238 0
339 341 C >  50 3
339 342 C > 289 4
339 373 C > 121 3
339 374 C > 114 3
339 550 C > 223 2
339 561 C > 229 3
339 562 C > 406 4
339 669 C >  80 3
339 750 C > 289 4
340 373 C > 101 3
340 549 C > 246 4
340 550 C >  12 4
340 557 C > 212 4
340 558 C >  68 3
340 562 C > 169 4
341 342 D = 238 0
342 401 C > 173 4
342 402 C > 110 1
343 344 D = 238 0
343 508 C > 134 4
343 555 C > 149 4
343 556 C >  80 1
343 587 C > 156 4
343 588 C > 282 3
343 733 C > 150 4
344 463 C > 176 3
344 464 C > 129 4
344 725 C > 379 4
344 731 C > 190 1
344 732 C > 151 4
344 830 C >  70 4
345 346 D = 238 0
345 581 C > 162 1
345 618 C > 180 4
345 855 C >  94 4
345 856 C > 289 2
345 859 C > 297 1
345 860 C > 236 1
345 909 C > 533 2
345 910 C > 200 2
346 582 C > 162 4
346 617 C > 292 3
346 618 C >  51 1
346 682 C > 128 1
346 833 C > 137 2
346 834 C > 141 4
346 856 C >  96 4
347 348 D = 238 0
347 489 C > 124 4
349 350 D = 238 0
349 515 C > 232 2
349 516 C > 247 2
349 647 C >   9 4
349 648 C > 223 1
349 703 C > 181 4
349 704 C > 161 3
349 723 C > 536 4
349 724 C > 204 3
349 811 C > 108 1
349 812 C > 299 3
349 837 C >  39 1
349 838 C > 275 3
350 515 C > 520 4
350 516 C > 283 2
350 647 C > 251 2
350 648 C >  10 3
350 723 C > 164 2
350 724 C > 253 2
350 811 C > 136 4
350 812 C > 225 2
350 827 C > 150 3
350 828 C >  83 3
350 837 C > 195 3
350 838 C >  38 4
351 352 D = 238 0
351 447 C > 275 4
351 448 C > 241 4
351 545 C >  11 4
351 546 C > 251 2
351 675 C >  24 4
351 676 C > 208 1
351 713 C > 290 3
351 714 C > 480 1
351 731 C > 108 3
351 732 C > 211 1
351 819 C > 109 1
351 820 C > 196 2
352 447 C > 165 2
352 448 C > 227 1
352 565 C > 262 1
352 566 C >  24 4
352 675 C > 260 2
352 676 C >  25 3
352 713 C > 185 3
352 714 C > 240 1
352 731 C > 248 4
352 732 C > 267 3
352 819 C > 125 2
352 820 C > 111 1
353 354 D = 238 0
353 569 C >  12 4
353 570 C > 223 2
353 663 C > 101 3
353 664 C > 113 2
353 755 C > 109 4
353 756 C > 120 4
353 803 C >  94 4
353 804 C > 138 3
353 841 C >  80 2
353 842 C > 150 1
354 569 C > 248 3
354 570 C >  13 3
354 663 C > 127 2
354 664 C > 116 1
354 685 C > 178 4
354 686 C > 108 3
354 755 C > 118 3
354 756 C > 110 2
354 803 C > 149 4
354 804 C >  97 2
354 841 C > 184 2
354 842 C >  79 2
355 356 D = 238 0
355 443 C > 137 4
355 444 C > 136 2
355 451 C > 444 3
355 452 C > 492 3
355 543 C > 229 2
355 544 C > 135 2
355 801 C > 123 3
355 802 C > 231 4
356 451 C > 332 3
356 543 C > 223 2
356 544 C > 254 2
356 801 C > 408 3
356 802 C > 172 4
356 863 C > 137 4
356 864 C >  96 1
357 358 D = 238 0
357 852 C > 180 3
358 446 C > 196 1
358 852 C > 140 4
359 360 D = 238 0
359 579 C > 282 2
359 580 C > 231 1
359 603 C >  40 4
359 865 C >  82 2
359 866 C > 296 1
359 887 C > 228 3
359 901 C > 226 1
359 902 C > 122 4
360 529 C > 262 2
360 603 C > 278 4
360 604 C >  39 2
360 683 C > 208 2
360 684 C >  25 3
360 866 C >  81 2
360 901 C > 146 2
360 902 C > 229 3
361 362 D = 238 0
361 443 C >  40 2
361 444 C > 274 2
361 607 C >  13 1
361 608 C > 250 3
361 651 C > 281 2
361 652 C > 205 3
361 781 C > 196 2
361 782 C > 249 2
361 789 C > 202 3
361 790 C > 211 3
361 799 C > 383 1
361 800 C > 491 1
362 443 C > 191 2
362 444 C >  38 4
362 549 C > 218 3
362 550 C > 239 1
362 607 C > 218 3
362 608 C >  13 3
362 651 C > 276 4
362 652 C > 169 4
362 781 C > 291 2
362 782 C > 284 3
362 799 C > 510 2
362 800 C > 378 2
363 364 D = 238 0
363 405 C > 133 3
363 406 C > 115 2
363 425 C > 119 4
363 426 C > 114 4
363 465 C >  23 3
363 466 C > 205 4
363 503 C >  24 3
363 504 C > 208 2
363 625 C > 110 3
364 405 C > 110 1
364 406 C > 141 3
364 426 C > 266 2
364 503 C > 260 4
364 626 C > 107 1
365 366 D = 238 0
366 503 C > 246 3
366 504 C > 296 4
367 368 D = 238 0
367 531 C >  65 1
367 532 C > 121 4
368 531 C > 166 3
369 370 D = 238 0
369 563 C > 123 3
369 667 C > 170 4
369 668 C > 182 2
369 861 C >  36 2
370 563 C > 108 2
370 609 C >  10 1
370 610 C > 222 2
371 372 D = 238 0
371 463 C >  11 1
371 464 C > 221 2
371 583 C > 109 2
371 584 C > 114 2
371 719 C >  69 2
371 720 C > 193 4
371 751 C > 288 2
371 752 C > 188 4
371 805 C >  24 3
371 806 C > 204 2
371 823 C > 248 2
371 824 C > 112 2
372 583 C > 125 2
372 584 C > 110 2
372 719 C > 167 2
372 720 C >  64 1
372 751 C > 163 3
372 752 C > 239 1
372 757 C > 146 3
372 758 C > 270 2
372 805 C > 265 2
372 806 C >  26 3
372 823 C > 192 3
372 824 C > 268 4
373 374 D = 238 0
373 549 C > 210 3
373 550 C > 108 4
373 561 C >  51 2
373 562 C > 177 3
373 670 C > 269 4
373 737 C > 172 2
373 738 C > 124 2
373 749 C > 110 1
373 750 C > 121 3
373 771 C > 287 4
374 549 C > 243 2
374 550 C > 128 3
374 562 C >  54 3
374 669 C > 268 3
374 691 C > 285 3
374 692 C >  44 3
374 749 C > 163 1
375 376 D = 238 0
375 631 C >  93 3
375 632 C > 299 3
375 691 C > 147 3
375 870 C > 293 2
376 539 C > 163 2
376 807 C > 193 4
376 808 C >  41 4
377 378 D = 238 0
377 387 C > 166 4
377 471 C > 535 1
377 897 C > 140 1
377 913 C >  23 2
377 914 C > 206 3
378 472 C > 170 4
378 897 C > 247 4
378 898 C > 270 1
379 380 D = 238 0
379 487 C > 222 2
379 568 C > 222 1
379 628 C > 240 3
379 846 C > 173 4
379 869 C >  22 1
379 870 C > 263 2
380 487 C > 132 3
380 519 C > 213 4
380 520 C > 171 2
380 567 C > 283 4
380 568 C > 228 3
380 845 C > 283 3
381 382 D = 238 0
381 479 C >  53 3
381 480 C > 290 2
381 507 C > 108 4
381 508 C > 104 4
381 573 C >   8 1
381 574 C > 247 4
381 653 C > 531 4
381 654 C > 165 4
381 697 C >   9 3
381 698 C > 222 4
382 479 C > 180 4
382 480 C >  55 1
382 573 C > 218 4
382 574 C >  10 3
382 653 C > 162 2
382 654 C > 227 1
382 669 C > 121 2
382 670 C >  74 1
382 697 C > 247 2
382 698 C >  11 4
383 384 D = 238 0
383 603 C > 209 3
383 604 C > 164 2
383 641 C >   9 3
384 641 C > 218 3
385 386 D = 238 0
385 413 C > 296 4
385 414 C > 107 3
386 414 C > 186 4
386 594 C >   9 1
387 388 D = 238 0
387 463 C > 122 1
387 464 C > 106 2
387 471 C >  40 4
387 472 C > 194 2
387 897 C > 135 4
387 898 C >  97 2
389 390 D = 238 0
389 493 C > 103 3
389 494 C > 297 3
389 597 C >  13 3
389 598 C > 222 3
389 623 C >  10 4
389 624 C > 248 1
389 633 C > 272 1
389 634 C > 247 3
390 493 C > 216 4
390 494 C > 184 4
390 597 C > 246 2
390 598 C >  11 1
390 615 C > 248 2
390 616 C >   9 1
390 623 C > 218 4
390 624 C >  11 2
390 633 C > 188 1
390 634 C > 101 3
391 392 D = 238 0
391 421 C > 215 1
391 422 C > 382 2
391 629 C >  26 3
391 630 C > 206 1
391 659 C > 148 4
391 660 C > 143 4
391 707 C >  52 2
391 708 C > 176 4
391 745 C > 108 4
391 746 C > 121 3
391 809 C > 148 2
391 810 C >  80 4
391 867 C > 291 4
391 868 C > 241 3
392 421 C > 121 1
392 422 C > 143 3
392 563 C > 263 4
392 564 C >  26 4
392 629 C > 265 2
392 630 C >  24 1
392 659 C > 326 4
392 660 C >  89 2
392 745 C > 344 4
392 746 C > 106 2
392 809 C > 216 2
392 810 C > 149 2
392 867 C > 240 3
392 868 C >   5 2
393 394 D = 238 0
393 455 C > 469 1
393 456 C > 382 1
393 487 C >   8 4
393 488 C > 251 4
393 528 C > 464 1
393 765 C > 114 2
393 871 C > 148 4
393 872 C > 155 4
393 893 C >  68 1
394 527 C > 283 2
394 871 C >  83 4
394 872 C > 153 4
394 893 C > 162 3
394 909 C > 534 1
394 910 C > 299 3
395 396 D = 238 0
395 657 C >  38 3
395 661 C > 139 2
395 759 C > 234 4
395 760 C > 121 3
395 788 C > 175 1
396 658 C >  39 1
396 787 C > 290 3
397 398 D = 238 0
397 415 C >  95 2
397 416 C > 134 4
397 643 C >  39 4
397 644 C > 192 3
397 741 C >  67 1
397 742 C > 164 1
397 769 C >  22 3
397 770 C > 262 1
398 415 C > 334 3
398 416 C >  93 2
398 643 C > 275 2
398 644 C >  37 3
398 741 C > 275 3
398 742 C >  65 3
398 749 C > 172 4
398 750 C >  95 2
398 769 C > 208 1
398 770 C >  27 1
399 400 D = 238 0
399 877 C > 224 4
399 878 C > 210 3
399 912 C > 142 4
400 877 C > 267 1
400 909 C > 323 1
400 910 C > 356 1
400 911 C > 180 3
400 912 C > 173 2
401 402 D = 238 0
401 425 C >  13 4
401 426 C > 220 4
401 890 C > 142 3
402 476 C > 226 1
402 686 C > 284 1
402 763 C > 246 4
402 889 C > 162 4
402 890 C > 184 4
403 404 D = 238 0
403 589 C >  27 2
403 590 C > 205 4
403 611 C >  39 2
403 612 C > 279 2
403 655 C > 109 3
403 656 C > 253 1
403 693 C >  50 2
403 694 C > 179 4
403 789 C > 253 3
403 790 C > 174 1
404 589 C > 263 3
404 590 C >  27 4
404 611 C > 191 4
404 612 C >  37 2
404 655 C > 292 4
404 656 C > 240 3
404 693 C > 293 2
404 694 C >  55 2
404 789 C > 140 2
404 790 C >  99 4
405 406 D = 238 0
405 421 C > 159 2
405 422 C > 240 2
405 426 C > 106 3
405 504 C > 219 4
406 503 C > 294 4
406 504 C > 169 2
406 626 C >  32 4
407 408 D = 238 0
407 411 C >  24 3
407 412 C > 205 3
407 417 C >  10 1
407 418 C > 248 3
407 419 C >  79 2
407 420 C > 317 2
407 511 C > 532 2
407 512 C > 122 1
407 585 C >  55 4
407 586 C > 181 1
407 595 C > 164 2
407 596 C > 191 4
407 677 C > 200 3
407 678 C > 129 4
408 417 C > 223 1
408 418 C >  11 2
408 419 C > 153 1
408 420 C >  83 2
408 511 C > 478 4
408 512 C > 243 3
408 585 C > 288 3
408 586 C >  51 2
408 595 C >  65 4
408 596 C > 164 1
408 677 C > 192 1
408 678 C > 101 3
409 410 D = 238 0
409 442 C > 179 2
409 592 C > 316 3
410 441 C > 293 4
410 453 C > 136 4
410 454 C >  92 4
410 566 C > 238 3
410 591 C > 151 3
410 592 C >  79 4
410 671 C > 245 3
410 672 C > 103 1
411 412 D = 238 0
411 477 C > 111 3
411 478 C > 170 2
411 547 C > 156 2
411 548 C > 190 1
411 875 C >  64 2
411 876 C > 139 4
411 906 C > 209 4
412 547 C > 107 1
412 548 C > 266 4
412 871 C > 110 2
412 872 C > 123 1
412 905 C > 261 2
413 414 D = 238 0
413 593 C > 164 2
415 416 D = 238 0
415 441 C > 203 4
415 442 C > 246 4
415 643 C >  54 1
415 644 C > 293 2
415 741 C >  26 4
415 742 C > 260 4
415 769 C > 125 1
415 770 C > 289 2
416 643 C > 181 4
416 644 C >  50 2
416 741 C > 207 2
416 742 C >  24 2
416 769 C > 111 4
416 770 C > 122 1
417 418 D = 238 0
417 419 C >  69 1
417 420 C > 130 4
417 511 C > 207 3
417 512 C > 255 2
417 559 C > 277 2
417 560 C > 270 2
417 585 C >  69 1
417 586 C > 164 2
417 595 C > 149 2
417 596 C > 229 2
417 677 C > 158 2
417 678 C > 199 4
418 419 C > 162 3
418 420 C >  66 4
418 511 C > 227 2
418 512 C > 225 2
418 585 C > 281 4
418 586 C >  69 4
418 593 C > 139 3
418 594 C > 185 2
418 595 C >  81 1
418 596 C > 153 4
418 677 C > 168 4
418 678 C >  87 2
419 420 D = 238 0
419 495 C > 138 3
419 496 C >  96 1
419 511 C > 173 1
419 512 C > 396 1
419 585 C > 137 2
419 586 C >  92 1
419 595 C >  80 2
419 596 C > 288 2
419 677 C > 243 3
419 678 C > 256 2
420 511 C > 163 2
420 512 C > 156 4
420 525 C > 293 3
420 526 C >  79 1
420 585 C > 146 3
420 586 C > 139 4
420 595 C > 149 4
420 596 C >  80 4
420 677 C > 252 3
420 678 C >  17 2
421 422 D = 238 0
421 629 C > 120 3
421 630 C > 192 3
421 659 C >  55 4
421 660 C > 292 4
421 745 C > 243 4
421 746 C > 260 2
421 809 C > 468 1
421 810 C > 504 1
421 867 C > 135 3
421 868 C > 106 2
422 629 C > 263 4
422 630 C > 171 3
422 659 C > 177 1
422 660 C >  52 4
422 745 C > 495 2
422 746 C > 257 2
422 809 C > 434 1
422 810 C > 458 1
422 867 C >  96 1
422 868 C > 134 4
423 424 D = 238 0
423 545 C > 196 3
423 546 C > 262 1
423 577 C >  69 3
423 578 C > 257 4
423 637 C > 106 1
423 638 C > 187 1
423 775 C > 421 3
423 776 C > 335 3
423 825 C > 109 1
423 826 C > 149 2
423 827 C > 181 4
423 828 C > 151 4
424 545 C > 162 3
424 546 C > 252 4
424 637 C > 159 2
424 638 C > 154 1
424 775 C > 301 1
424 776 C > 425 4
424 825 C > 123 2
424 826 C > 106 4
424 827 C > 161 4
424 828 C > 199 2
425 426 D = 238 0
425 503 C > 477 2
425 504 C > 418 1
425 505 C > 535 1
425 506 C > 296 2
425 625 C > 189 3
425 626 C > 265 1
426 625 C > 206 3
426 891 C > 130 1
426 892 C > 270 1
427 428 D = 238 0
427 615 C > 123 1
427 616 C > 109 3
427 645 C > 218 1
427 646 C >  12 3
427 666 C > 298 4
427 795 C > 104 3
427 796 C > 199 3
428 646 C > 223 2
428 665 C > 294 2
428 795 C > 196 2
428 796 C >  35 4
429 430 D = 238 0
429 443 C > 280 4
429 444 C > 234 2
429 449 C >  82 1
429 450 C > 199 3
429 467 C > 203 1
429 468 C > 165 1
429 481 C > 129 2
429 482 C > 104 1
430 449 C > 148 1
430 450 C >  82 2
430 461 C > 100 4
430 462 C > 130 2
430 467 C > 243 3
430 468 C > 113 2
430 481 C > 164 1
430 482 C > 156 3
431 432 D = 238 0
431 905 C > 233 1
431 906 C > 262 3
432 496 C > 516 3
432 884 C > 140 1
432 891 C > 206 2
432 892 C >  24 1
432 904 C >  13 4
433 434 D = 238 0
433 541 C >  78 4
433 542 C > 197 3
433 711 C >  22 2
433 712 C > 263 4
433 785 C >  37 4
433 786 C > 274 2
433 833 C > 240 3
433 834 C > 249 2
433 835 C > 291 1
433 836 C > 213 4
433 847 C > 202 3
433 848 C > 161 3
434 541 C > 151 2
434 542 C >  78 4
434 711 C > 207 2
434 712 C >  26 4
434 785 C > 195 4
434 786 C >  36 1
434 833 C > 124 3
434 834 C > 196 2
434 847 C > 478 4
434 848 C > 242 2
435 436 D = 238 0
435 639 C > 107 1
435 640 C > 347 3
435 739 C >  53 4
436 636 C > 492 1
436 739 C > 176 3
436 740 C >  54 4
437 438 D = 238 0
437 439 C >  39 3
437 440 C > 275 1
439 440 D = 238 0
439 813 C >  54 1
439 814 C > 180 1
440 487 C > 271 3
440 488 C > 173 4
441 442 D = 238 0
441 453 C > 153 1
441 592 C > 172 1
441 605 C > 117 1
441 606 C > 237 3
442 454 C > 152 2
442 565 C > 433 2
442 566 C > 514 3
442 592 C > 135 4
443 444 D = 238 0
443 607 C >  22 3
443 608 C > 206 1
443 635 C >  36 4
443 636 C > 190 1
443 651 C > 291 4
443 652 C > 244 1
443 781 C > 156 4
443 782 C > 217 4
443 799 C > 184 4
443 800 C > 249 1
444 607 C > 261 3
444 608 C >  26 4
444 651 C > 296 2
444 652 C > 130 1
444 781 C > 168 3
444 782 C > 242 4
444 799 C > 163 3
444 800 C > 256 1
445 446 D = 238 0
445 585 C >  92 4
445 586 C > 135 4
445 852 C > 289 4
446 851 C > 179 2
446 852 C >  53 2
447 448 D = 238 0
447 675 C > 121 2
447 676 C > 267 1
447 713 C >   8 4
447 714 C > 219 1
447 731 C >  40 4
447 732 C > 193 1
447 779 C >  51 4
447 780 C > 289 3
447 819 C > 270 1
447 820 C > 163 2
448 675 C > 112 3
448 676 C > 253 2
448 713 C > 249 3
448 714 C >  13 3
448 731 C > 279 4
448 732 C >  36 4
448 819 C > 166 1
448 820 C > 117 3
449 450 D = 238 0
449 467 C > 504 2
449 468 C > 267 3
449 481 C > 532 2
449 482 C > 147 1
450 467 C > 271 2
450 468 C >  31 4
450 481 C > 237 4
450 482 C >  75 4
451 452 D = 238 0
451 543 C >  41 1
451 544 C > 279 3
451 801 C > 122 3
451 802 C > 363 2
451 829 C >  65 1
451 830 C > 171 4
451 863 C > 109 2
451 864 C > 435 2
452 544 C >  38 2
452 727 C > 150 2
452 728 C >  78 4
452 801 C > 109 3
452 802 C > 121 4
452 864 C > 200 2
453 454 D = 238 0
453 566 C > 197 4
453 591 C >   8 2
453 671 C > 291 3
453 672 C > 240 2
454 565 C > 237 1
454 575 C > 271 2
454 576 C >  33 4
455 456 D = 238 0
455 501 C > 535 4
455 502 C > 218 4
455 527 C >  68 4
455 528 C > 137 2
455 765 C > 109 2
455 766 C > 232 3
455 871 C > 239 4
456 527 C > 163 3
456 528 C >  67 1
456 765 C > 121 1
456 766 C > 111 4
456 871 C > 242 3
456 893 C > 233 1
456 894 C > 224 2
457 458 D = 238 0
457 695 C > 181 1
457 715 C > 136 2
457 716 C > 257 3
457 747 C > 171 3
457 748 C > 112 4
458 523 C >  93 4
458 524 C > 136 4
458 696 C > 144 2
459 460 D = 238 0
459 622 C > 514 1
459 674 C > 149 4
459 687 C >  92 3
459 688 C > 289 4
459 873 C > 203 2
459 891 C > 267 2
459 892 C > 286 1
460 622 C > 384 2
460 688 C >  96 3
460 711 C > 204 2
460 712 C >  24 3
460 767 C >  95 1
460 768 C > 135 4
460 873 C > 299 3
461 462 D = 238 0
461 757 C > 177 1
461 758 C > 277 4
461 853 C >  64 1
461 854 C > 276 1
461 881 C >   8 2
461 882 C > 221 3
461 885 C > 291 2
461 886 C > 281 2
461 895 C >  53 4
461 896 C > 289 2
462 553 C > 138 4
462 585 C > 253 4
462 586 C > 267 2
462 758 C > 268 2
462 853 C > 164 3
462 854 C >  64 3
462 881 C > 248 2
462 895 C > 180 4
462 896 C >  50 3
463 464 D = 238 0
463 539 C > 108 1
463 540 C > 213 2
463 587 C >  81 4
463 725 C >  12 3
463 726 C > 221 1
463 733 C > 125 1
463 829 C >  51 3
464 507 C > 216 3
464 733 C > 258 4
464 830 C >  53 4
465 466 D = 238 0
465 599 C > 292 2
465 807 C >  82 4
465 867 C > 134 3
465 868 C > 168 1
466 807 C > 152 2
466 808 C >  81 4
467 468 D = 238 0
467 481 C >  40 4
467 482 C > 190 3
468 481 C > 279 3
468 482 C >  37 3
469 470 D = 238 0
469 579 C >  11 4
469 580 C > 218 4
469 727 C >  66 4
469 728 C > 174 3
469 729 C > 244 4
469 730 C > 226 2
469 731 C > 191 4
469 732 C > 117 1
469 743 C > 145 4
469 744 C > 124 1
470 579 C > 247 4
470 580 C >   9 4
470 615 C > 208 4
470 616 C > 184 2
470 727 C > 164 1
470 728 C >  65 1
470 729 C > 115 1
470 730 C > 238 4
470 743 C > 285 3
470 744 C > 128 2
471 472 D = 238 0
471 897 C >  94 3
472 897 C > 264 3
472 898 C >  96 3
473 474 D = 238 0
473 679 C > 107 2
473 780 C > 286 4
474 483 C > 207 4
474 484 C >  26 3
474 679 C > 257 4
474 685 C > 260 4
474 686 C >  24 3
474 780 C > 169 4
475 476 D = 238 0
475 485 C >  81 2
475 486 C > 202 1
475 890 C > 274 4
476 686 C >  53 1
476 763 C > 205 3
476 843 C > 223 1
476 844 C >   9 3
476 890 C >  37 4
477 478 D = 238 0
477 513 C >  11 3
477 514 C > 251 4
477 572 C > 278 3
478 513 C > 222 2
478 514 C >  12 3
478 522 C > 363 2
478 571 C > 191 4
478 572 C >  41 2
479 480 D = 238 0
479 573 C >  40 1
479 574 C > 192 2
479 651 C > 158 4
479 652 C > 280 1
479 653 C > 241 1
479 654 C > 225 1
479 697 C >  67 1
479 698 C > 167 2
480 573 C > 275 2
480 574 C >  41 1
480 653 C > 197 2
480 654 C > 168 1
480 697 C > 280 4
480 698 C >  69 4
480 783 C > 265 3
480 784 C >  80 3
481 482 D = 238 0
482 653 C > 193 4
482 654 C > 299 3
483 484 D = 238 0
483 679 C > 175 2
483 680 C > 173 4
483 761 C > 266 2
483 762 C > 106 3
483 779 C > 252 3
484 679 C > 147 2
484 749 C > 293 2
484 750 C >  51 4
484 779 C > 212 4
485 486 D = 238 0
485 621 C > 135 4
485 622 C >  97 1
485 639 C > 520 3
485 640 C > 281 2
485 715 C > 120 4
485 716 C > 278 4
485 783 C >  94 4
485 784 C > 135 4
485 835 C > 136 1
485 836 C >  95 2
486 639 C > 282 4
486 640 C >  45 4
486 715 C > 120 2
486 716 C > 155 2
486 783 C > 335 3
486 784 C >  93 4
486 835 C > 264 3
486 836 C > 137 4
487 488 D = 238 0
487 541 C >  68 3
487 542 C > 105 3
487 567 C >   8 4
487 568 C > 218 3
487 628 C > 140 1
487 845 C >  78 3
488 605 C > 420 2
488 606 C > 184 1
488 845 C > 150 4
488 846 C >  78 4
489 490 D = 238 0
490 885 C > 292 2
490 886 C >  80 2
491 492 D = 238 0
491 525 C > 152 4
491 526 C > 199 4
491 577 C > 120 2
491 578 C > 466 2
491 671 C > 134 3
491 672 C > 130 4
491 705 C > 108 2
491 706 C > 288 1
491 709 C > 175 1
491 710 C > 210 2
491 777 C > 458 1
491 778 C > 430 2
492 525 C > 255 3
492 526 C > 240 2
492 531 C > 166 2
492 532 C >  64 4
492 577 C > 267 1
492 578 C > 229 3
492 671 C >  97 4
492 672 C > 134 1
492 705 C > 491 2
492 706 C > 254 4
492 777 C > 392 1
492 778 C > 492 2
493 494 D = 238 0
493 597 C > 203 4
493 598 C > 111 3
493 623 C > 245 2
493 624 C > 110 4
493 629 C > 531 1
493 630 C > 271 3
493 633 C >  79 4
493 634 C > 320 1
494 597 C > 213 4
494 598 C > 196 2
494 611 C > 137 1
494 612 C >  94 1
494 623 C > 191 2
494 624 C > 173 2
494 633 C > 149 1
494 634 C >  79 2
495 496 D = 238 0
495 883 C > 149 2
495 884 C > 102 3
495 887 C > 194 3
495 888 C > 162 2
495 903 C > 193 3
495 904 C > 158 4
496 903 C > 256 3
496 904 C > 285 4
497 498 D = 238 0
497 602 C > 191 2
497 632 C > 288 2
497 771 C > 268 4
497 772 C > 449 3
498 602 C > 196 4
498 631 C > 180 4
498 632 C >  50 4
498 879 C > 191 3
499 500 D = 238 0
499 649 C >  37 1
499 650 C > 278 2
499 653 C > 283 3
499 654 C > 229 2
499 709 C > 492 2
499 710 C > 515 3
499 722 C > 162 4
499 813 C >  55 1
499 814 C > 288 4
500 650 C >  37 3
500 709 C > 493 2
500 710 C > 334 3
500 722 C > 214 2
500 813 C > 176 2
500 818 C > 143 2
501 502 D = 238 0
501 871 C >  55 4
501 872 C > 288 3
502 857 C > 147 3
502 858 C > 144 3
502 886 C >  23 4
502 891 C > 266 4
502 892 C > 169 4
503 504 D = 238 0
503 625 C > 134 1
503 626 C > 223 4
503 817 C > 267 2
503 818 C > 101 3
504 625 C >  92 4
505 506 D = 238 0
505 657 C > 535 4
505 658 C > 172 2
505 662 C > 115 1
505 769 C >  40 4
505 770 C > 275 4
505 787 C >  81 4
506 661 C > 249 4
506 681 C > 204 3
506 682 C >  27 1
506 788 C >  83 4
507 508 D = 238 0
507 545 C > 173 4
507 546 C > 438 2
507 587 C > 192 4
507 588 C > 287 3
507 733 C >  55 2
507 830 C > 129 4
508 725 C > 168 4
508 726 C > 241 2
508 729 C > 249 3
508 730 C >  13 2
508 734 C >  54 4
509 510 D = 238 0
509 538 C > 220 3
509 689 C > 153 4
509 690 C >  79 2
509 844 C > 308 3
510 689 C > 161 3
510 690 C > 152 4
511 512 D = 238 0
511 585 C > 536 2
511 586 C > 321 3
511 595 C > 194 3
511 596 C > 144 1
511 677 C > 138 3
511 678 C > 183 2
512 585 C > 304 1
512 586 C > 510 3
512 593 C > 194 2
512 594 C >  36 1
512 595 C > 293 4
512 596 C >  74 2
512 677 C >  97 1
512 678 C > 135 4
513 514 D = 238 0
513 522 C > 136 3
513 549 C > 208 4
513 550 C > 180 3
513 572 C > 261 4
514 521 C > 518 4
514 522 C > 284 2
514 523 C > 107 1
514 524 C > 120 2
514 571 C > 206 3
515 516 D = 238 0
515 647 C > 462 3
515 648 C > 353 1
515 723 C >  26 4
515 724 C > 265 2
515 811 C >  51 1
515 812 C > 292 4
515 819 C > 176 3
515 820 C > 238 1
515 837 C > 259 4
515 838 C > 149 4
516 647 C > 370 3
516 648 C > 456 3
516 723 C > 207 2
516 724 C >  22 1
516 811 C > 178 3
516 812 C >  52 2
516 837 C > 244 4
516 838 C > 242 3
517 518 D = 238 0
517 539 C >  10 4
517 540 C > 219 1
517 551 C >  10 4
517 552 C > 223 3
517 735 C > 136 2
517 736 C > 154 2
517 737 C >  54 1
517 738 C > 290 4
517 759 C > 262 4
517 760 C > 137 2
517 797 C > 123 4
517 798 C > 288 2
518 551 C > 248 2
518 552 C >  12 3
518 577 C > 180 4
518 578 C >  55 3
518 735 C > 425 4
518 736 C > 186 4
518 737 C > 181 1
518 738 C >  51 1
518 759 C > 192 3
518 760 C > 284 2
518 797 C > 108 3
518 798 C > 124 1
519 520 D = 238 0
519 536 C > 176 2
519 699 C >  38 4
519 793 C > 110 4
520 536 C >  52 4
520 789 C > 152 3
520 790 C >  78 4
520 793 C > 163 3
521 522 D = 238 0
521 571 C > 211 1
521 572 C > 233 3
521 589 C > 180 1
521 590 C > 225 3
522 769 C > 149 1
522 770 C > 170 2
523 524 D = 238 0
523 696 C > 239 3
523 747 C > 218 2
524 695 C > 239 3
524 696 C >   5 4
524 747 C > 135 4
524 748 C >  73 2
525 526 D = 238 0
525 577 C >  12 3
525 578 C > 251 4
525 671 C > 166 2
525 672 C > 291 4
525 673 C > 248 1
525 674 C > 153 2
525 705 C >   9 3
525 706 C > 221 3
525 777 C >  52 1
525 778 C > 177 1
526 577 C > 223 1
526 578 C >  12 4
526 671 C > 106 3
526 672 C > 101 1
526 705 C > 251 2
526 706 C >   9 1
526 711 C > 263 4
526 712 C >  25 2
526 777 C > 293 1
526 778 C >  51 3
527 528 D = 238 0
527 765 C >  38 1
527 872 C > 311 4
527 893 C > 133 3
527 894 C > 277 1
528 871 C > 288 1
528 872 C >  74 4
528 893 C > 193 2
529 530 D = 238 0
529 603 C >  12 4
529 865 C > 108 3
529 888 C > 251 3
529 897 C > 246 4
529 898 C > 271 3
529 901 C > 122 3
529 902 C > 186 3
530 603 C > 249 2
530 697 C > 150 4
530 698 C > 196 4
530 866 C > 110 2
530 887 C > 239 2
531 532 D = 238 0
532 571 C > 265 2
532 572 C >  27 2
533 534 D = 238 0
533 907 C >  24 2
533 908 C > 263 4
534 908 C >  23 4
535 536 D = 238 0
535 699 C >  92 4
535 765 C > 152 1
535 766 C > 209 4
535 793 C > 176 3
535 794 C > 180 4
536 773 C > 153 2
536 774 C >  78 2
536 791 C > 123 3
536 792 C > 107 2
536 793 C > 116 4
536 794 C > 271 2
537 538 D = 238 0
537 553 C > 272 3
537 554 C > 266 1
537 843 C > 217 4
538 605 C > 298 4
538 689 C > 372 3
538 690 C > 137 2
538 709 C > 262 2
538 710 C > 134 3
538 843 C > 235 2
538 844 C >  85 1
539 540 D = 238 0
539 691 C > 137 4
539 692 C > 372 4
539 869 C > 267 3
539 870 C > 439 4
539 887 C > 121 4
539 888 C > 282 4
540 869 C > 144 2
541 542 D = 238 0
541 627 C > 134 2
541 628 C > 281 1
541 711 C >  53 3
541 712 C > 176 2
541 785 C >  38 1
541 786 C > 194 4
541 833 C > 286 3
541 834 C > 131 3
541 847 C > 534 2
541 848 C > 108 2
542 711 C > 293 2
542 712 C >  55 2
542 785 C > 278 4
542 786 C >  36 2
542 833 C > 175 1
542 834 C > 115 3
542 847 C > 260 2
542 848 C > 158 2
543 544 D = 238 0
543 801 C >  80 3
543 811 C > 200 2
543 812 C > 255 2
543 863 C > 120 1
543 864 C > 195 4
544 801 C > 149 3
544 855 C > 121 1
544 856 C > 100 3
545 546 D = 238 0
545 637 C >  97 1
545 638 C > 330 3
545 775 C >  38 3
545 776 C > 190 2
545 825 C > 276 4
545 826 C > 107 3
545 827 C >  50 1
545 828 C > 293 2
546 637 C > 139 2
546 638 C >  96 4
546 775 C > 275 2
546 776 C >  37 3
546 781 C > 102 2
546 782 C > 242 3
546 825 C > 150 3
546 826 C > 141 2
546 827 C > 177 3
546 828 C >  51 2
547 548 D = 238 0
547 875 C > 535 4
547 876 C > 143 3
547 881 C >   8 3
547 882 C > 247 2
547 892 C > 261 2
548 883 C > 238 4
548 884 C > 144 2
548 891 C > 206 4
548 906 C > 361 3
549 550 D = 238 0
549 561 C > 259 3
549 562 C > 270 3
549 670 C > 110 4
549 749 C > 287 1
550 561 C > 121 2
550 669 C > 136 2
550 670 C >  96 2
550 749 C > 255 2
551 552 D = 238 0
551 575 C > 137 4
551 576 C > 186 4
551 735 C > 164 2
551 736 C > 147 2
551 737 C >  66 4
551 738 C > 129 3
551 759 C > 477 3
551 760 C > 317 3
551 797 C > 138 4
551 798 C > 298 1
552 735 C > 227 4
552 736 C > 197 1
552 737 C > 166 4
552 738 C >  65 4
552 743 C >  78 1
552 744 C > 150 3
552 759 C > 409 3
552 760 C > 465 3
552 797 C >  93 4
552 798 C > 135 2
553 554 D = 238 0
553 757 C > 202 2
553 854 C > 205 2
553 895 C >  36 2
553 896 C > 194 1
554 758 C > 173 2
554 807 C > 276 4
554 808 C >  39 2
554 853 C > 261 3
554 854 C >  26 4
554 882 C > 110 4
554 895 C > 275 1
555 556 D = 238 0
555 683 C >  94 1
555 684 C > 190 3
555 693 C > 169 1
555 694 C > 224 2
555 703 C > 111 2
555 704 C > 205 3
555 753 C >  64 4
555 754 C > 100 1
555 821 C > 393 1
555 822 C > 467 4
556 683 C > 136 2
556 684 C >  96 4
556 703 C > 122 2
556 704 C > 110 3
556 753 C > 167 4
556 754 C >  66 3
556 821 C > 337 3
556 822 C > 401 4
557 558 D = 238 0
557 613 C > 139 4
557 614 C > 297 1
557 615 C >  95 3
557 616 C > 189 2
558 615 C > 135 3
558 616 C >  96 2
559 560 D = 238 0
559 613 C > 128 2
559 614 C > 256 4
559 761 C > 187 2
559 762 C > 268 2
559 791 C > 113 3
559 792 C > 280 2
559 797 C > 256 2
559 798 C > 256 2
559 831 C > 229 4
559 832 C > 366 3
560 613 C > 255 2
560 614 C >  17 2
560 761 C > 109 3
560 762 C > 157 1
560 791 C > 283 1
560 792 C >  42 2
560 831 C > 135 2
560 832 C > 128 3
561 562 D = 238 0
561 669 C > 123 2
561 670 C > 131 1
561 671 C >  79 2
561 672 C > 228 4
561 750 C > 178 3
561 771 C > 179 1
562 750 C >  51 4
562 771 C > 140 3
562 772 C > 242 4
563 564 D = 238 0
563 609 C >  94 3
563 610 C > 172 2
563 840 C > 112 4
563 855 C >  24 3
563 856 C > 262 2
563 861 C >  83 3
564 615 C > 260 1
564 616 C >  27 1
564 840 C >  84 1
564 861 C > 127 1
564 862 C >  79 1
565 566 D = 238 0
565 591 C > 171 1
566 592 C > 154 2
567 568 D = 238 0
567 577 C >  68 4
567 578 C > 288 4
567 627 C > 219 4
568 628 C > 222 2
568 845 C > 136 1
568 846 C >  96 2
568 867 C > 217 3
568 868 C > 157 2
569 570 D = 238 0
569 663 C > 199 2
569 664 C > 126 1
569 755 C >  97 3
569 756 C > 135 3
569 803 C >  83 4
569 804 C > 148 2
569 813 C >  41 3
569 814 C > 192 2
569 841 C >  67 3
569 842 C > 162 4
570 663 C > 365 4
570 664 C > 127 4
570 755 C > 184 2
570 756 C >  97 3
570 803 C > 135 2
570 804 C >  83 2
570 841 C > 292 4
570 842 C >  66 1
571 572 D = 238 0
572 581 C > 266 3
572 582 C >  31 3
573 574 D = 238 0
573 585 C > 151 3
573 586 C > 128 1
573 653 C > 274 2
573 654 C > 208 4
573 697 C >  22 3
573 698 C > 207 3
574 653 C > 261 1
574 654 C > 213 1
574 697 C > 263 2
574 698 C >  22 3
575 576 D = 238 0
575 619 C >  24 3
575 620 C > 207 3
575 701 C > 114 1
575 702 C > 201 2
575 815 C > 111 2
575 816 C > 124 1
575 829 C >  37 4
575 830 C > 191 2
575 849 C > 181 1
575 850 C > 245 3
576 619 C > 261 3
576 620 C >  26 3
576 701 C > 250 1
576 702 C > 183 2
576 815 C > 212 2
576 816 C > 106 2
576 849 C > 110 4
576 850 C >  72 3
576 867 C > 207 2
576 868 C >  27 4
577 578 D = 238 0
577 587 C > 231 3
577 588 C > 135 2
577 671 C > 260 4
577 672 C > 295 2
577 705 C >  27 1
577 706 C > 206 2
577 777 C >  65 4
577 778 C > 164 4
578 671 C > 208 2
578 672 C >  88 3
578 693 C > 272 4
578 694 C > 225 3
578 705 C > 261 2
578 706 C >  22 4
578 777 C > 252 4
578 778 C >  67 4
579 580 D = 238 0
579 727 C >  79 3
579 728 C > 144 1
579 729 C > 273 2
579 730 C > 159 3
579 743 C > 176 4
579 744 C > 284 3
580 727 C > 151 4
580 728 C >  81 1
580 729 C > 491 4
580 730 C > 252 3
580 743 C > 122 2
580 744 C > 143 3
581 582 D = 238 0
581 856 C > 167 3
581 857 C > 225 4
581 858 C > 254 4
581 859 C > 187 3
582 618 C > 218 4
582 681 C > 199 2
582 859 C > 255 2
583 584 D = 238 0
583 719 C >  38 4
583 720 C > 190 1
583 751 C > 185 4
583 752 C > 169 1
583 805 C > 139 2
583 806 C >  92 3
583 823 C > 150 4
583 824 C > 214 4
584 719 C > 274 2
584 720 C >  36 2
584 749 C > 377 4
584 750 C > 137 3
584 751 C > 269 4
584 752 C > 129 1
584 805 C > 374 2
584 806 C > 135 2
584 823 C > 104 4
584 824 C > 155 2
585 586 D = 238 0
585 587 C > 217 4
585 588 C > 187 2
585 595 C > 218 4
585 596 C > 146 4
585 677 C > 264 3
585 678 C > 395 1
586 595 C >   9 4
586 596 C > 218 3
586 677 C > 201 3
586 678 C > 157 3
587 588 D = 238 0
587 726 C > 139 1
587 733 C > 231 3
587 829 C >  27 2
587 830 C > 205 1
587 897 C >  94 1
587 898 C > 137 2
589 590 D = 238 0
589 603 C > 115 2
589 604 C > 168 1
589 611 C >  65 1
589 612 C > 216 2
589 655 C > 173 4
589 656 C > 245 1
589 693 C >  23 2
589 694 C > 209 1
589 789 C > 172 4
589 790 C > 129 4
590 611 C > 164 4
590 612 C >  66 4
590 655 C > 282 3
590 656 C > 270 2
590 693 C > 264 1
590 694 C >  26 1
590 789 C > 274 1
590 790 C > 129 4
591 592 D = 238 0
591 625 C > 274 2
591 626 C > 255 1
592 855 C > 219 2
592 856 C >   8 2
593 594 D = 238 0
594 755 C > 279 1
594 756 C >  41 2
595 596 D = 238 0
595 677 C > 286 4
595 678 C > 173 1
596 677 C > 173 3
596 678 C >  58 1
597 598 D = 238 0
597 605 C > 147 4
597 606 C > 156 2
597 623 C >  27 1
597 624 C > 262 4
597 633 C > 276 2
597 634 C > 352 2
598 623 C > 204 2
598 624 C >  26 2
598 633 C > 248 1
598 634 C > 115 2
599 600 D = 238 0
599 623 C >  26 2
599 624 C > 204 2
599 807 C > 163 4
600 808 C >  58 1
600 867 C > 239 2
600 868 C >   5 2
601 602 D = 238 0
601 631 C > 176 4
601 879 C > 124 4
601 907 C >  39 3
601 908 C > 274 1
602 631 C > 186 2
602 863 C > 150 2
602 864 C >  81 1
602 879 C > 110 4
603 604 D = 238 0
603 819 C > 295 4
603 820 C > 128 1
603 887 C > 271 1
603 901 C > 285 2
604 902 C > 268 4
605 606 D = 238 0
605 651 C > 186 1
605 652 C > 267 2
605 689 C > 127 4
605 690 C > 179 1
605 843 C >  23 3
606 690 C > 199 2
606 843 C > 265 2
606 879 C > 294 4
606 880 C >  58 3
607 608 D = 238 0
607 651 C > 114 4
607 652 C > 396 3
607 731 C > 193 2
607 732 C > 240 2
607 781 C > 235 3
607 782 C > 505 4
607 799 C > 122 3
607 800 C > 227 1
608 651 C > 261 4
608 652 C > 157 2
608 781 C > 210 1
608 782 C > 266 3
608 799 C > 225 3
608 800 C > 281 1
609 610 D = 238 0
609 839 C > 466 3
609 840 C > 226 2
609 847 C > 190 4
609 848 C > 252 2
610 861 C > 415 1
610 862 C > 177 2
611 612 D = 238 0
611 625 C >  39 2
611 626 C > 274 1
611 655 C > 129 4
611 656 C > 115 3
611 693 C >  93 1
611 694 C > 134 2
611 789 C > 270 4
611 790 C > 296 3
612 655 C > 226 2
612 656 C > 200 2
612 693 C > 109 3
612 694 C >  93 1
612 789 C > 297 2
612 790 C >  56 4
612 891 C > 200 3
612 892 C >  66 3
613 614 D = 238 0
613 761 C > 135 4
613 762 C >  94 2
613 791 C >  25 2
613 792 C > 206 3
613 831 C > 106 2
613 832 C > 124 4
613 859 C > 264 1
613 860 C > 210 3
614 761 C > 373 2
614 762 C > 136 2
614 791 C > 265 4
614 792 C >  24 4
614 831 C > 253 3
614 832 C > 106 1
615 616 D = 238 0
616 847 C > 379 3
616 848 C > 143 3
617 618 D = 238 0
617 659 C > 266 3
617 660 C > 263 3
617 681 C > 224 3
617 855 C > 150 4
617 860 C > 339 2
618 859 C > 498 2
619 620 D = 238 0
619 655 C > 276 2
619 656 C > 187 1
619 701 C > 193 4
619 702 C > 246 2
619 815 C >  83 1
619 816 C > 151 4
619 849 C > 154 3
619 850 C > 102 1
620 701 C > 210 4
620 702 C > 214 3
620 815 C > 205 2
620 816 C >  79 1
620 819 C > 180 4
620 820 C >  53 4
620 849 C > 151 1
620 850 C > 101 2
621 622 D = 238 0
621 657 C > 206 2
621 658 C > 145 1
621 673 C > 125 2
621 687 C > 188 3
621 688 C > 288 4
621 768 C > 173 4
621 874 C > 265 2
622 673 C > 106 4
622 688 C > 200 4
622 695 C > 248 4
622 696 C > 140 4
622 767 C > 132 3
622 768 C > 156 4
623 624 D = 238 0
623 627 C >  92 4
623 628 C > 281 1
623 633 C > 269 1
623 634 C > 297 4
624 633 C > 213 4
624 634 C >  84 4
625 626 D = 238 0
626 701 C > 226 3
626 702 C > 154 1
627 628 D = 238 0
627 846 C > 106 1
629 630 D = 238 0
629 659 C > 236 3
629 660 C > 104 2
629 745 C >  81 4
629 746 C > 150 1
629 809 C > 125 1
629 810 C > 108 1
629 813 C > 248 4
629 814 C > 151 2
629 867 C > 135 2
629 868 C > 268 3
630 659 C > 229 3
630 660 C > 112 4
630 745 C > 233 2
630 746 C >  81 2
630 809 C > 107 1
630 810 C > 121 4
630 835 C > 146 3
630 836 C > 173 2
630 867 C > 267 2
630 868 C >  33 3
631 632 D = 238 0
631 879 C > 155 3
632 879 C > 252 3
633 634 D = 238 0
633 729 C > 113 4
633 730 C > 191 3
634 827 C > 221 2
634 828 C >   9 4
635 636 D = 238 0
635 739 C > 127 3
635 740 C > 194 4
635 811 C > 283 4
635 812 C > 236 4
636 739 C > 103 1
636 740 C > 242 2
637 638 D = 238 0
637 735 C >  36 4
637 736 C > 190 4
637 775 C > 137 4
637 776 C >  93 3
637 825 C > 522 2
637 826 C > 281 1
637 827 C >  40 2
637 828 C > 192 4
638 775 C > 120 2
638 776 C > 137 3
638 825 C > 284 1
638 826 C >  42 2
638 827 C > 277 3
638 828 C >  41 2
639 640 D = 238 0
639 715 C > 106 3
639 716 C > 125 2
639 783 C > 228 4
639 784 C > 192 2
639 835 C > 290 1
639 836 C > 223 4
640 715 C > 222 2
640 716 C > 106 1
640 783 C > 230 1
640 784 C > 143 1
640 835 C > 223 4
640 836 C > 183 3
640 851 C > 194 4
640 852 C >  40 1
641 642 D = 238 0
641 673 C >   8 4
641 674 C > 246 3
642 707 C > 326 1
642 708 C >  86 1
643 644 D = 238 0
643 741 C >  22 3
643 742 C > 208 4
643 765 C >  51 2
643 766 C > 292 4
643 769 C >  66 1
643 770 C > 258 3
644 741 C > 265 3
644 742 C >  22 1
644 761 C > 213 3
644 762 C > 238 1
644 769 C > 165 2
644 770 C >  67 4
645 646 D = 238 0
645 666 C > 210 4
645 717 C > 304 1
645 765 C > 183 3
645 766 C > 125 3
645 795 C > 534 4
646 665 C > 294 2
646 667 C > 122 2
646 717 C > 356 1
646 795 C > 252 4
646 796 C > 186 3
647 648 D = 238 0
647 723 C > 256 2
647 724 C > 162 2
647 811 C > 221 2
647 812 C > 280 4
647 837 C >  53 1
647 838 C > 291 4
648 723 C > 506 4
648 724 C > 270 2
648 811 C > 187 2
648 812 C > 241 3
648 817 C > 382 2
648 818 C > 140 4
648 837 C > 177 1
648 838 C >  51 4
649 650 D = 238 0
649 699 C > 132 2
649 700 C > 276 3
649 709 C > 179 2
649 721 C > 175 1
649 722 C > 197 4
649 814 C > 250 2
649 818 C > 196 4
650 710 C > 256 1
650 721 C > 167 4
650 722 C > 169 2
651 652 D = 238 0
651 781 C > 110 1
651 782 C > 123 2
651 799 C > 123 2
651 800 C > 108 1
652 781 C > 129 1
652 782 C > 109 4
652 799 C > 271 4
652 800 C > 121 3
653 654 D = 238 0
653 697 C > 253 4
653 698 C > 271 4
653 903 C > 134 2
653 904 C > 295 2
654 697 C > 481 3
654 698 C > 239 3
655 656 D = 238 0
655 687 C >  93 1
655 688 C > 330 3
655 693 C > 305 1
655 694 C > 491 1
655 789 C > 136 4
655 790 C > 243 1
656 693 C > 474 1
656 694 C > 367 3
656 789 C >  96 4
656 790 C > 135 3
657 658 D = 238 0
657 787 C > 185 3
658 662 C >  94 3
659 660 D = 238 0
659 745 C > 179 4
659 746 C > 266 2
659 809 C > 191 2
659 810 C > 126 4
659 849 C > 254 3
659 850 C > 246 2
659 867 C >  81 3
659 868 C > 316 3
660 745 C > 164 4
660 746 C > 200 1
660 771 C > 118 2
660 772 C > 238 1
660 809 C > 478 2
660 810 C > 241 4
660 867 C > 150 2
660 868 C >  79 2
661 662 D = 238 0
661 787 C > 350 1
663 664 D = 238 0
663 755 C > 256 4
663 756 C > 143 1
663 803 C > 218 2
663 804 C > 217 4
663 841 C > 130 2
663 842 C > 154 2
664 755 C > 152 1
664 756 C > 227 4
664 803 C > 452 3
664 804 C > 214 4
664 819 C > 237 1
664 820 C >  87 4
664 841 C > 287 4
664 842 C > 197 4
665 666 D = 238 0
665 667 C > 109 2
665 668 C > 292 2
665 709 C > 147 3
665 710 C > 269 2
665 717 C >   9 3
665 718 C > 222 2
666 668 C > 106 1
666 705 C > 105 4
666 706 C > 242 4
666 796 C >  93 2
667 668 D = 238 0
667 717 C > 125 1
667 718 C > 109 3
667 741 C >  92 4
667 742 C > 138 1
667 795 C >   8 2
668 795 C > 251 3
668 796 C >  13 1
669 670 D = 238 0
669 749 C > 206 2
669 750 C > 231 3
669 751 C > 125 4
669 752 C > 106 4
670 749 C > 153 4
670 750 C > 143 2
670 771 C > 212 2
670 867 C > 238 1
670 868 C >   5 4
671 672 D = 238 0
671 705 C > 258 2
671 706 C > 277 3
671 777 C > 257 2
671 778 C > 123 1
672 705 C > 101 2
672 706 C > 116 2
672 777 C > 392 1
672 778 C > 156 4
673 674 D = 238 0
673 687 C > 265 2
673 768 C > 267 2
673 873 C >  94 3
674 687 C > 310 2
674 767 C > 267 3
674 768 C >  29 4
674 873 C > 252 4
674 874 C >  92 2
675 676 D = 238 0
675 679 C > 260 2
675 680 C > 210 4
675 713 C > 296 2
675 714 C > 167 2
675 731 C > 442 3
675 732 C > 451 3
675 819 C > 138 1
675 820 C > 163 4
676 713 C > 292 2
676 714 C > 268 1
676 731 C > 409 1
676 732 C > 386 4
676 819 C >  96 4
676 820 C > 138 2
677 678 D = 238 0
678 729 C > 112 1
678 730 C > 113 4
679 680 D = 238 0
679 779 C >  36 3
681 682 D = 238 0
681 855 C > 161 2
682 860 C > 109 2
683 684 D = 238 0
683 703 C >   9 2
683 704 C > 247 2
683 729 C >  52 3
683 730 C > 181 3
683 753 C >  26 2
683 754 C > 206 1
683 821 C > 536 1
683 822 C > 280 1
684 703 C > 219 2
684 704 C >  11 2
684 753 C > 265 2
684 754 C >  26 3
684 821 C > 110 3
684 822 C > 198 4
684 861 C > 292 2
684 862 C >  50 4
685 686 D = 238 0
685 763 C > 481 1
685 764 C > 500 1
685 823 C > 242 1
685 824 C > 100 4
685 889 C >  95 4
686 763 C > 387 1
686 764 C > 313 1
686 853 C > 139 2
686 854 C >  93 2
686 890 C >  95 4
687 688 D = 238 0
687 767 C >  39 3
687 768 C > 279 2
687 873 C > 154 4
687 874 C > 252 3
687 895 C > 140 4
687 896 C > 175 4
688 767 C > 191 3
688 768 C >  40 3
688 785 C > 292 3
688 786 C >  54 4
689 690 D = 238 0
689 825 C > 106 2
689 826 C > 252 4
689 843 C > 532 4
689 844 C > 464 2
690 843 C > 249 4
690 844 C > 227 2
691 692 D = 238 0
691 869 C > 200 2
691 870 C > 294 4
692 895 C > 280 1
692 896 C >  75 2
693 694 D = 238 0
693 789 C > 180 1
693 790 C > 395 1
694 789 C > 240 3
694 790 C > 157 3
695 696 D = 238 0
697 698 D = 238 0
698 793 C > 262 4
698 794 C >  23 4
699 700 D = 238 0
699 774 C > 222 1
699 793 C > 141 1
699 794 C > 299 2
700 794 C > 169 1
701 702 D = 238 0
701 815 C > 413 1
701 816 C > 390 1
701 849 C > 111 4
701 850 C > 125 4
702 815 C > 526 1
702 816 C > 430 1
702 849 C > 124 3
702 850 C > 109 2
703 704 D = 238 0
703 753 C >  37 3
703 754 C > 190 1
703 821 C > 295 2
703 822 C > 217 4
704 753 C > 279 2
704 754 C >  39 2
704 821 C > 181 3
704 822 C > 183 2
704 907 C > 290 1
704 908 C >  51 2
705 706 D = 238 0
705 777 C >  40 2
705 778 C > 194 1
706 777 C > 276 4
706 778 C >  39 4
707 708 D = 238 0
707 725 C > 532 4
707 726 C > 191 1
708 869 C > 145 4
708 870 C > 103 1
709 710 D = 238 0
709 817 C > 150 1
709 818 C > 128 3
709 877 C > 154 4
709 878 C > 262 2
710 722 C >  81 4
710 818 C > 151 2
711 712 D = 238 0
711 737 C >  41 4
711 738 C > 274 1
711 785 C >   9 4
711 786 C > 251 4
711 833 C > 298 3
711 834 C > 251 4
711 847 C > 294 2
711 848 C > 183 3
712 785 C > 219 2
712 786 C >  11 3
712 833 C > 219 2
712 834 C > 173 2
712 847 C > 150 3
712 848 C > 214 1
713 714 D = 238 0
713 731 C >  27 3
713 732 C > 204 2
713 801 C > 277 1
713 802 C > 103 3
713 819 C > 172 1
713 820 C > 171 1
714 731 C > 260 4
714 732 C >  25 4
714 819 C > 200 2
714 820 C > 129 2
715 716 D = 238 0
715 783 C > 292 1
715 784 C > 121 3
715 835 C > 518 1
715 836 C > 405 2
715 911 C > 112 1
715 912 C > 154 2
716 783 C > 282 3
716 784 C > 252 3
716 805 C > 221 3
716 806 C > 296 3
716 835 C > 333 2
716 836 C > 523 2
717 718 D = 238 0
717 795 C > 106 2
718 795 C > 121 4
718 796 C > 110 2
719 720 D = 238 0
719 739 C > 121 3
719 740 C > 381 4
719 751 C > 190 1
719 752 C > 255 3
719 805 C >  96 4
719 806 C > 135 2
719 823 C > 268 4
719 824 C > 286 1
720 751 C > 139 2
720 752 C > 172 2
720 805 C > 287 2
720 806 C >  94 2
720 823 C > 297 3
720 824 C > 201 4
720 899 C > 295 1
720 900 C >  61 2
721 722 D = 238 0
721 739 C >  23 2
721 740 C > 206 4
721 813 C > 130 4
721 814 C > 222 3
721 818 C > 197 1
722 813 C > 140 1
722 818 C >  68 3
723 724 D = 238 0
723 811 C >  27 2
723 812 C > 263 3
723 837 C > 205 4
723 838 C > 150 2
724 811 C > 209 4
724 812 C >  23 3
724 837 C > 452 2
724 838 C > 211 3
724 889 C > 255 4
724 890 C > 170 4
725 726 D = 238 0
725 734 C > 526 1
725 739 C > 165 3
725 740 C > 299 1
725 829 C >  67 2
725 830 C > 113 4
726 734 C > 425 2
726 829 C > 165 4
727 728 D = 238 0
727 729 C > 100 2
727 730 C > 215 4
727 741 C >  55 4
727 742 C > 180 2
727 743 C > 534 4
727 744 C > 299 2
728 729 C > 168 2
728 730 C > 172 2
728 743 C > 294 2
728 744 C >  60 4
729 730 D = 238 0
729 743 C > 108 1
729 744 C > 198 4
730 743 C > 121 4
730 744 C > 108 4
731 732 D = 238 0
731 819 C > 167 4
731 820 C > 228 3
732 819 C > 204 2
732 820 C > 159 4
732 893 C > 165 1
732 894 C >  66 3
733 734 D = 238 0
733 815 C > 109 3
733 816 C > 124 3
733 830 C > 196 2
734 829 C > 284 2
735 736 D = 238 0
735 737 C > 265 2
735 738 C > 243 4
735 743 C > 191 1
735 744 C > 282 1
735 759 C >  93 2
735 760 C > 138 1
735 797 C > 151 2
735 798 C > 297 3
736 737 C > 122 2
736 738 C > 128 4
736 743 C > 281 2
736 744 C >  47 2
736 759 C > 269 2
736 760 C >  97 2
736 797 C > 297 3
736 798 C >  60 1
737 738 D = 238 0
737 751 C >  41 1
737 752 C > 193 3
737 759 C > 531 4
737 760 C > 178 3
737 797 C >  66 3
737 798 C > 196 1
738 759 C > 150 3
738 760 C > 225 3
738 797 C > 162 4
738 798 C >  66 1
739 740 D = 238 0
740 897 C > 170 4
740 898 C > 240 2
741 742 D = 238 0
741 769 C >  94 4
741 770 C > 138 1
742 769 C > 139 1
742 770 C >  96 4
743 744 D = 238 0
744 789 C > 247 1
744 790 C >   9 1
745 746 D = 238 0
745 773 C >  36 2
745 774 C > 274 2
745 809 C >  37 2
745 810 C > 194 4
745 867 C > 158 1
745 868 C > 281 3
746 809 C > 277 2
746 810 C >  40 1
746 843 C > 420 4
746 844 C > 187 2
746 867 C > 124 4
746 868 C > 113 2
747 748 D = 238 0
748 787 C > 160 3
748 788 C > 213 2
749 750 D = 238 0
749 771 C > 399 2
750 772 C > 437 4
751 752 D = 238 0
751 789 C > 108 2
751 790 C > 220 2
751 805 C > 212 2
751 806 C > 239 1
751 823 C >  23 2
751 824 C > 207 4
752 805 C > 218 4
752 806 C > 266 2
752 819 C > 190 3
752 820 C > 127 4
752 823 C > 261 3
752 824 C >  26 1
753 754 D = 238 0
753 821 C > 188 3
753 822 C > 125 4
754 821 C > 240 4
754 822 C > 229 1
755 756 D = 238 0
755 765 C > 107 3
755 766 C > 243 3
755 803 C >   9 4
755 804 C > 250 3
755 841 C >  22 2
755 842 C > 263 2
756 803 C > 221 4
756 804 C >  10 4
756 841 C > 206 3
756 842 C >  24 4
756 851 C > 292 1
756 852 C > 141 1
757 758 D = 238 0
757 853 C > 201 3
757 854 C > 265 3
757 873 C > 190 4
757 874 C > 183 4
757 881 C > 207 2
757 882 C > 129 4
757 895 C > 140 2
757 896 C > 244 4
758 854 C > 198 3
758 869 C > 436 4
758 870 C > 198 1
758 881 C > 521 2
759 760 D = 238 0
759 797 C > 158 2
759 798 C > 132 1
760 797 C > 147 3
760 798 C > 158 1
761 762 D = 238 0
761 791 C > 111 4
761 792 C > 255 4
761 831 C >  23 1
761 832 C > 260 2
762 791 C > 125 4
762 792 C > 108 1
762 831 C > 205 2
762 832 C >  25 2
763 764 D = 238 0
764 890 C > 198 4
765 766 D = 238 0
765 872 C > 266 3
765 893 C > 154 4
765 894 C > 242 1
766 871 C > 267 2
766 872 C >  30 4
766 894 C > 117 1
767 768 D = 238 0
768 873 C > 105 2
769 770 D = 238 0
770 897 C > 292 3
770 898 C > 125 1
771 772 D = 238 0
772 789 C >  94 2
772 790 C > 134 2
773 774 D = 238 0
773 793 C > 271 4
774 794 C > 184 2
775 776 D = 238 0
775 783 C >  36 2
775 784 C > 276 2
775 825 C > 175 1
775 826 C > 154 1
775 827 C >  95 4
775 828 C > 121 1
776 825 C > 169 2
776 826 C > 187 1
776 827 C > 135 4
776 828 C >  93 2
777 778 D = 238 0
778 877 C > 296 2
778 878 C > 266 3
779 780 D = 238 0
780 889 C > 146 2
780 890 C > 101 1
781 782 D = 238 0
781 799 C >  11 4
781 800 C > 221 4
781 851 C > 136 2
781 852 C > 372 2
782 799 C > 249 3
782 800 C >   8 4
783 784 D = 238 0
783 835 C >  39 1
783 836 C > 192 1
783 843 C >  23 2
783 844 C > 260 1
784 835 C > 278 4
784 836 C >  41 4
785 786 D = 238 0
785 833 C > 151 3
785 834 C > 184 1
785 847 C > 534 4
785 848 C > 205 3
785 869 C > 108 2
785 870 C > 249 2
786 833 C > 188 3
786 834 C > 156 2
786 847 C > 434 4
786 848 C > 197 1
787 788 D = 238 0
788 837 C > 176 4
788 838 C >  53 2
789 790 D = 238 0
790 897 C > 288 1
790 898 C > 157 1
791 792 D = 238 0
791 831 C >  81 2
791 832 C > 149 2
792 831 C > 132 3
792 832 C >  81 3
793 794 D = 238 0
794 909 C > 261 3
794 910 C >  22 4
795 796 D = 238 0
795 889 C >  10 2
795 890 C > 218 4
796 901 C > 139 2
796 902 C > 108 4
797 798 D = 238 0
797 851 C >   8 4
797 852 C > 247 4
798 877 C > 194 2
798 878 C > 129 2
799 800 D = 238 0
800 877 C > 157 3
800 878 C > 267 3
801 802 D = 238 0
801 864 C > 241 3
802 863 C > 218 2
802 864 C >  72 2
803 804 D = 238 0
803 841 C >  12 4
803 842 C > 246 3
804 841 C > 221 2
804 842 C >  10 1
805 806 D = 238 0
805 823 C > 473 1
805 824 C > 374 1
805 861 C > 253 2
805 862 C > 243 3
806 823 C > 435 1
806 824 C > 408 1
806 905 C > 191 1
806 906 C > 295 1
807 808 D = 238 0
808 901 C > 219 2
808 902 C >  78 3
809 810 D = 238 0
809 867 C > 101 2
809 868 C > 173 4
810 867 C > 246 4
810 868 C > 159 2
810 911 C > 290 2
810 912 C > 171 3
811 812 D = 238 0
811 837 C > 121 2
811 838 C > 183 3
811 871 C >  96 4
811 872 C > 176 2
812 837 C > 251 4
812 838 C > 187 1
812 903 C > 196 4
812 904 C > 227 4
813 814 D = 238 0
813 817 C > 292 1
813 859 C >  52 2
813 860 C > 178 1
814 817 C > 145 3
814 818 C >  88 2
815 816 D = 238 0
815 849 C > 109 1
815 850 C > 237 3
816 849 C > 160 1
816 850 C > 187 1
817 818 D = 238 0
818 845 C > 292 2
818 846 C >  55 3
819 820 D = 238 0
820 879 C > 254 3
820 880 C >  19 1
821 822 D = 238 0
822 899 C > 156 4
822 900 C > 158 3
823 824 D = 238 0
824 907 C > 179 1
824 908 C >  54 1
825 826 D = 238 0
825 827 C > 102 4
825 828 C > 245 2
825 857 C > 150 4
825 858 C > 367 3
826 827 C > 234 2
826 828 C >  88 1
827 828 D = 238 0
828 883 C > 281 3
828 884 C >  45 4
829 830 D = 238 0
830 851 C > 208 2
830 852 C >  73 2
831 832 D = 238 0
832 847 C > 215 1
832 848 C > 212 1
833 834 D = 238 0
833 847 C >  38 4
833 848 C > 191 2
833 883 C > 276 1
833 884 C > 285 4
834 847 C > 274 3
834 848 C >  41 2
835 836 D = 238 0
835 879 C > 129 2
835 880 C > 262 3
836 873 C > 207 3
836 874 C >  23 3
837 838 D = 238 0
838 851 C > 101 4
838 852 C >  84 2
839 840 D = 238 0
839 859 C >  82 2
839 860 C > 153 2
839 862 C > 210 2
841 842 D = 238 0
841 847 C >  24 4
841 848 C > 264 2
842 889 C > 162 2
842 890 C >  67 1
843 844 D = 238 0
844 847 C > 251 1
844 848 C >  10 2
845 846 D = 238 0
845 855 C >  53 2
845 856 C > 293 4
846 883 C > 177 1
846 884 C >  51 3
847 848 D = 238 0
848 863 C > 103 3
848 864 C > 145 4
849 850 D = 238 0
850 905 C > 242 2
850 906 C > 110 2
851 852 D = 238 0
851 893 C >  80 1
851 894 C > 152 2
852 875 C > 292 2
852 876 C >  52 2
853 854 D = 238 0
853 882 C > 152 1
853 895 C >   9 1
853 896 C > 220 4
854 882 C >  83 2
854 887 C > 293 2
854 888 C >  54 4
854 896 C >  10 4
855 856 D = 238 0
856 860 C > 144 3
857 858 D = 238 0
857 873 C >  26 1
857 874 C > 209 2
857 886 C > 129 1
858 885 C > 173 4
858 903 C > 277 3
858 904 C >  40 3
859 860 D = 238 0
860 881 C > 219 2
860 882 C >  11 4
861 862 D = 238 0
862 885 C > 205 1
862 886 C >  26 1
863 864 D = 238 0
864 865 C > 178 2
864 866 C >  54 4
865 866 D = 238 0
865 888 C > 279 1
865 901 C > 192 3
865 902 C > 259 2
866 887 C > 127 4
866 888 C > 103 3
866 901 C > 215 4
866 902 C > 140 1
866 903 C > 202 1
866 904 C > 130 3
867 868 D = 238 0
868 877 C > 268 1
868 878 C > 106 4
869 870 D = 238 0
869 891 C >  69 3
869 892 C > 164 2
870 895 C > 251 4
870 896 C >  13 2
871 872 D = 238 0
871 893 C >  83 4
871 894 C > 149 1
872 893 C > 229 4
873 874 D = 238 0
874 889 C > 166 2
874 890 C >  65 4
875 876 D = 238 0
875 892 C > 170 4
875 906 C > 136 2
876 899 C > 194 1
876 900 C >  41 2
876 906 C >  96 3
877 878 D = 238 0
877 909 C >  24 4
877 912 C > 122 3
877 913 C > 292 1
877 914 C > 285 3
878 909 C > 264 2
878 910 C >  27 2
878 911 C > 139 4
878 912 C >  96 4
879 880 D = 238 0
880 903 C > 141 1
880 904 C > 145 3
881 882 D = 238 0
881 895 C >  64 4
882 896 C >  66 2
883 884 D = 238 0
883 904 C > 157 2
883 905 C > 151 4
883 906 C >  83 3
885 886 D = 238 0
886 903 C > 211 2
886 904 C > 215 2
887 888 D = 238 0
887 902 C > 190 4
888 901 C > 278 2
888 902 C >  37 3
888 909 C > 279 2
888 910 C >  39 4
889 890 D = 238 0
890 911 C > 207 4
890 912 C >  23 2
891 892 D = 238 0
891 906 C > 152 4
891 907 C > 150 2
891 908 C > 281 1
892 905 C > 138 2
892 906 C > 268 3
892 907 C > 206 2
892 908 C > 210 3
893 894 D = 238 0
894 913 C > 229 4
894 914 C >  66 1
895 896 D = 238 0
896 899 C > 310 4
896 900 C >  73 3
897 898 D = 238 0
898 899 C > 176 2
898 900 C > 159 2
899 900 D = 238 0
899 903 C > 133 2
899 904 C > 379 4
900 911 C > 266 3
900 912 C >  29 4
901 902 D = 238 0
902 905 C > 294 4
902 906 C > 297 2
903 904 D = 238 0
903 911 C > 106 4
903 912 C > 108 4
904 913 C > 265 3
904 914 C > 280 1
905 906 D = 238 0
905 907 C >  52 4
905 908 C > 293 4
906 911 C > 241 3
906 912 C > 171 1
907 908 D = 238 0
908 909 C > 170 1
908 910 C > 238 2
909 910 D = 238 0
910 911 C > 108 4
910 912 C > 121 1
911 912 D = 238 0
911 913 C > 200 1
911 914 C > 115 2
912 913 C > 152 4
912 914 C > 173 3
913 914 D = 238 0
914 915 C > 177 3
914 916 C >  51 3
915 916 D = 238 0
